%YAML 1.1
%TAG !u! tag:unity3d.com,2011:
--- !u!1001 &6019633454086479811
PrefabInstance:
  m_ObjectHideFlags: 0
  serializedVersion: 2
  m_Modification:
    m_TransformParent: {fileID: 0}
    m_Modifications:
    - target: {fileID: 159842196685736386, guid: 255ce72eb3987254eb6238bc0835d52b,
        type: 3}
      propertyPath: m_Name
      value: Fireball_1 Variant
      objectReference: {fileID: 0}
    - target: {fileID: 159842196685736391, guid: 255ce72eb3987254eb6238bc0835d52b,
        type: 3}
      propertyPath: m_LocalPosition.x
      value: 0.306
      objectReference: {fileID: 0}
    - target: {fileID: 159842196685736391, guid: 255ce72eb3987254eb6238bc0835d52b,
        type: 3}
      propertyPath: m_LocalPosition.y
      value: 3.5
      objectReference: {fileID: 0}
    - target: {fileID: 159842196685736391, guid: 255ce72eb3987254eb6238bc0835d52b,
        type: 3}
      propertyPath: m_LocalPosition.z
      value: 0
      objectReference: {fileID: 0}
    - target: {fileID: 159842196685736391, guid: 255ce72eb3987254eb6238bc0835d52b,
        type: 3}
      propertyPath: m_LocalRotation.x
      value: 0
      objectReference: {fileID: 0}
    - target: {fileID: 159842196685736391, guid: 255ce72eb3987254eb6238bc0835d52b,
        type: 3}
      propertyPath: m_LocalRotation.y
      value: 0
      objectReference: {fileID: 0}
    - target: {fileID: 159842196685736391, guid: 255ce72eb3987254eb6238bc0835d52b,
        type: 3}
      propertyPath: m_LocalRotation.z
      value: 0
      objectReference: {fileID: 0}
    - target: {fileID: 159842196685736391, guid: 255ce72eb3987254eb6238bc0835d52b,
        type: 3}
      propertyPath: m_LocalRotation.w
      value: 1
      objectReference: {fileID: 0}
    - target: {fileID: 159842196685736391, guid: 255ce72eb3987254eb6238bc0835d52b,
        type: 3}
      propertyPath: m_RootOrder
      value: 0
      objectReference: {fileID: 0}
    - target: {fileID: 159842196685736391, guid: 255ce72eb3987254eb6238bc0835d52b,
        type: 3}
      propertyPath: m_LocalEulerAnglesHint.x
      value: 0
      objectReference: {fileID: 0}
    - target: {fileID: 159842196685736391, guid: 255ce72eb3987254eb6238bc0835d52b,
        type: 3}
      propertyPath: m_LocalEulerAnglesHint.y
      value: 0
      objectReference: {fileID: 0}
    - target: {fileID: 159842196685736391, guid: 255ce72eb3987254eb6238bc0835d52b,
        type: 3}
      propertyPath: m_LocalEulerAnglesHint.z
      value: 0
      objectReference: {fileID: 0}
    - target: {fileID: 159842196685736391, guid: 255ce72eb3987254eb6238bc0835d52b,
        type: 3}
      propertyPath: m_LocalScale.x
      value: 2
      objectReference: {fileID: 0}
    - target: {fileID: 159842196685736391, guid: 255ce72eb3987254eb6238bc0835d52b,
        type: 3}
      propertyPath: m_LocalScale.y
      value: 2
      objectReference: {fileID: 0}
    - target: {fileID: 159842196685736391, guid: 255ce72eb3987254eb6238bc0835d52b,
        type: 3}
      propertyPath: m_LocalScale.z
      value: 2
      objectReference: {fileID: 0}
    - target: {fileID: 159842196685736384, guid: 255ce72eb3987254eb6238bc0835d52b,
        type: 3}
      propertyPath: m_Color.r
      value: 1
      objectReference: {fileID: 0}
    - target: {fileID: 159842196685736384, guid: 255ce72eb3987254eb6238bc0835d52b,
        type: 3}
      propertyPath: m_Color.b
      value: 0
      objectReference: {fileID: 0}
    - target: {fileID: 159842196685736384, guid: 255ce72eb3987254eb6238bc0835d52b,
        type: 3}
      propertyPath: m_Color.g
      value: 0.21568628
      objectReference: {fileID: 0}
    - target: {fileID: 159842196685736389, guid: 255ce72eb3987254eb6238bc0835d52b,
        type: 3}
      propertyPath: playerDamage
      value: 45
      objectReference: {fileID: 0}
    - target: {fileID: 159842196685736389, guid: 255ce72eb3987254eb6238bc0835d52b,
        type: 3}
      propertyPath: gravityScale
      value: 0.5
      objectReference: {fileID: 0}
    - target: {fileID: 159842197999090517, guid: 255ce72eb3987254eb6238bc0835d52b,
        type: 3}
      propertyPath: m_Parameters.colorGradient.key0.g
      value: 0.11576611
      objectReference: {fileID: 0}
    - target: {fileID: 159842197999090517, guid: 255ce72eb3987254eb6238bc0835d52b,
        type: 3}
      propertyPath: m_Parameters.colorGradient.key1.g
      value: 0
      objectReference: {fileID: 0}
    - target: {fileID: 159842197999090517, guid: 255ce72eb3987254eb6238bc0835d52b,
        type: 3}
      propertyPath: m_Parameters.colorGradient.key1.r
      value: 0.47058824
      objectReference: {fileID: 0}
    m_RemovedComponents: []
  m_SourcePrefab: {fileID: 100100000, guid: 255ce72eb3987254eb6238bc0835d52b, type: 3}
