%YAML 1.1
%TAG !u! tag:unity3d.com,2011:
--- !u!1001 &7281004574188597322
PrefabInstance:
  m_ObjectHideFlags: 0
  serializedVersion: 2
  m_Modification:
    m_TransformParent: {fileID: 0}
    m_Modifications:
    - target: {fileID: 2723271639746276899, guid: f715eaf43e6617e478ff47b75d07c3ae,
        type: 3}
      propertyPath: m_Name
      value: Jellyfish Attack Variant
      objectReference: {fileID: 0}
    - target: {fileID: 2723271639746276911, guid: f715eaf43e6617e478ff47b75d07c3ae,
        type: 3}
      propertyPath: m_LocalPosition.x
      value: 47.02175
      objectReference: {fileID: 0}
    - target: {fileID: 2723271639746276911, guid: f715eaf43e6617e478ff47b75d07c3ae,
        type: 3}
      propertyPath: m_LocalPosition.y
      value: -10.129173
      objectReference: {fileID: 0}
    - target: {fileID: 2723271639746276911, guid: f715eaf43e6617e478ff47b75d07c3ae,
        type: 3}
      propertyPath: m_LocalPosition.z
      value: 0
      objectReference: {fileID: 0}
    - target: {fileID: 2723271639746276911, guid: f715eaf43e6617e478ff47b75d07c3ae,
        type: 3}
      propertyPath: m_LocalRotation.x
      value: 0
      objectReference: {fileID: 0}
    - target: {fileID: 2723271639746276911, guid: f715eaf43e6617e478ff47b75d07c3ae,
        type: 3}
      propertyPath: m_LocalRotation.y
      value: 0
      objectReference: {fileID: 0}
    - target: {fileID: 2723271639746276911, guid: f715eaf43e6617e478ff47b75d07c3ae,
        type: 3}
      propertyPath: m_LocalRotation.z
      value: 0
      objectReference: {fileID: 0}
    - target: {fileID: 2723271639746276911, guid: f715eaf43e6617e478ff47b75d07c3ae,
        type: 3}
      propertyPath: m_LocalRotation.w
      value: 1
      objectReference: {fileID: 0}
    - target: {fileID: 2723271639746276911, guid: f715eaf43e6617e478ff47b75d07c3ae,
        type: 3}
      propertyPath: m_RootOrder
      value: 0
      objectReference: {fileID: 0}
    - target: {fileID: 2723271639746276911, guid: f715eaf43e6617e478ff47b75d07c3ae,
        type: 3}
      propertyPath: m_LocalEulerAnglesHint.x
      value: 0
      objectReference: {fileID: 0}
    - target: {fileID: 2723271639746276911, guid: f715eaf43e6617e478ff47b75d07c3ae,
        type: 3}
      propertyPath: m_LocalEulerAnglesHint.y
      value: 0
      objectReference: {fileID: 0}
    - target: {fileID: 2723271639746276911, guid: f715eaf43e6617e478ff47b75d07c3ae,
        type: 3}
      propertyPath: m_LocalEulerAnglesHint.z
      value: 0
      objectReference: {fileID: 0}
    - target: {fileID: 8506580929336937377, guid: f715eaf43e6617e478ff47b75d07c3ae,
        type: 3}
      propertyPath: element
      value: 5
      objectReference: {fileID: 0}
    - target: {fileID: 8506580929336937377, guid: f715eaf43e6617e478ff47b75d07c3ae,
        type: 3}
      propertyPath: gravityScale
      value: 0
      objectReference: {fileID: 0}
    - target: {fileID: 8506580929336937377, guid: f715eaf43e6617e478ff47b75d07c3ae,
        type: 3}
      propertyPath: playerDamage
      value: 35
      objectReference: {fileID: 0}
    - target: {fileID: 4301905922312946870, guid: f715eaf43e6617e478ff47b75d07c3ae,
        type: 3}
      propertyPath: m_Parameters.colorGradient.key0.g
      value: 0.2243948
      objectReference: {fileID: 0}
    - target: {fileID: 4301905922312946870, guid: f715eaf43e6617e478ff47b75d07c3ae,
        type: 3}
      propertyPath: m_Parameters.colorGradient.key0.b
      value: 1
      objectReference: {fileID: 0}
    - target: {fileID: 4301905922312946870, guid: f715eaf43e6617e478ff47b75d07c3ae,
        type: 3}
      propertyPath: m_Parameters.colorGradient.key1.b
      value: 0.002625496
      objectReference: {fileID: 0}
    - target: {fileID: 4301905922312946870, guid: f715eaf43e6617e478ff47b75d07c3ae,
        type: 3}
      propertyPath: m_Parameters.colorGradient.key1.r
      value: 0.5566038
      objectReference: {fileID: 0}
    - target: {fileID: 4301905922312946870, guid: f715eaf43e6617e478ff47b75d07c3ae,
        type: 3}
      propertyPath: m_Parameters.colorGradient.key1.g
      value: 0.5391954
      objectReference: {fileID: 0}
    - target: {fileID: 8872340957915017374, guid: f715eaf43e6617e478ff47b75d07c3ae,
        type: 3}
      propertyPath: m_Color.b
      value: 1
      objectReference: {fileID: 0}
    - target: {fileID: 8872340957915017374, guid: f715eaf43e6617e478ff47b75d07c3ae,
        type: 3}
      propertyPath: m_Color.g
      value: 0.20093274
      objectReference: {fileID: 0}
    - target: {fileID: 8872340957915017374, guid: f715eaf43e6617e478ff47b75d07c3ae,
        type: 3}
      propertyPath: m_Color.r
      value: 0
      objectReference: {fileID: 0}
    m_RemovedComponents: []
  m_SourcePrefab: {fileID: 100100000, guid: f715eaf43e6617e478ff47b75d07c3ae, type: 3}
