%YAML 1.1
%TAG !u! tag:unity3d.com,2011:
--- !u!1001 &2514228916872240940
PrefabInstance:
  m_ObjectHideFlags: 0
  serializedVersion: 2
  m_Modification:
    m_TransformParent: {fileID: 0}
    m_Modifications:
    - target: {fileID: 1086888684809459185, guid: 63c83ff4fd78e8d43a9d71d015663c13,
        type: 3}
      propertyPath: m_Name
      value: Lava Block Variant
      objectReference: {fileID: 0}
    - target: {fileID: 1086888684809459198, guid: 63c83ff4fd78e8d43a9d71d015663c13,
        type: 3}
      propertyPath: m_LocalPosition.x
      value: 0
      objectReference: {fileID: 0}
    - target: {fileID: 1086888684809459198, guid: 63c83ff4fd78e8d43a9d71d015663c13,
        type: 3}
      propertyPath: m_LocalPosition.y
      value: -27
      objectReference: {fileID: 0}
    - target: {fileID: 1086888684809459198, guid: 63c83ff4fd78e8d43a9d71d015663c13,
        type: 3}
      propertyPath: m_LocalPosition.z
      value: 0
      objectReference: {fileID: 0}
    - target: {fileID: 1086888684809459198, guid: 63c83ff4fd78e8d43a9d71d015663c13,
        type: 3}
      propertyPath: m_LocalRotation.x
      value: 0
      objectReference: {fileID: 0}
    - target: {fileID: 1086888684809459198, guid: 63c83ff4fd78e8d43a9d71d015663c13,
        type: 3}
      propertyPath: m_LocalRotation.y
      value: 0
      objectReference: {fileID: 0}
    - target: {fileID: 1086888684809459198, guid: 63c83ff4fd78e8d43a9d71d015663c13,
        type: 3}
      propertyPath: m_LocalRotation.z
      value: 0
      objectReference: {fileID: 0}
    - target: {fileID: 1086888684809459198, guid: 63c83ff4fd78e8d43a9d71d015663c13,
        type: 3}
      propertyPath: m_LocalRotation.w
      value: 1
      objectReference: {fileID: 0}
    - target: {fileID: 1086888684809459198, guid: 63c83ff4fd78e8d43a9d71d015663c13,
        type: 3}
      propertyPath: m_RootOrder
      value: 0
      objectReference: {fileID: 0}
    - target: {fileID: 1086888684809459198, guid: 63c83ff4fd78e8d43a9d71d015663c13,
        type: 3}
      propertyPath: m_LocalEulerAnglesHint.x
      value: 0
      objectReference: {fileID: 0}
    - target: {fileID: 1086888684809459198, guid: 63c83ff4fd78e8d43a9d71d015663c13,
        type: 3}
      propertyPath: m_LocalEulerAnglesHint.y
      value: 0
      objectReference: {fileID: 0}
    - target: {fileID: 1086888684809459198, guid: 63c83ff4fd78e8d43a9d71d015663c13,
        type: 3}
      propertyPath: m_LocalEulerAnglesHint.z
      value: 0
      objectReference: {fileID: 0}
    - target: {fileID: 1086888684809459199, guid: 63c83ff4fd78e8d43a9d71d015663c13,
        type: 3}
      propertyPath: m_Sprite
      value: 
      objectReference: {fileID: -3933614710091540802, guid: 7667d2862d2f64c49b72f7283c5ef377,
        type: 3}
    - target: {fileID: 1086888684809459199, guid: 63c83ff4fd78e8d43a9d71d015663c13,
        type: 3}
      propertyPath: m_Color.a
      value: 0.60784316
      objectReference: {fileID: 0}
    - target: {fileID: 1086888684809459196, guid: 63c83ff4fd78e8d43a9d71d015663c13,
        type: 3}
      propertyPath: damagePerSecond
      value: 10
      objectReference: {fileID: 0}
    - target: {fileID: 1086888684809459196, guid: 63c83ff4fd78e8d43a9d71d015663c13,
        type: 3}
      propertyPath: splashPrefab
      value: 
      objectReference: {fileID: 9107337167093933875, guid: 659da44c9eb1e354c927f1c492fc0b05,
        type: 3}
    m_RemovedComponents: []
  m_SourcePrefab: {fileID: 100100000, guid: 63c83ff4fd78e8d43a9d71d015663c13, type: 3}
