%YAML 1.1
%TAG !u! tag:unity3d.com,2011:
--- !u!1 &793418822316913810
GameObject:
  m_ObjectHideFlags: 0
  m_CorrespondingSourceObject: {fileID: 0}
  m_PrefabInstance: {fileID: 0}
  m_PrefabAsset: {fileID: 0}
  serializedVersion: 6
  m_Component:
  - component: {fileID: 832065072394324236}
  - component: {fileID: 4890033484281115910}
  - component: {fileID: 5298060191501420345}
  m_Layer: 31
  m_Name: Layer1
  m_TagString: Untagged
  m_Icon: {fileID: 0}
  m_NavMeshLayer: 0
  m_StaticEditorFlags: 0
  m_IsActive: 1
--- !u!4 &832065072394324236
Transform:
  m_ObjectHideFlags: 0
  m_CorrespondingSourceObject: {fileID: 0}
  m_PrefabInstance: {fileID: 0}
  m_PrefabAsset: {fileID: 0}
  m_GameObject: {fileID: 793418822316913810}
  m_LocalRotation: {x: -0, y: -0, z: -0, w: 1}
  m_LocalPosition: {x: 0, y: 0, z: 0}
  m_LocalScale: {x: 1, y: 1, z: 1}
  m_Children: []
  m_Father: {fileID: 1313910758532195899}
  m_RootOrder: 0
  m_LocalEulerAnglesHint: {x: 0, y: 0, z: 0}
--- !u!1839735485 &4890033484281115910
Tilemap:
  m_ObjectHideFlags: 0
  m_CorrespondingSourceObject: {fileID: 0}
  m_PrefabInstance: {fileID: 0}
  m_PrefabAsset: {fileID: 0}
  m_GameObject: {fileID: 793418822316913810}
  m_Enabled: 1
  m_Tiles:
  - first: {x: -1, y: -7, z: 0}
    second:
      m_TileIndex: 100
      m_TileSpriteIndex: 100
      m_TileMatrixIndex: 0
      m_TileColorIndex: 0
      m_ObjectToInstantiate: {fileID: 0}
      m_TileFlags: 1
      m_ColliderType: 1
  - first: {x: 0, y: -7, z: 0}
    second:
      m_TileIndex: 101
      m_TileSpriteIndex: 101
      m_TileMatrixIndex: 0
      m_TileColorIndex: 0
      m_ObjectToInstantiate: {fileID: 0}
      m_TileFlags: 1
      m_ColliderType: 1
  - first: {x: 1, y: -7, z: 0}
    second:
      m_TileIndex: 102
      m_TileSpriteIndex: 102
      m_TileMatrixIndex: 0
      m_TileColorIndex: 0
      m_ObjectToInstantiate: {fileID: 0}
      m_TileFlags: 1
      m_ColliderType: 1
  - first: {x: 2, y: -7, z: 0}
    second:
      m_TileIndex: 103
      m_TileSpriteIndex: 103
      m_TileMatrixIndex: 0
      m_TileColorIndex: 0
      m_ObjectToInstantiate: {fileID: 0}
      m_TileFlags: 1
      m_ColliderType: 1
  - first: {x: -1, y: -6, z: 0}
    second:
      m_TileIndex: 96
      m_TileSpriteIndex: 96
      m_TileMatrixIndex: 0
      m_TileColorIndex: 0
      m_ObjectToInstantiate: {fileID: 0}
      m_TileFlags: 1
      m_ColliderType: 1
  - first: {x: 0, y: -6, z: 0}
    second:
      m_TileIndex: 97
      m_TileSpriteIndex: 97
      m_TileMatrixIndex: 0
      m_TileColorIndex: 0
      m_ObjectToInstantiate: {fileID: 0}
      m_TileFlags: 1
      m_ColliderType: 1
  - first: {x: 1, y: -6, z: 0}
    second:
      m_TileIndex: 98
      m_TileSpriteIndex: 98
      m_TileMatrixIndex: 0
      m_TileColorIndex: 0
      m_ObjectToInstantiate: {fileID: 0}
      m_TileFlags: 1
      m_ColliderType: 1
  - first: {x: 2, y: -6, z: 0}
    second:
      m_TileIndex: 99
      m_TileSpriteIndex: 99
      m_TileMatrixIndex: 0
      m_TileColorIndex: 0
      m_ObjectToInstantiate: {fileID: 0}
      m_TileFlags: 1
      m_ColliderType: 1
  - first: {x: -2, y: -5, z: 0}
    second:
      m_TileIndex: 104
      m_TileSpriteIndex: 104
      m_TileMatrixIndex: 0
      m_TileColorIndex: 0
      m_ObjectToInstantiate: {fileID: 0}
      m_TileFlags: 1
      m_ColliderType: 1
  - first: {x: -1, y: -5, z: 0}
    second:
      m_TileIndex: 89
      m_TileSpriteIndex: 89
      m_TileMatrixIndex: 0
      m_TileColorIndex: 0
      m_ObjectToInstantiate: {fileID: 0}
      m_TileFlags: 1
      m_ColliderType: 1
  - first: {x: 0, y: -5, z: 0}
    second:
      m_TileIndex: 90
      m_TileSpriteIndex: 90
      m_TileMatrixIndex: 0
      m_TileColorIndex: 0
      m_ObjectToInstantiate: {fileID: 0}
      m_TileFlags: 1
      m_ColliderType: 1
  - first: {x: 1, y: -5, z: 0}
    second:
      m_TileIndex: 91
      m_TileSpriteIndex: 91
      m_TileMatrixIndex: 0
      m_TileColorIndex: 0
      m_ObjectToInstantiate: {fileID: 0}
      m_TileFlags: 1
      m_ColliderType: 1
  - first: {x: 2, y: -5, z: 0}
    second:
      m_TileIndex: 92
      m_TileSpriteIndex: 92
      m_TileMatrixIndex: 0
      m_TileColorIndex: 0
      m_ObjectToInstantiate: {fileID: 0}
      m_TileFlags: 1
      m_ColliderType: 1
  - first: {x: 3, y: -5, z: 0}
    second:
      m_TileIndex: 93
      m_TileSpriteIndex: 93
      m_TileMatrixIndex: 0
      m_TileColorIndex: 0
      m_ObjectToInstantiate: {fileID: 0}
      m_TileFlags: 1
      m_ColliderType: 1
  - first: {x: 4, y: -5, z: 0}
    second:
      m_TileIndex: 94
      m_TileSpriteIndex: 94
      m_TileMatrixIndex: 0
      m_TileColorIndex: 0
      m_ObjectToInstantiate: {fileID: 0}
      m_TileFlags: 1
      m_ColliderType: 1
  - first: {x: 5, y: -5, z: 0}
    second:
      m_TileIndex: 95
      m_TileSpriteIndex: 95
      m_TileMatrixIndex: 0
      m_TileColorIndex: 0
      m_ObjectToInstantiate: {fileID: 0}
      m_TileFlags: 1
      m_ColliderType: 1
  - first: {x: 12, y: -5, z: 0}
    second:
      m_TileIndex: 84
      m_TileSpriteIndex: 84
      m_TileMatrixIndex: 0
      m_TileColorIndex: 0
      m_ObjectToInstantiate: {fileID: 0}
      m_TileFlags: 1
      m_ColliderType: 1
  - first: {x: 13, y: -5, z: 0}
    second:
      m_TileIndex: 85
      m_TileSpriteIndex: 85
      m_TileMatrixIndex: 0
      m_TileColorIndex: 0
      m_ObjectToInstantiate: {fileID: 0}
      m_TileFlags: 1
      m_ColliderType: 1
  - first: {x: 14, y: -5, z: 0}
    second:
      m_TileIndex: 86
      m_TileSpriteIndex: 86
      m_TileMatrixIndex: 0
      m_TileColorIndex: 0
      m_ObjectToInstantiate: {fileID: 0}
      m_TileFlags: 1
      m_ColliderType: 1
  - first: {x: 15, y: -5, z: 0}
    second:
      m_TileIndex: 87
      m_TileSpriteIndex: 87
      m_TileMatrixIndex: 0
      m_TileColorIndex: 0
      m_ObjectToInstantiate: {fileID: 0}
      m_TileFlags: 1
      m_ColliderType: 1
  - first: {x: 2, y: -4, z: 0}
    second:
      m_TileIndex: 50
      m_TileSpriteIndex: 50
      m_TileMatrixIndex: 0
      m_TileColorIndex: 0
      m_ObjectToInstantiate: {fileID: 0}
      m_TileFlags: 1
      m_ColliderType: 1
  - first: {x: 3, y: -4, z: 0}
    second:
      m_TileIndex: 47
      m_TileSpriteIndex: 47
      m_TileMatrixIndex: 0
      m_TileColorIndex: 0
      m_ObjectToInstantiate: {fileID: 0}
      m_TileFlags: 1
      m_ColliderType: 1
  - first: {x: 4, y: -4, z: 0}
    second:
      m_TileIndex: 28
      m_TileSpriteIndex: 28
      m_TileMatrixIndex: 0
      m_TileColorIndex: 0
      m_ObjectToInstantiate: {fileID: 0}
      m_TileFlags: 1
      m_ColliderType: 1
  - first: {x: 5, y: -4, z: 0}
    second:
      m_TileIndex: 32
      m_TileSpriteIndex: 32
      m_TileMatrixIndex: 0
      m_TileColorIndex: 0
      m_ObjectToInstantiate: {fileID: 0}
      m_TileFlags: 1
      m_ColliderType: 1
  - first: {x: 6, y: -4, z: 0}
    second:
      m_TileIndex: 33
      m_TileSpriteIndex: 33
      m_TileMatrixIndex: 0
      m_TileColorIndex: 0
      m_ObjectToInstantiate: {fileID: 0}
      m_TileFlags: 1
      m_ColliderType: 1
  - first: {x: 7, y: -4, z: 0}
    second:
      m_TileIndex: 34
      m_TileSpriteIndex: 34
      m_TileMatrixIndex: 0
      m_TileColorIndex: 0
      m_ObjectToInstantiate: {fileID: 0}
      m_TileFlags: 1
      m_ColliderType: 1
  - first: {x: 8, y: -4, z: 0}
    second:
      m_TileIndex: 40
      m_TileSpriteIndex: 40
      m_TileMatrixIndex: 0
      m_TileColorIndex: 0
      m_ObjectToInstantiate: {fileID: 0}
      m_TileFlags: 1
      m_ColliderType: 1
  - first: {x: 9, y: -4, z: 0}
    second:
      m_TileIndex: 41
      m_TileSpriteIndex: 41
      m_TileMatrixIndex: 0
      m_TileColorIndex: 0
      m_ObjectToInstantiate: {fileID: 0}
      m_TileFlags: 1
      m_ColliderType: 1
  - first: {x: 10, y: -4, z: 0}
    second:
      m_TileIndex: 38
      m_TileSpriteIndex: 38
      m_TileMatrixIndex: 0
      m_TileColorIndex: 0
      m_ObjectToInstantiate: {fileID: 0}
      m_TileFlags: 1
      m_ColliderType: 1
  - first: {x: 11, y: -4, z: 0}
    second:
      m_TileIndex: 42
      m_TileSpriteIndex: 42
      m_TileMatrixIndex: 0
      m_TileColorIndex: 0
      m_ObjectToInstantiate: {fileID: 0}
      m_TileFlags: 1
      m_ColliderType: 1
  - first: {x: 12, y: -4, z: 0}
    second:
      m_TileIndex: 80
      m_TileSpriteIndex: 80
      m_TileMatrixIndex: 0
      m_TileColorIndex: 0
      m_ObjectToInstantiate: {fileID: 0}
      m_TileFlags: 1
      m_ColliderType: 1
  - first: {x: 13, y: -4, z: 0}
    second:
      m_TileIndex: 81
      m_TileSpriteIndex: 81
      m_TileMatrixIndex: 0
      m_TileColorIndex: 0
      m_ObjectToInstantiate: {fileID: 0}
      m_TileFlags: 1
      m_ColliderType: 1
  - first: {x: 14, y: -4, z: 0}
    second:
      m_TileIndex: 82
      m_TileSpriteIndex: 82
      m_TileMatrixIndex: 0
      m_TileColorIndex: 0
      m_ObjectToInstantiate: {fileID: 0}
      m_TileFlags: 1
      m_ColliderType: 1
  - first: {x: 15, y: -4, z: 0}
    second:
      m_TileIndex: 83
      m_TileSpriteIndex: 83
      m_TileMatrixIndex: 0
      m_TileColorIndex: 0
      m_ObjectToInstantiate: {fileID: 0}
      m_TileFlags: 1
      m_ColliderType: 1
  - first: {x: 16, y: -4, z: 0}
    second:
      m_TileIndex: 88
      m_TileSpriteIndex: 88
      m_TileMatrixIndex: 0
      m_TileColorIndex: 0
      m_ObjectToInstantiate: {fileID: 0}
      m_TileFlags: 1
      m_ColliderType: 1
  - first: {x: 17, y: -4, z: 0}
    second:
      m_TileIndex: 72
      m_TileSpriteIndex: 72
      m_TileMatrixIndex: 0
      m_TileColorIndex: 0
      m_ObjectToInstantiate: {fileID: 0}
      m_TileFlags: 1
      m_ColliderType: 1
  - first: {x: 0, y: -3, z: 0}
    second:
      m_TileIndex: 52
      m_TileSpriteIndex: 52
      m_TileMatrixIndex: 0
      m_TileColorIndex: 0
      m_ObjectToInstantiate: {fileID: 0}
      m_TileFlags: 1
      m_ColliderType: 1
  - first: {x: 1, y: -3, z: 0}
    second:
      m_TileIndex: 53
      m_TileSpriteIndex: 53
      m_TileMatrixIndex: 0
      m_TileColorIndex: 0
      m_ObjectToInstantiate: {fileID: 0}
      m_TileFlags: 1
      m_ColliderType: 1
  - first: {x: 2, y: -3, z: 0}
    second:
      m_TileIndex: 49
      m_TileSpriteIndex: 49
      m_TileMatrixIndex: 0
      m_TileColorIndex: 0
      m_ObjectToInstantiate: {fileID: 0}
      m_TileFlags: 1
      m_ColliderType: 1
  - first: {x: 3, y: -3, z: 0}
    second:
      m_TileIndex: 48
      m_TileSpriteIndex: 48
      m_TileMatrixIndex: 0
      m_TileColorIndex: 0
      m_ObjectToInstantiate: {fileID: 0}
      m_TileFlags: 1
      m_ColliderType: 1
  - first: {x: 4, y: -3, z: 0}
    second:
      m_TileIndex: 51
      m_TileSpriteIndex: 51
      m_TileMatrixIndex: 0
      m_TileColorIndex: 0
      m_ObjectToInstantiate: {fileID: 0}
      m_TileFlags: 1
      m_ColliderType: 1
  - first: {x: 5, y: -3, z: 0}
    second:
      m_TileIndex: 27
      m_TileSpriteIndex: 27
      m_TileMatrixIndex: 0
      m_TileColorIndex: 0
      m_ObjectToInstantiate: {fileID: 0}
      m_TileFlags: 1
      m_ColliderType: 1
  - first: {x: 6, y: -3, z: 0}
    second:
      m_TileIndex: 29
      m_TileSpriteIndex: 29
      m_TileMatrixIndex: 0
      m_TileColorIndex: 0
      m_ObjectToInstantiate: {fileID: 0}
      m_TileFlags: 1
      m_ColliderType: 1
  - first: {x: 7, y: -3, z: 0}
    second:
      m_TileIndex: 26
      m_TileSpriteIndex: 26
      m_TileMatrixIndex: 0
      m_TileColorIndex: 0
      m_ObjectToInstantiate: {fileID: 0}
      m_TileFlags: 1
      m_ColliderType: 1
  - first: {x: 8, y: -3, z: 0}
    second:
      m_TileIndex: 35
      m_TileSpriteIndex: 35
      m_TileMatrixIndex: 0
      m_TileColorIndex: 0
      m_ObjectToInstantiate: {fileID: 0}
      m_TileFlags: 1
      m_ColliderType: 1
  - first: {x: 9, y: -3, z: 0}
    second:
      m_TileIndex: 36
      m_TileSpriteIndex: 36
      m_TileMatrixIndex: 0
      m_TileColorIndex: 0
      m_ObjectToInstantiate: {fileID: 0}
      m_TileFlags: 1
      m_ColliderType: 1
  - first: {x: 10, y: -3, z: 0}
    second:
      m_TileIndex: 37
      m_TileSpriteIndex: 37
      m_TileMatrixIndex: 0
      m_TileColorIndex: 0
      m_ObjectToInstantiate: {fileID: 0}
      m_TileFlags: 1
      m_ColliderType: 1
  - first: {x: 11, y: -3, z: 0}
    second:
      m_TileIndex: 39
      m_TileSpriteIndex: 39
      m_TileMatrixIndex: 0
      m_TileColorIndex: 0
      m_ObjectToInstantiate: {fileID: 0}
      m_TileFlags: 1
      m_ColliderType: 1
  - first: {x: 12, y: -3, z: 0}
    second:
      m_TileIndex: 73
      m_TileSpriteIndex: 73
      m_TileMatrixIndex: 0
      m_TileColorIndex: 0
      m_ObjectToInstantiate: {fileID: 0}
      m_TileFlags: 1
      m_ColliderType: 1
  - first: {x: 13, y: -3, z: 0}
    second:
      m_TileIndex: 74
      m_TileSpriteIndex: 74
      m_TileMatrixIndex: 0
      m_TileColorIndex: 0
      m_ObjectToInstantiate: {fileID: 0}
      m_TileFlags: 1
      m_ColliderType: 1
  - first: {x: 14, y: -3, z: 0}
    second:
      m_TileIndex: 75
      m_TileSpriteIndex: 75
      m_TileMatrixIndex: 0
      m_TileColorIndex: 0
      m_ObjectToInstantiate: {fileID: 0}
      m_TileFlags: 1
      m_ColliderType: 1
  - first: {x: 15, y: -3, z: 0}
    second:
      m_TileIndex: 76
      m_TileSpriteIndex: 76
      m_TileMatrixIndex: 0
      m_TileColorIndex: 0
      m_ObjectToInstantiate: {fileID: 0}
      m_TileFlags: 1
      m_ColliderType: 1
  - first: {x: 16, y: -3, z: 0}
    second:
      m_TileIndex: 77
      m_TileSpriteIndex: 77
      m_TileMatrixIndex: 0
      m_TileColorIndex: 0
      m_ObjectToInstantiate: {fileID: 0}
      m_TileFlags: 1
      m_ColliderType: 1
  - first: {x: 17, y: -3, z: 0}
    second:
      m_TileIndex: 78
      m_TileSpriteIndex: 78
      m_TileMatrixIndex: 0
      m_TileColorIndex: 0
      m_ObjectToInstantiate: {fileID: 0}
      m_TileFlags: 1
      m_ColliderType: 1
  - first: {x: 18, y: -3, z: 0}
    second:
      m_TileIndex: 79
      m_TileSpriteIndex: 79
      m_TileMatrixIndex: 0
      m_TileColorIndex: 0
      m_ObjectToInstantiate: {fileID: 0}
      m_TileFlags: 1
      m_ColliderType: 1
  - first: {x: -1, y: -2, z: 0}
    second:
      m_TileIndex: 14
      m_TileSpriteIndex: 14
      m_TileMatrixIndex: 0
      m_TileColorIndex: 0
      m_ObjectToInstantiate: {fileID: 0}
      m_TileFlags: 1
      m_ColliderType: 1
  - first: {x: 0, y: -2, z: 0}
    second:
      m_TileIndex: 15
      m_TileSpriteIndex: 15
      m_TileMatrixIndex: 0
      m_TileColorIndex: 0
      m_ObjectToInstantiate: {fileID: 0}
      m_TileFlags: 1
      m_ColliderType: 1
  - first: {x: 1, y: -2, z: 0}
    second:
      m_TileIndex: 16
      m_TileSpriteIndex: 16
      m_TileMatrixIndex: 0
      m_TileColorIndex: 0
      m_ObjectToInstantiate: {fileID: 0}
      m_TileFlags: 1
      m_ColliderType: 1
  - first: {x: 2, y: -2, z: 0}
    second:
      m_TileIndex: 17
      m_TileSpriteIndex: 17
      m_TileMatrixIndex: 0
      m_TileColorIndex: 0
      m_ObjectToInstantiate: {fileID: 0}
      m_TileFlags: 1
      m_ColliderType: 1
  - first: {x: 3, y: -2, z: 0}
    second:
      m_TileIndex: 30
      m_TileSpriteIndex: 30
      m_TileMatrixIndex: 0
      m_TileColorIndex: 0
      m_ObjectToInstantiate: {fileID: 0}
      m_TileFlags: 1
      m_ColliderType: 1
  - first: {x: 4, y: -2, z: 0}
    second:
      m_TileIndex: 31
      m_TileSpriteIndex: 31
      m_TileMatrixIndex: 0
      m_TileColorIndex: 0
      m_ObjectToInstantiate: {fileID: 0}
      m_TileFlags: 1
      m_ColliderType: 1
  - first: {x: 5, y: -2, z: 0}
    second:
      m_TileIndex: 23
      m_TileSpriteIndex: 23
      m_TileMatrixIndex: 0
      m_TileColorIndex: 0
      m_ObjectToInstantiate: {fileID: 0}
      m_TileFlags: 1
      m_ColliderType: 1
  - first: {x: 6, y: -2, z: 0}
    second:
      m_TileIndex: 24
      m_TileSpriteIndex: 24
      m_TileMatrixIndex: 0
      m_TileColorIndex: 0
      m_ObjectToInstantiate: {fileID: 0}
      m_TileFlags: 1
      m_ColliderType: 1
  - first: {x: 7, y: -2, z: 0}
    second:
      m_TileIndex: 25
      m_TileSpriteIndex: 25
      m_TileMatrixIndex: 0
      m_TileColorIndex: 0
      m_ObjectToInstantiate: {fileID: 0}
      m_TileFlags: 1
      m_ColliderType: 1
  - first: {x: 8, y: -2, z: 0}
    second:
      m_TileIndex: 43
      m_TileSpriteIndex: 43
      m_TileMatrixIndex: 0
      m_TileColorIndex: 0
      m_ObjectToInstantiate: {fileID: 0}
      m_TileFlags: 1
      m_ColliderType: 1
  - first: {x: 9, y: -2, z: 0}
    second:
      m_TileIndex: 44
      m_TileSpriteIndex: 44
      m_TileMatrixIndex: 0
      m_TileColorIndex: 0
      m_ObjectToInstantiate: {fileID: 0}
      m_TileFlags: 1
      m_ColliderType: 1
  - first: {x: 10, y: -2, z: 0}
    second:
      m_TileIndex: 46
      m_TileSpriteIndex: 46
      m_TileMatrixIndex: 0
      m_TileColorIndex: 0
      m_ObjectToInstantiate: {fileID: 0}
      m_TileFlags: 1
      m_ColliderType: 1
  - first: {x: 11, y: -2, z: 0}
    second:
      m_TileIndex: 45
      m_TileSpriteIndex: 45
      m_TileMatrixIndex: 0
      m_TileColorIndex: 0
      m_ObjectToInstantiate: {fileID: 0}
      m_TileFlags: 1
      m_ColliderType: 1
  - first: {x: 12, y: -2, z: 0}
    second:
      m_TileIndex: 66
      m_TileSpriteIndex: 66
      m_TileMatrixIndex: 0
      m_TileColorIndex: 0
      m_ObjectToInstantiate: {fileID: 0}
      m_TileFlags: 1
      m_ColliderType: 1
  - first: {x: 13, y: -2, z: 0}
    second:
      m_TileIndex: 67
      m_TileSpriteIndex: 67
      m_TileMatrixIndex: 0
      m_TileColorIndex: 0
      m_ObjectToInstantiate: {fileID: 0}
      m_TileFlags: 1
      m_ColliderType: 1
  - first: {x: 14, y: -2, z: 0}
    second:
      m_TileIndex: 68
      m_TileSpriteIndex: 68
      m_TileMatrixIndex: 0
      m_TileColorIndex: 0
      m_ObjectToInstantiate: {fileID: 0}
      m_TileFlags: 1
      m_ColliderType: 1
  - first: {x: 15, y: -2, z: 0}
    second:
      m_TileIndex: 69
      m_TileSpriteIndex: 69
      m_TileMatrixIndex: 0
      m_TileColorIndex: 0
      m_ObjectToInstantiate: {fileID: 0}
      m_TileFlags: 1
      m_ColliderType: 1
  - first: {x: -2, y: -1, z: 0}
    second:
      m_TileIndex: 54
      m_TileSpriteIndex: 54
      m_TileMatrixIndex: 0
      m_TileColorIndex: 0
      m_ObjectToInstantiate: {fileID: 0}
      m_TileFlags: 1
      m_ColliderType: 1
  - first: {x: -1, y: -1, z: 0}
    second:
      m_TileIndex: 10
      m_TileSpriteIndex: 10
      m_TileMatrixIndex: 0
      m_TileColorIndex: 0
      m_ObjectToInstantiate: {fileID: 0}
      m_TileFlags: 1
      m_ColliderType: 1
  - first: {x: 0, y: -1, z: 0}
    second:
      m_TileIndex: 11
      m_TileSpriteIndex: 11
      m_TileMatrixIndex: 0
      m_TileColorIndex: 0
      m_ObjectToInstantiate: {fileID: 0}
      m_TileFlags: 1
      m_ColliderType: 1
  - first: {x: 1, y: -1, z: 0}
    second:
      m_TileIndex: 12
      m_TileSpriteIndex: 12
      m_TileMatrixIndex: 0
      m_TileColorIndex: 0
      m_ObjectToInstantiate: {fileID: 0}
      m_TileFlags: 1
      m_ColliderType: 1
  - first: {x: 2, y: -1, z: 0}
    second:
      m_TileIndex: 13
      m_TileSpriteIndex: 13
      m_TileMatrixIndex: 0
      m_TileColorIndex: 0
      m_ObjectToInstantiate: {fileID: 0}
      m_TileFlags: 1
      m_ColliderType: 1
  - first: {x: 3, y: -1, z: 0}
    second:
      m_TileIndex: 21
      m_TileSpriteIndex: 21
      m_TileMatrixIndex: 0
      m_TileColorIndex: 0
      m_ObjectToInstantiate: {fileID: 0}
      m_TileFlags: 1
      m_ColliderType: 1
  - first: {x: 4, y: -1, z: 0}
    second:
      m_TileIndex: 22
      m_TileSpriteIndex: 22
      m_TileMatrixIndex: 0
      m_TileColorIndex: 0
      m_ObjectToInstantiate: {fileID: 0}
      m_TileFlags: 1
      m_ColliderType: 1
  - first: {x: 12, y: -1, z: 0}
    second:
      m_TileIndex: 62
      m_TileSpriteIndex: 62
      m_TileMatrixIndex: 0
      m_TileColorIndex: 0
      m_ObjectToInstantiate: {fileID: 0}
      m_TileFlags: 1
      m_ColliderType: 1
  - first: {x: 13, y: -1, z: 0}
    second:
      m_TileIndex: 63
      m_TileSpriteIndex: 63
      m_TileMatrixIndex: 0
      m_TileColorIndex: 0
      m_ObjectToInstantiate: {fileID: 0}
      m_TileFlags: 1
      m_ColliderType: 1
  - first: {x: 14, y: -1, z: 0}
    second:
      m_TileIndex: 64
      m_TileSpriteIndex: 64
      m_TileMatrixIndex: 0
      m_TileColorIndex: 0
      m_ObjectToInstantiate: {fileID: 0}
      m_TileFlags: 1
      m_ColliderType: 1
  - first: {x: 15, y: -1, z: 0}
    second:
      m_TileIndex: 65
      m_TileSpriteIndex: 65
      m_TileMatrixIndex: 0
      m_TileColorIndex: 0
      m_ObjectToInstantiate: {fileID: 0}
      m_TileFlags: 1
      m_ColliderType: 1
  - first: {x: 16, y: -1, z: 0}
    second:
      m_TileIndex: 70
      m_TileSpriteIndex: 70
      m_TileMatrixIndex: 0
      m_TileColorIndex: 0
      m_ObjectToInstantiate: {fileID: 0}
      m_TileFlags: 1
      m_ColliderType: 1
  - first: {x: 17, y: -1, z: 0}
    second:
      m_TileIndex: 71
      m_TileSpriteIndex: 71
      m_TileMatrixIndex: 0
      m_TileColorIndex: 0
      m_ObjectToInstantiate: {fileID: 0}
      m_TileFlags: 1
      m_ColliderType: 1
  - first: {x: -2, y: 0, z: 0}
    second:
      m_TileIndex: 0
      m_TileSpriteIndex: 0
      m_TileMatrixIndex: 0
      m_TileColorIndex: 0
      m_ObjectToInstantiate: {fileID: 0}
      m_TileFlags: 1
      m_ColliderType: 1
  - first: {x: -1, y: 0, z: 0}
    second:
      m_TileIndex: 3
      m_TileSpriteIndex: 3
      m_TileMatrixIndex: 0
      m_TileColorIndex: 0
      m_ObjectToInstantiate: {fileID: 0}
      m_TileFlags: 1
      m_ColliderType: 1
  - first: {x: 0, y: 0, z: 0}
    second:
      m_TileIndex: 4
      m_TileSpriteIndex: 4
      m_TileMatrixIndex: 0
      m_TileColorIndex: 0
      m_ObjectToInstantiate: {fileID: 0}
      m_TileFlags: 1
      m_ColliderType: 1
  - first: {x: 1, y: 0, z: 0}
    second:
      m_TileIndex: 5
      m_TileSpriteIndex: 5
      m_TileMatrixIndex: 0
      m_TileColorIndex: 0
      m_ObjectToInstantiate: {fileID: 0}
      m_TileFlags: 1
      m_ColliderType: 1
  - first: {x: 2, y: 0, z: 0}
    second:
      m_TileIndex: 6
      m_TileSpriteIndex: 6
      m_TileMatrixIndex: 0
      m_TileColorIndex: 0
      m_ObjectToInstantiate: {fileID: 0}
      m_TileFlags: 1
      m_ColliderType: 1
  - first: {x: 3, y: 0, z: 0}
    second:
      m_TileIndex: 7
      m_TileSpriteIndex: 7
      m_TileMatrixIndex: 0
      m_TileColorIndex: 0
      m_ObjectToInstantiate: {fileID: 0}
      m_TileFlags: 1
      m_ColliderType: 1
  - first: {x: 4, y: 0, z: 0}
    second:
      m_TileIndex: 8
      m_TileSpriteIndex: 8
      m_TileMatrixIndex: 0
      m_TileColorIndex: 0
      m_ObjectToInstantiate: {fileID: 0}
      m_TileFlags: 1
      m_ColliderType: 1
  - first: {x: 5, y: 0, z: 0}
    second:
      m_TileIndex: 9
      m_TileSpriteIndex: 9
      m_TileMatrixIndex: 0
      m_TileColorIndex: 0
      m_ObjectToInstantiate: {fileID: 0}
      m_TileFlags: 1
      m_ColliderType: 1
  - first: {x: 12, y: 0, z: 0}
    second:
      m_TileIndex: 55
      m_TileSpriteIndex: 55
      m_TileMatrixIndex: 0
      m_TileColorIndex: 0
      m_ObjectToInstantiate: {fileID: 0}
      m_TileFlags: 1
      m_ColliderType: 1
  - first: {x: 13, y: 0, z: 0}
    second:
      m_TileIndex: 56
      m_TileSpriteIndex: 56
      m_TileMatrixIndex: 0
      m_TileColorIndex: 0
      m_ObjectToInstantiate: {fileID: 0}
      m_TileFlags: 1
      m_ColliderType: 1
  - first: {x: 14, y: 0, z: 0}
    second:
      m_TileIndex: 57
      m_TileSpriteIndex: 57
      m_TileMatrixIndex: 0
      m_TileColorIndex: 0
      m_ObjectToInstantiate: {fileID: 0}
      m_TileFlags: 1
      m_ColliderType: 1
  - first: {x: 15, y: 0, z: 0}
    second:
      m_TileIndex: 58
      m_TileSpriteIndex: 58
      m_TileMatrixIndex: 0
      m_TileColorIndex: 0
      m_ObjectToInstantiate: {fileID: 0}
      m_TileFlags: 1
      m_ColliderType: 1
  - first: {x: 16, y: 0, z: 0}
    second:
      m_TileIndex: 59
      m_TileSpriteIndex: 59
      m_TileMatrixIndex: 0
      m_TileColorIndex: 0
      m_ObjectToInstantiate: {fileID: 0}
      m_TileFlags: 1
      m_ColliderType: 1
  - first: {x: 17, y: 0, z: 0}
    second:
      m_TileIndex: 60
      m_TileSpriteIndex: 60
      m_TileMatrixIndex: 0
      m_TileColorIndex: 0
      m_ObjectToInstantiate: {fileID: 0}
      m_TileFlags: 1
      m_ColliderType: 1
  - first: {x: 18, y: 0, z: 0}
    second:
      m_TileIndex: 61
      m_TileSpriteIndex: 61
      m_TileMatrixIndex: 0
      m_TileColorIndex: 0
      m_ObjectToInstantiate: {fileID: 0}
      m_TileFlags: 1
      m_ColliderType: 1
  - first: {x: -2, y: 1, z: 0}
    second:
      m_TileIndex: 1
      m_TileSpriteIndex: 1
      m_TileMatrixIndex: 0
      m_TileColorIndex: 0
      m_ObjectToInstantiate: {fileID: 0}
      m_TileFlags: 1
      m_ColliderType: 1
  - first: {x: -1, y: 1, z: 0}
    second:
      m_TileIndex: 2
      m_TileSpriteIndex: 2
      m_TileMatrixIndex: 0
      m_TileColorIndex: 0
      m_ObjectToInstantiate: {fileID: 0}
      m_TileFlags: 1
      m_ColliderType: 1
  - first: {x: 0, y: 1, z: 0}
    second:
      m_TileIndex: 18
      m_TileSpriteIndex: 18
      m_TileMatrixIndex: 0
      m_TileColorIndex: 0
      m_ObjectToInstantiate: {fileID: 0}
      m_TileFlags: 1
      m_ColliderType: 1
  - first: {x: 1, y: 1, z: 0}
    second:
      m_TileIndex: 19
      m_TileSpriteIndex: 19
      m_TileMatrixIndex: 0
      m_TileColorIndex: 0
      m_ObjectToInstantiate: {fileID: 0}
      m_TileFlags: 1
      m_ColliderType: 1
  - first: {x: 2, y: 1, z: 0}
    second:
      m_TileIndex: 20
      m_TileSpriteIndex: 20
      m_TileMatrixIndex: 0
      m_TileColorIndex: 0
      m_ObjectToInstantiate: {fileID: 0}
      m_TileFlags: 1
      m_ColliderType: 1
  m_AnimatedTiles: {}
  m_TileAssetArray:
  - m_RefCount: 1
    m_Data: {fileID: 11400000, guid: de834ca183106fe4da99c7eb708a4096, type: 2}
  - m_RefCount: 1
    m_Data: {fileID: 11400000, guid: a29fb3b601a67fb4e9913e9b08f15a1d, type: 2}
  - m_RefCount: 1
    m_Data: {fileID: 11400000, guid: ddf5233908fd03c4da0244f6c106bf4b, type: 2}
  - m_RefCount: 1
    m_Data: {fileID: 11400000, guid: a4e58439db2546f4eaf65b894778d926, type: 2}
  - m_RefCount: 1
    m_Data: {fileID: 11400000, guid: 53cebd33ca68b6c4fb418a19061bac30, type: 2}
  - m_RefCount: 1
    m_Data: {fileID: 11400000, guid: 9008c2ffcd8d4ab4e87b7b1cdb7855e9, type: 2}
  - m_RefCount: 1
    m_Data: {fileID: 11400000, guid: 88a0bc91ee380b84aba37fc248e2bda5, type: 2}
  - m_RefCount: 1
    m_Data: {fileID: 11400000, guid: 8de66ec550ea23e4ca6b6e70eab6de12, type: 2}
  - m_RefCount: 1
    m_Data: {fileID: 11400000, guid: 98fa4cf47121056448c81be9ee0faeb4, type: 2}
  - m_RefCount: 1
    m_Data: {fileID: 11400000, guid: 0c8952c279de37a45b19365a448ab065, type: 2}
  - m_RefCount: 1
    m_Data: {fileID: 11400000, guid: 27a23d2e012da4a43ab8ded26cc1653c, type: 2}
  - m_RefCount: 1
    m_Data: {fileID: 11400000, guid: 103ccd1c404562446b585ea855d4319e, type: 2}
  - m_RefCount: 1
    m_Data: {fileID: 11400000, guid: 493342e973fafa4409c662382872f42e, type: 2}
  - m_RefCount: 1
    m_Data: {fileID: 11400000, guid: 310dbea1b2cb9274a894cf3afdaf9487, type: 2}
  - m_RefCount: 1
    m_Data: {fileID: 11400000, guid: 850d314cc80084940a54b17a6d844c15, type: 2}
  - m_RefCount: 1
    m_Data: {fileID: 11400000, guid: c994ecfe35b7c234e9039f2b6f1e35c8, type: 2}
  - m_RefCount: 1
    m_Data: {fileID: 11400000, guid: 7636d62699129af4fa81e8b1cf8608b2, type: 2}
  - m_RefCount: 1
    m_Data: {fileID: 11400000, guid: 98354f3423f10bd4ca9bcb7ebe06bb0d, type: 2}
  - m_RefCount: 1
    m_Data: {fileID: 11400000, guid: 76df51cd381db6f4b81de19fc99a0eff, type: 2}
  - m_RefCount: 1
    m_Data: {fileID: 11400000, guid: 04e3153f21fcc8244a9cf55f0a40a545, type: 2}
  - m_RefCount: 1
    m_Data: {fileID: 11400000, guid: 6c2d38bce34e1af438d299fd33284078, type: 2}
  - m_RefCount: 1
    m_Data: {fileID: 11400000, guid: c89d7107a5a6c4643b69ad2966963397, type: 2}
  - m_RefCount: 1
    m_Data: {fileID: 11400000, guid: f816940b98bc131428cbcc03afa21b5c, type: 2}
  - m_RefCount: 1
    m_Data: {fileID: 11400000, guid: 82a893bc3fe17b7438d3577c57643b8d, type: 2}
  - m_RefCount: 1
    m_Data: {fileID: 11400000, guid: bdc0bf7be21c13449a045d8d91c92220, type: 2}
  - m_RefCount: 1
    m_Data: {fileID: 11400000, guid: 637da7064f7d68b4f8ba0c31aab50a34, type: 2}
  - m_RefCount: 1
    m_Data: {fileID: 11400000, guid: 4a0f44e3de2db0149a5f016a44c899aa, type: 2}
  - m_RefCount: 1
    m_Data: {fileID: 11400000, guid: e3a481e5cbd5d544e8c3b3951d6744f7, type: 2}
  - m_RefCount: 1
    m_Data: {fileID: 11400000, guid: 8ce04f733cd875f409dbb968934672bb, type: 2}
  - m_RefCount: 1
    m_Data: {fileID: 11400000, guid: 3247f52e408b55d418376f09b4a61812, type: 2}
  - m_RefCount: 1
    m_Data: {fileID: 11400000, guid: 2c848f7bdf07cf7479420dedecb0c150, type: 2}
  - m_RefCount: 1
    m_Data: {fileID: 11400000, guid: a255364fc94d21341a41d92acdec5a96, type: 2}
  - m_RefCount: 1
    m_Data: {fileID: 11400000, guid: a49ce13c77979f641af6ddf661b9f564, type: 2}
  - m_RefCount: 1
    m_Data: {fileID: 11400000, guid: a68b60f9ad20b6e439978b55938e0a14, type: 2}
  - m_RefCount: 1
    m_Data: {fileID: 11400000, guid: 138cebbe95c768244a1ef36794509c5b, type: 2}
  - m_RefCount: 1
    m_Data: {fileID: 11400000, guid: 9754181ce9efb2e4ab4cf9a9358bb0cf, type: 2}
  - m_RefCount: 1
    m_Data: {fileID: 11400000, guid: 6bbb7a1ca9d464a47be357591b399a55, type: 2}
  - m_RefCount: 1
    m_Data: {fileID: 11400000, guid: 3f1e1d6917f4d104e8d0e608bfdf1d86, type: 2}
  - m_RefCount: 1
    m_Data: {fileID: 11400000, guid: d3018b107e2e700418bb319aa95ff973, type: 2}
  - m_RefCount: 1
    m_Data: {fileID: 11400000, guid: 2c65c4ac67f983741ade8adbbf2e6cac, type: 2}
  - m_RefCount: 1
    m_Data: {fileID: 11400000, guid: 30f52cbaafed46341a38a49b6ab4e7a1, type: 2}
  - m_RefCount: 1
    m_Data: {fileID: 11400000, guid: ab026ff53939a1d4386796e2d72d8b69, type: 2}
  - m_RefCount: 1
    m_Data: {fileID: 11400000, guid: b8e439eb0535b4d42adfaaba348e7bec, type: 2}
  - m_RefCount: 1
    m_Data: {fileID: 11400000, guid: c942d75754888bf40b82751bca0b6163, type: 2}
  - m_RefCount: 1
    m_Data: {fileID: 11400000, guid: 57a28d6f369eef349b9032b0020e9dbe, type: 2}
  - m_RefCount: 1
    m_Data: {fileID: 11400000, guid: 9acf36c634dca464a86731844ca19d9e, type: 2}
  - m_RefCount: 1
    m_Data: {fileID: 11400000, guid: e723d7df29122a44e9528963ca48aa90, type: 2}
  - m_RefCount: 1
    m_Data: {fileID: 11400000, guid: 5f3170a3b623e214a80c46adbb956183, type: 2}
  - m_RefCount: 1
    m_Data: {fileID: 11400000, guid: 1b2f025e93f2836449fc3b0082767749, type: 2}
  - m_RefCount: 1
    m_Data: {fileID: 11400000, guid: bb5d79d3a07e7a64e857c66513c6316f, type: 2}
  - m_RefCount: 1
    m_Data: {fileID: 11400000, guid: 62975830226224c47a990a676148f3c6, type: 2}
  - m_RefCount: 1
    m_Data: {fileID: 11400000, guid: 2bef46e9c726fe6429cbdbe08a6639ca, type: 2}
  - m_RefCount: 1
    m_Data: {fileID: 11400000, guid: c162c02b987845d4489db0b578cea078, type: 2}
  - m_RefCount: 1
    m_Data: {fileID: 11400000, guid: 31a734684cad8e94cb3c268a182af68d, type: 2}
  - m_RefCount: 1
    m_Data: {fileID: 11400000, guid: 5c436ca8b71743a47856944ae8df6a85, type: 2}
  - m_RefCount: 1
    m_Data: {fileID: 11400000, guid: b3a35bfca98520f43a41c190c17b82f2, type: 2}
  - m_RefCount: 1
    m_Data: {fileID: 11400000, guid: 7a0c677726ddd2745b33b392dc7a7ca7, type: 2}
  - m_RefCount: 1
    m_Data: {fileID: 11400000, guid: 2a6aeffb0cd54344c8a05805338a03c6, type: 2}
  - m_RefCount: 1
    m_Data: {fileID: 11400000, guid: 53a1033191c123144b46728eb99e5723, type: 2}
  - m_RefCount: 1
    m_Data: {fileID: 11400000, guid: 04081fc283497ae4e9b4a3ac1c2ea339, type: 2}
  - m_RefCount: 1
    m_Data: {fileID: 11400000, guid: 40723a5430915c944a605eb65fd89010, type: 2}
  - m_RefCount: 1
    m_Data: {fileID: 11400000, guid: 58240e28a67e83045a5dffbc5b3270dd, type: 2}
  - m_RefCount: 1
    m_Data: {fileID: 11400000, guid: 8ab5c96081ca57948be388f63aee1e1b, type: 2}
  - m_RefCount: 1
    m_Data: {fileID: 11400000, guid: a89b8c630bf522642b22e165715610d4, type: 2}
  - m_RefCount: 1
    m_Data: {fileID: 11400000, guid: 9a8c7e8db9fba7542b6cac4cce1570ef, type: 2}
  - m_RefCount: 1
    m_Data: {fileID: 11400000, guid: a825a7a610d8280428bfa35f088f6f32, type: 2}
  - m_RefCount: 1
    m_Data: {fileID: 11400000, guid: d623fee5aa11c3348a2f8db009481b80, type: 2}
  - m_RefCount: 1
    m_Data: {fileID: 11400000, guid: cbb35ca392209bd4cb49c3ba7296df82, type: 2}
  - m_RefCount: 1
    m_Data: {fileID: 11400000, guid: 43c95c67f4141c44ab505a3b4e6eaa07, type: 2}
  - m_RefCount: 1
    m_Data: {fileID: 11400000, guid: c2b7327eb925afe4f89f395740047254, type: 2}
  - m_RefCount: 1
    m_Data: {fileID: 11400000, guid: d807111aaf732424fbd84bccec3e7e3e, type: 2}
  - m_RefCount: 1
    m_Data: {fileID: 11400000, guid: 517ff994a6aa5e0418b153f0eb57a25a, type: 2}
  - m_RefCount: 1
    m_Data: {fileID: 11400000, guid: 648bd80b68bf86a4d96fb73f39bab696, type: 2}
  - m_RefCount: 1
    m_Data: {fileID: 11400000, guid: af4046773bbe2de41a59a8af508969b1, type: 2}
  - m_RefCount: 1
    m_Data: {fileID: 11400000, guid: fdbb3c50aa954304d81b7c40ce9d77cb, type: 2}
  - m_RefCount: 1
    m_Data: {fileID: 11400000, guid: bf8d42ae7a626e34eae4c90472ba6dc9, type: 2}
  - m_RefCount: 1
    m_Data: {fileID: 11400000, guid: 2cf49c13f84e67947a68af8b39cc4346, type: 2}
  - m_RefCount: 1
    m_Data: {fileID: 11400000, guid: 8a9db051d58371347a480130e99b29fb, type: 2}
  - m_RefCount: 1
    m_Data: {fileID: 11400000, guid: ba84b2b9754281f45b003b2966368634, type: 2}
  - m_RefCount: 1
    m_Data: {fileID: 11400000, guid: 6f8f0952a4bb5bf439cb1fd8ed4aaf8b, type: 2}
  - m_RefCount: 1
    m_Data: {fileID: 11400000, guid: c66a0c7e4d51f6c49b0c18040e9fbe0e, type: 2}
  - m_RefCount: 1
    m_Data: {fileID: 11400000, guid: 793f70e6b2dca924eb9e57bfdf619944, type: 2}
  - m_RefCount: 1
    m_Data: {fileID: 11400000, guid: 15f61eb9a1316b6408fb5761ed1b2cad, type: 2}
  - m_RefCount: 1
    m_Data: {fileID: 11400000, guid: c14efffd00cb1d04fad1eba8256bbc13, type: 2}
  - m_RefCount: 1
    m_Data: {fileID: 11400000, guid: 7660ee36736e16148aae7d8e03f7faa5, type: 2}
  - m_RefCount: 1
    m_Data: {fileID: 11400000, guid: 24dbefd901581f6499996c09e4668afa, type: 2}
  - m_RefCount: 1
    m_Data: {fileID: 11400000, guid: 4751b1957fd8b564e9a77b25bc5ecf5a, type: 2}
  - m_RefCount: 1
    m_Data: {fileID: 11400000, guid: a1cb221ed912b6c469f6168af8ecac13, type: 2}
  - m_RefCount: 1
    m_Data: {fileID: 11400000, guid: 4a378b95c6f9a0347bd48ab1acd54f28, type: 2}
  - m_RefCount: 1
    m_Data: {fileID: 11400000, guid: 0d95f5dc015f0ad4d9c986509b16cca3, type: 2}
  - m_RefCount: 1
    m_Data: {fileID: 11400000, guid: ddb0c8e387d6ae04fbea26cf023e2d08, type: 2}
  - m_RefCount: 1
    m_Data: {fileID: 11400000, guid: 9ea9b6d845eae744a8df2c6d839fa1fa, type: 2}
  - m_RefCount: 1
    m_Data: {fileID: 11400000, guid: 8bfa313af4684f54ebe5217f106546a9, type: 2}
  - m_RefCount: 1
    m_Data: {fileID: 11400000, guid: 175ddb2da4551f343b58592d05b534fd, type: 2}
  - m_RefCount: 1
    m_Data: {fileID: 11400000, guid: ba50a82f1ea930545975982b97e1a350, type: 2}
  - m_RefCount: 1
    m_Data: {fileID: 11400000, guid: c75b54325b3cb0b4b8e6c335e693ef56, type: 2}
  - m_RefCount: 1
    m_Data: {fileID: 11400000, guid: 2b8adc44f1a6c43459ff3ec32f14b93f, type: 2}
  - m_RefCount: 1
    m_Data: {fileID: 11400000, guid: 05a47bf6e98252f47a82def3bb9c8de2, type: 2}
  - m_RefCount: 1
    m_Data: {fileID: 11400000, guid: 11be1bf7f67bcb84f9c31d4637d2c2a7, type: 2}
  - m_RefCount: 1
    m_Data: {fileID: 11400000, guid: d372b3d264448424d8ecd8d2a58d9b98, type: 2}
  - m_RefCount: 1
    m_Data: {fileID: 11400000, guid: 0f611de11a9e9674b871391050c6c646, type: 2}
  - m_RefCount: 1
    m_Data: {fileID: 11400000, guid: d5f265f39a8fc964a891b581ccb5a29e, type: 2}
  - m_RefCount: 1
    m_Data: {fileID: 11400000, guid: 6b70ef32871c2fe4883a58d66bf37e13, type: 2}
  - m_RefCount: 1
    m_Data: {fileID: 11400000, guid: 6819a80256a6147439739ad90681fadf, type: 2}
  - m_RefCount: 1
    m_Data: {fileID: 11400000, guid: 676c983949387b24a8c2f015b33f8ad2, type: 2}
  m_TileSpriteArray:
  - m_RefCount: 1
    m_Data: {fileID: 1801134763103052357, guid: c3613d3f05091c44a8dc8742b33f6605,
      type: 3}
  - m_RefCount: 1
    m_Data: {fileID: -3955307824685373333, guid: c3613d3f05091c44a8dc8742b33f6605,
      type: 3}
  - m_RefCount: 1
    m_Data: {fileID: -5296483855300740947, guid: c3613d3f05091c44a8dc8742b33f6605,
      type: 3}
  - m_RefCount: 1
    m_Data: {fileID: 60902221544680826, guid: c3613d3f05091c44a8dc8742b33f6605, type: 3}
  - m_RefCount: 1
    m_Data: {fileID: 7543236501787995939, guid: c3613d3f05091c44a8dc8742b33f6605,
      type: 3}
  - m_RefCount: 1
    m_Data: {fileID: 8453395905684270170, guid: c3613d3f05091c44a8dc8742b33f6605,
      type: 3}
  - m_RefCount: 1
    m_Data: {fileID: 3494184279187215986, guid: c3613d3f05091c44a8dc8742b33f6605,
      type: 3}
  - m_RefCount: 1
    m_Data: {fileID: 1962583182577464004, guid: c3613d3f05091c44a8dc8742b33f6605,
      type: 3}
  - m_RefCount: 1
    m_Data: {fileID: -4359734414434427188, guid: c3613d3f05091c44a8dc8742b33f6605,
      type: 3}
  - m_RefCount: 1
    m_Data: {fileID: -1678778959534042964, guid: c3613d3f05091c44a8dc8742b33f6605,
      type: 3}
  - m_RefCount: 1
    m_Data: {fileID: -6748615889736280648, guid: c3613d3f05091c44a8dc8742b33f6605,
      type: 3}
  - m_RefCount: 1
    m_Data: {fileID: 3172917453691379421, guid: c3613d3f05091c44a8dc8742b33f6605,
      type: 3}
  - m_RefCount: 1
    m_Data: {fileID: 4033209349112834012, guid: c3613d3f05091c44a8dc8742b33f6605,
      type: 3}
  - m_RefCount: 1
    m_Data: {fileID: -6863604531741922039, guid: c3613d3f05091c44a8dc8742b33f6605,
      type: 3}
  - m_RefCount: 1
    m_Data: {fileID: -3079963226301464216, guid: c3613d3f05091c44a8dc8742b33f6605,
      type: 3}
  - m_RefCount: 1
    m_Data: {fileID: 7283639393667401106, guid: c3613d3f05091c44a8dc8742b33f6605,
      type: 3}
  - m_RefCount: 1
    m_Data: {fileID: 2817827498785138421, guid: c3613d3f05091c44a8dc8742b33f6605,
      type: 3}
  - m_RefCount: 1
    m_Data: {fileID: 8064450562460349847, guid: c3613d3f05091c44a8dc8742b33f6605,
      type: 3}
  - m_RefCount: 1
    m_Data: {fileID: -1167855685918486295, guid: c3613d3f05091c44a8dc8742b33f6605,
      type: 3}
  - m_RefCount: 1
    m_Data: {fileID: 559178298202756667, guid: c3613d3f05091c44a8dc8742b33f6605, type: 3}
  - m_RefCount: 1
    m_Data: {fileID: -7112274998885161858, guid: c3613d3f05091c44a8dc8742b33f6605,
      type: 3}
  - m_RefCount: 1
    m_Data: {fileID: 9085546173938197295, guid: 358cd19d1d6de674d8c285c9fdcf5275,
      type: 3}
  - m_RefCount: 1
    m_Data: {fileID: 1101770504183819589, guid: 358cd19d1d6de674d8c285c9fdcf5275,
      type: 3}
  - m_RefCount: 1
    m_Data: {fileID: -3755448495774436313, guid: 358cd19d1d6de674d8c285c9fdcf5275,
      type: 3}
  - m_RefCount: 1
    m_Data: {fileID: -5622494010663576134, guid: 358cd19d1d6de674d8c285c9fdcf5275,
      type: 3}
  - m_RefCount: 1
    m_Data: {fileID: 6197192568713671372, guid: 358cd19d1d6de674d8c285c9fdcf5275,
      type: 3}
  - m_RefCount: 1
    m_Data: {fileID: 7578449614134806614, guid: 358cd19d1d6de674d8c285c9fdcf5275,
      type: 3}
  - m_RefCount: 1
    m_Data: {fileID: 2234022853843623893, guid: 358cd19d1d6de674d8c285c9fdcf5275,
      type: 3}
  - m_RefCount: 1
    m_Data: {fileID: -6065316908756177385, guid: 358cd19d1d6de674d8c285c9fdcf5275,
      type: 3}
  - m_RefCount: 1
    m_Data: {fileID: 6459850418655484414, guid: 358cd19d1d6de674d8c285c9fdcf5275,
      type: 3}
  - m_RefCount: 1
    m_Data: {fileID: 7865762019372747835, guid: 358cd19d1d6de674d8c285c9fdcf5275,
      type: 3}
  - m_RefCount: 1
    m_Data: {fileID: -2462289397924853487, guid: 358cd19d1d6de674d8c285c9fdcf5275,
      type: 3}
  - m_RefCount: 1
    m_Data: {fileID: 2526712265115306023, guid: 358cd19d1d6de674d8c285c9fdcf5275,
      type: 3}
  - m_RefCount: 1
    m_Data: {fileID: 4200110476295440422, guid: 358cd19d1d6de674d8c285c9fdcf5275,
      type: 3}
  - m_RefCount: 1
    m_Data: {fileID: -6571977303478056107, guid: 358cd19d1d6de674d8c285c9fdcf5275,
      type: 3}
  - m_RefCount: 1
    m_Data: {fileID: -2158129904264184607, guid: 358cd19d1d6de674d8c285c9fdcf5275,
      type: 3}
  - m_RefCount: 1
    m_Data: {fileID: -176426379722696125, guid: 358cd19d1d6de674d8c285c9fdcf5275,
      type: 3}
  - m_RefCount: 1
    m_Data: {fileID: -8058802087160146958, guid: 358cd19d1d6de674d8c285c9fdcf5275,
      type: 3}
  - m_RefCount: 1
    m_Data: {fileID: -2803889121124815873, guid: 358cd19d1d6de674d8c285c9fdcf5275,
      type: 3}
  - m_RefCount: 1
    m_Data: {fileID: -3934943155004536591, guid: 358cd19d1d6de674d8c285c9fdcf5275,
      type: 3}
  - m_RefCount: 1
    m_Data: {fileID: 3502572409312661000, guid: 358cd19d1d6de674d8c285c9fdcf5275,
      type: 3}
  - m_RefCount: 1
    m_Data: {fileID: 8914598286130577129, guid: 358cd19d1d6de674d8c285c9fdcf5275,
      type: 3}
  - m_RefCount: 1
    m_Data: {fileID: 4899586422533022876, guid: 358cd19d1d6de674d8c285c9fdcf5275,
      type: 3}
  - m_RefCount: 1
    m_Data: {fileID: 7380007059499284829, guid: 358cd19d1d6de674d8c285c9fdcf5275,
      type: 3}
  - m_RefCount: 1
    m_Data: {fileID: 2289149935165105050, guid: 358cd19d1d6de674d8c285c9fdcf5275,
      type: 3}
  - m_RefCount: 1
    m_Data: {fileID: 9009575751492332058, guid: 358cd19d1d6de674d8c285c9fdcf5275,
      type: 3}
  - m_RefCount: 1
    m_Data: {fileID: -8796364187148714322, guid: 358cd19d1d6de674d8c285c9fdcf5275,
      type: 3}
  - m_RefCount: 1
    m_Data: {fileID: 8956319317273005462, guid: 358cd19d1d6de674d8c285c9fdcf5275,
      type: 3}
  - m_RefCount: 1
    m_Data: {fileID: -455464601145464409, guid: 358cd19d1d6de674d8c285c9fdcf5275,
      type: 3}
  - m_RefCount: 1
    m_Data: {fileID: -6050797738162096604, guid: 358cd19d1d6de674d8c285c9fdcf5275,
      type: 3}
  - m_RefCount: 1
    m_Data: {fileID: 91270083940716788, guid: 358cd19d1d6de674d8c285c9fdcf5275, type: 3}
  - m_RefCount: 1
    m_Data: {fileID: 2358386085220962433, guid: 358cd19d1d6de674d8c285c9fdcf5275,
      type: 3}
  - m_RefCount: 1
    m_Data: {fileID: 6874694571959885349, guid: 358cd19d1d6de674d8c285c9fdcf5275,
      type: 3}
  - m_RefCount: 1
    m_Data: {fileID: -8902530048884563005, guid: 358cd19d1d6de674d8c285c9fdcf5275,
      type: 3}
  - m_RefCount: 1
    m_Data: {fileID: 4053194954877958332, guid: c3613d3f05091c44a8dc8742b33f6605,
      type: 3}
  - m_RefCount: 1
    m_Data: {fileID: 2924298184713093296, guid: c3613d3f05091c44a8dc8742b33f6605,
      type: 3}
  - m_RefCount: 1
    m_Data: {fileID: 6209754774267998580, guid: c3613d3f05091c44a8dc8742b33f6605,
      type: 3}
  - m_RefCount: 1
    m_Data: {fileID: 8583346281564132605, guid: c3613d3f05091c44a8dc8742b33f6605,
      type: 3}
  - m_RefCount: 1
    m_Data: {fileID: -6553368988122917561, guid: c3613d3f05091c44a8dc8742b33f6605,
      type: 3}
  - m_RefCount: 1
    m_Data: {fileID: -622672502513211147, guid: c3613d3f05091c44a8dc8742b33f6605,
      type: 3}
  - m_RefCount: 1
    m_Data: {fileID: -2696162719117773729, guid: c3613d3f05091c44a8dc8742b33f6605,
      type: 3}
  - m_RefCount: 1
    m_Data: {fileID: -6735555607470441567, guid: c3613d3f05091c44a8dc8742b33f6605,
      type: 3}
  - m_RefCount: 1
    m_Data: {fileID: -1917769402384988997, guid: c3613d3f05091c44a8dc8742b33f6605,
      type: 3}
  - m_RefCount: 1
    m_Data: {fileID: -2412898024508575298, guid: c3613d3f05091c44a8dc8742b33f6605,
      type: 3}
  - m_RefCount: 1
    m_Data: {fileID: -8385357340594971825, guid: c3613d3f05091c44a8dc8742b33f6605,
      type: 3}
  - m_RefCount: 1
    m_Data: {fileID: -4908409524856408081, guid: c3613d3f05091c44a8dc8742b33f6605,
      type: 3}
  - m_RefCount: 1
    m_Data: {fileID: 5715196316205315638, guid: c3613d3f05091c44a8dc8742b33f6605,
      type: 3}
  - m_RefCount: 1
    m_Data: {fileID: -694816733848418251, guid: c3613d3f05091c44a8dc8742b33f6605,
      type: 3}
  - m_RefCount: 1
    m_Data: {fileID: 8108796449665184538, guid: c3613d3f05091c44a8dc8742b33f6605,
      type: 3}
  - m_RefCount: 1
    m_Data: {fileID: -879234801051258647, guid: c3613d3f05091c44a8dc8742b33f6605,
      type: 3}
  - m_RefCount: 1
    m_Data: {fileID: 2378548872129023745, guid: c3613d3f05091c44a8dc8742b33f6605,
      type: 3}
  - m_RefCount: 1
    m_Data: {fileID: -906219652333007014, guid: c3613d3f05091c44a8dc8742b33f6605,
      type: 3}
  - m_RefCount: 1
    m_Data: {fileID: 1976879417368884892, guid: c3613d3f05091c44a8dc8742b33f6605,
      type: 3}
  - m_RefCount: 1
    m_Data: {fileID: -2014335809478388258, guid: c3613d3f05091c44a8dc8742b33f6605,
      type: 3}
  - m_RefCount: 1
    m_Data: {fileID: 896412959809939582, guid: c3613d3f05091c44a8dc8742b33f6605, type: 3}
  - m_RefCount: 1
    m_Data: {fileID: -6182102260794803447, guid: c3613d3f05091c44a8dc8742b33f6605,
      type: 3}
  - m_RefCount: 1
    m_Data: {fileID: -4922136833514705373, guid: c3613d3f05091c44a8dc8742b33f6605,
      type: 3}
  - m_RefCount: 1
    m_Data: {fileID: 7177132989424188793, guid: c3613d3f05091c44a8dc8742b33f6605,
      type: 3}
  - m_RefCount: 1
    m_Data: {fileID: 8518441142079907525, guid: c3613d3f05091c44a8dc8742b33f6605,
      type: 3}
  - m_RefCount: 1
    m_Data: {fileID: 6156542977044741847, guid: c3613d3f05091c44a8dc8742b33f6605,
      type: 3}
  - m_RefCount: 1
    m_Data: {fileID: -1915992813050816773, guid: c3613d3f05091c44a8dc8742b33f6605,
      type: 3}
  - m_RefCount: 1
    m_Data: {fileID: 904046066171029186, guid: c3613d3f05091c44a8dc8742b33f6605, type: 3}
  - m_RefCount: 1
    m_Data: {fileID: -7146085363621167518, guid: c3613d3f05091c44a8dc8742b33f6605,
      type: 3}
  - m_RefCount: 1
    m_Data: {fileID: 7348917702962974196, guid: c3613d3f05091c44a8dc8742b33f6605,
      type: 3}
  - m_RefCount: 1
    m_Data: {fileID: 483340193396079282, guid: c3613d3f05091c44a8dc8742b33f6605, type: 3}
  - m_RefCount: 1
    m_Data: {fileID: 4990628284506286375, guid: c3613d3f05091c44a8dc8742b33f6605,
      type: 3}
  - m_RefCount: 1
    m_Data: {fileID: -7397576103862720283, guid: c3613d3f05091c44a8dc8742b33f6605,
      type: 3}
  - m_RefCount: 1
    m_Data: {fileID: 3617797021918703618, guid: c3613d3f05091c44a8dc8742b33f6605,
      type: 3}
  - m_RefCount: 1
    m_Data: {fileID: -268401023091630934, guid: c3613d3f05091c44a8dc8742b33f6605,
      type: 3}
  - m_RefCount: 1
    m_Data: {fileID: 2580229608932957672, guid: c3613d3f05091c44a8dc8742b33f6605,
      type: 3}
  - m_RefCount: 1
    m_Data: {fileID: 3599788629947975243, guid: c3613d3f05091c44a8dc8742b33f6605,
      type: 3}
  - m_RefCount: 1
    m_Data: {fileID: 6248384909131586400, guid: c3613d3f05091c44a8dc8742b33f6605,
      type: 3}
  - m_RefCount: 1
    m_Data: {fileID: -6666570406276101791, guid: c3613d3f05091c44a8dc8742b33f6605,
      type: 3}
  - m_RefCount: 1
    m_Data: {fileID: 330707776553685135, guid: c3613d3f05091c44a8dc8742b33f6605, type: 3}
  - m_RefCount: 1
    m_Data: {fileID: -3434596614824281028, guid: c3613d3f05091c44a8dc8742b33f6605,
      type: 3}
  - m_RefCount: 1
    m_Data: {fileID: 1574174197245209901, guid: c3613d3f05091c44a8dc8742b33f6605,
      type: 3}
  - m_RefCount: 1
    m_Data: {fileID: -6674494730594348434, guid: c3613d3f05091c44a8dc8742b33f6605,
      type: 3}
  - m_RefCount: 1
    m_Data: {fileID: 3199288210043611465, guid: c3613d3f05091c44a8dc8742b33f6605,
      type: 3}
  - m_RefCount: 1
    m_Data: {fileID: 7319708586759588069, guid: c3613d3f05091c44a8dc8742b33f6605,
      type: 3}
  - m_RefCount: 1
    m_Data: {fileID: -7908599077843579543, guid: c3613d3f05091c44a8dc8742b33f6605,
      type: 3}
  - m_RefCount: 1
    m_Data: {fileID: 2789780209496700610, guid: c3613d3f05091c44a8dc8742b33f6605,
      type: 3}
  - m_RefCount: 1
    m_Data: {fileID: -5862405817398361727, guid: c3613d3f05091c44a8dc8742b33f6605,
      type: 3}
  - m_RefCount: 1
    m_Data: {fileID: -2310745677465202982, guid: c3613d3f05091c44a8dc8742b33f6605,
      type: 3}
  - m_RefCount: 1
    m_Data: {fileID: 4414239760048094982, guid: c3613d3f05091c44a8dc8742b33f6605,
      type: 3}
  - m_RefCount: 1
    m_Data: {fileID: 2327660573065507791, guid: c3613d3f05091c44a8dc8742b33f6605,
      type: 3}
  m_TileMatrixArray:
  - m_RefCount: 105
    m_Data:
      e00: 1
      e01: 0
      e02: 0
      e03: 0
      e10: 0
      e11: 1
      e12: 0
      e13: 0
      e20: 0
      e21: 0
      e22: 1
      e23: 0
      e30: 0
      e31: 0
      e32: 0
      e33: 1
  m_TileColorArray:
  - m_RefCount: 105
    m_Data: {r: 1, g: 1, b: 1, a: 1}
  m_AnimationFrameRate: 1
  m_Color: {r: 1, g: 1, b: 1, a: 1}
  m_Origin: {x: -2, y: -7, z: 0}
  m_Size: {x: 21, y: 9, z: 1}
  m_TileAnchor: {x: 0.5, y: 0.5, z: 0}
  m_TileOrientation: 0
  m_TileOrientationMatrix:
    e00: 1
    e01: 0
    e02: 0
    e03: 0
    e10: 0
    e11: 1
    e12: 0
    e13: 0
    e20: 0
    e21: 0
    e22: 1
    e23: 0
    e30: 0
    e31: 0
    e32: 0
    e33: 1
--- !u!483693784 &5298060191501420345
TilemapRenderer:
  m_ObjectHideFlags: 0
  m_CorrespondingSourceObject: {fileID: 0}
  m_PrefabInstance: {fileID: 0}
  m_PrefabAsset: {fileID: 0}
  m_GameObject: {fileID: 793418822316913810}
  m_Enabled: 0
  m_CastShadows: 0
  m_ReceiveShadows: 0
  m_DynamicOccludee: 0
  m_MotionVectors: 1
  m_LightProbeUsage: 0
  m_ReflectionProbeUsage: 0
  m_RenderingLayerMask: 1
  m_RendererPriority: 0
  m_Materials:
  - {fileID: 10754, guid: 0000000000000000f000000000000000, type: 0}
  m_StaticBatchInfo:
    firstSubMesh: 0
    subMeshCount: 0
  m_StaticBatchRoot: {fileID: 0}
  m_ProbeAnchor: {fileID: 0}
  m_LightProbeVolumeOverride: {fileID: 0}
  m_ScaleInLightmap: 1
  m_ReceiveGI: 1
  m_PreserveUVs: 0
  m_IgnoreNormalsForChartDetection: 0
  m_ImportantGI: 0
  m_StitchLightmapSeams: 1
  m_SelectedEditorRenderState: 0
  m_MinimumChartSize: 4
  m_AutoUVMaxDistance: 0.5
  m_AutoUVMaxAngle: 89
  m_LightmapParameters: {fileID: 0}
  m_SortingLayerID: 0
  m_SortingLayer: 0
  m_SortingOrder: 0
  m_ChunkSize: {x: 32, y: 32, z: 32}
  m_ChunkCullingBounds: {x: 0, y: 0, z: 0}
  m_MaxChunkCount: 16
  m_MaxFrameAge: 16
  m_SortOrder: 0
  m_Mode: 0
  m_DetectChunkCullingBounds: 0
  m_MaskInteraction: 0
--- !u!1 &2086575021920193917
GameObject:
  m_ObjectHideFlags: 0
  m_CorrespondingSourceObject: {fileID: 0}
  m_PrefabInstance: {fileID: 0}
  m_PrefabAsset: {fileID: 0}
  serializedVersion: 6
  m_Component:
  - component: {fileID: 1313910758532195899}
  - component: {fileID: 2893192374532601150}
  m_Layer: 31
  m_Name: Misc
  m_TagString: Untagged
  m_Icon: {fileID: 0}
  m_NavMeshLayer: 0
  m_StaticEditorFlags: 0
  m_IsActive: 1
--- !u!4 &1313910758532195899
Transform:
  m_ObjectHideFlags: 0
  m_CorrespondingSourceObject: {fileID: 0}
  m_PrefabInstance: {fileID: 0}
  m_PrefabAsset: {fileID: 0}
  m_GameObject: {fileID: 2086575021920193917}
  m_LocalRotation: {x: 0, y: 0, z: 0, w: 1}
  m_LocalPosition: {x: 0, y: 0, z: 0}
  m_LocalScale: {x: 1, y: 1, z: 1}
  m_Children:
  - {fileID: 832065072394324236}
  m_Father: {fileID: 0}
  m_RootOrder: 0
  m_LocalEulerAnglesHint: {x: 0, y: 0, z: 0}
--- !u!156049354 &2893192374532601150
Grid:
  m_ObjectHideFlags: 0
  m_CorrespondingSourceObject: {fileID: 0}
  m_PrefabInstance: {fileID: 0}
  m_PrefabAsset: {fileID: 0}
  m_GameObject: {fileID: 2086575021920193917}
  m_Enabled: 1
  m_CellSize: {x: 1, y: 1, z: 0}
  m_CellGap: {x: 0, y: 0, z: 0}
  m_CellLayout: 0
  m_CellSwizzle: 0
--- !u!114 &-7595245075469070276
MonoBehaviour:
  m_ObjectHideFlags: 0
  m_CorrespondingSourceObject: {fileID: 0}
  m_PrefabInstance: {fileID: 0}
  m_PrefabAsset: {fileID: 0}
  m_GameObject: {fileID: 0}
  m_Enabled: 1
  m_EditorHideFlags: 0
  m_Script: {fileID: 12395, guid: 0000000000000000e000000000000000, type: 0}
  m_Name: Palette Settings
  m_EditorClassIdentifier: 
  cellSizing: 0
