%YAML 1.1
%TAG !u! tag:unity3d.com,2011:
--- !u!114 &11400000
MonoBehaviour:
  m_ObjectHideFlags: 0
  m_CorrespondingSourceObject: {fileID: 0}
  m_PrefabInstance: {fileID: 0}
  m_PrefabAsset: {fileID: 0}
  m_GameObject: {fileID: 0}
  m_Enabled: 1
  m_EditorHideFlags: 0
  m_Script: {fileID: 11500000, guid: 183ccc4d03d80f44b962472e322fbe46, type: 3}
  m_Name: Snow11
  m_EditorClassIdentifier: 
  m_AnimatedSprites:
  - {fileID: -1277154019690626102, guid: b0f8c9b913f463b4da106af14a69652c, type: 3}
  m_MinSpeed: 1
  m_MaxSpeed: 1
  m_AnimationStartTime: 0
  LOLWUT: 0
  terrainType: 4
