%YAML 1.1
%TAG !u! tag:unity3d.com,2011:
--- !u!1 &4865275550693934738
GameObject:
  m_ObjectHideFlags: 0
  m_CorrespondingSourceObject: {fileID: 0}
  m_PrefabInstance: {fileID: 0}
  m_PrefabAsset: {fileID: 0}
  serializedVersion: 6
  m_Component:
  - component: {fileID: 4564020785650374382}
  - component: {fileID: 5197782206790517024}
  - component: {fileID: 5584791237060088498}
  m_Layer: 31
  m_Name: Layer1
  m_TagString: Untagged
  m_Icon: {fileID: 0}
  m_NavMeshLayer: 0
  m_StaticEditorFlags: 0
  m_IsActive: 1
--- !u!4 &4564020785650374382
Transform:
  m_ObjectHideFlags: 0
  m_CorrespondingSourceObject: {fileID: 0}
  m_PrefabInstance: {fileID: 0}
  m_PrefabAsset: {fileID: 0}
  m_GameObject: {fileID: 4865275550693934738}
  m_LocalRotation: {x: -0, y: -0, z: -0, w: 1}
  m_LocalPosition: {x: 0, y: 0, z: 0}
  m_LocalScale: {x: 1, y: 1, z: 1}
  m_Children: []
  m_Father: {fileID: 7178934168386882503}
  m_RootOrder: 0
  m_LocalEulerAnglesHint: {x: 0, y: 0, z: 0}
--- !u!1839735485 &5197782206790517024
Tilemap:
  m_ObjectHideFlags: 0
  m_CorrespondingSourceObject: {fileID: 0}
  m_PrefabInstance: {fileID: 0}
  m_PrefabAsset: {fileID: 0}
  m_GameObject: {fileID: 4865275550693934738}
  m_Enabled: 1
  m_Tiles:
  - first: {x: -7, y: -7, z: 0}
    second:
      m_TileIndex: 109
      m_TileSpriteIndex: 109
      m_TileMatrixIndex: 0
      m_TileColorIndex: 0
      m_ObjectToInstantiate: {fileID: 0}
      m_TileFlags: 0
      m_ColliderType: 0
  - first: {x: -6, y: -7, z: 0}
    second:
      m_TileIndex: 110
      m_TileSpriteIndex: 110
      m_TileMatrixIndex: 0
      m_TileColorIndex: 0
      m_ObjectToInstantiate: {fileID: 0}
      m_TileFlags: 0
      m_ColliderType: 0
  - first: {x: -4, y: -7, z: 0}
    second:
      m_TileIndex: 111
      m_TileSpriteIndex: 111
      m_TileMatrixIndex: 0
      m_TileColorIndex: 0
      m_ObjectToInstantiate: {fileID: 0}
      m_TileFlags: 0
      m_ColliderType: 0
  - first: {x: -3, y: -7, z: 0}
    second:
      m_TileIndex: 112
      m_TileSpriteIndex: 112
      m_TileMatrixIndex: 0
      m_TileColorIndex: 0
      m_ObjectToInstantiate: {fileID: 0}
      m_TileFlags: 0
      m_ColliderType: 0
  - first: {x: -7, y: -6, z: 0}
    second:
      m_TileIndex: 105
      m_TileSpriteIndex: 105
      m_TileMatrixIndex: 0
      m_TileColorIndex: 0
      m_ObjectToInstantiate: {fileID: 0}
      m_TileFlags: 0
      m_ColliderType: 0
  - first: {x: -6, y: -6, z: 0}
    second:
      m_TileIndex: 106
      m_TileSpriteIndex: 106
      m_TileMatrixIndex: 0
      m_TileColorIndex: 0
      m_ObjectToInstantiate: {fileID: 0}
      m_TileFlags: 0
      m_ColliderType: 0
  - first: {x: -4, y: -6, z: 0}
    second:
      m_TileIndex: 107
      m_TileSpriteIndex: 107
      m_TileMatrixIndex: 0
      m_TileColorIndex: 0
      m_ObjectToInstantiate: {fileID: 0}
      m_TileFlags: 0
      m_ColliderType: 0
  - first: {x: -3, y: -6, z: 0}
    second:
      m_TileIndex: 108
      m_TileSpriteIndex: 108
      m_TileMatrixIndex: 0
      m_TileColorIndex: 0
      m_ObjectToInstantiate: {fileID: 0}
      m_TileFlags: 0
      m_ColliderType: 0
  - first: {x: 2, y: -6, z: 0}
    second:
      m_TileIndex: 83
      m_TileSpriteIndex: 83
      m_TileMatrixIndex: 0
      m_TileColorIndex: 0
      m_ObjectToInstantiate: {fileID: 0}
      m_TileFlags: 0
      m_ColliderType: 0
  - first: {x: 3, y: -6, z: 0}
    second:
      m_TileIndex: 84
      m_TileSpriteIndex: 84
      m_TileMatrixIndex: 0
      m_TileColorIndex: 0
      m_ObjectToInstantiate: {fileID: 0}
      m_TileFlags: 0
      m_ColliderType: 0
  - first: {x: 5, y: -6, z: 0}
    second:
      m_TileIndex: 85
      m_TileSpriteIndex: 85
      m_TileMatrixIndex: 0
      m_TileColorIndex: 0
      m_ObjectToInstantiate: {fileID: 0}
      m_TileFlags: 0
      m_ColliderType: 0
  - first: {x: 6, y: -6, z: 0}
    second:
      m_TileIndex: 86
      m_TileSpriteIndex: 86
      m_TileMatrixIndex: 0
      m_TileColorIndex: 0
      m_ObjectToInstantiate: {fileID: 0}
      m_TileFlags: 0
      m_ColliderType: 0
  - first: {x: -7, y: -5, z: 0}
    second:
      m_TileIndex: 99
      m_TileSpriteIndex: 99
      m_TileMatrixIndex: 0
      m_TileColorIndex: 0
      m_ObjectToInstantiate: {fileID: 0}
      m_TileFlags: 0
      m_ColliderType: 0
  - first: {x: -6, y: -5, z: 0}
    second:
      m_TileIndex: 100
      m_TileSpriteIndex: 100
      m_TileMatrixIndex: 0
      m_TileColorIndex: 0
      m_ObjectToInstantiate: {fileID: 0}
      m_TileFlags: 0
      m_ColliderType: 0
  - first: {x: -5, y: -5, z: 0}
    second:
      m_TileIndex: 101
      m_TileSpriteIndex: 101
      m_TileMatrixIndex: 0
      m_TileColorIndex: 0
      m_ObjectToInstantiate: {fileID: 0}
      m_TileFlags: 0
      m_ColliderType: 0
  - first: {x: -4, y: -5, z: 0}
    second:
      m_TileIndex: 102
      m_TileSpriteIndex: 102
      m_TileMatrixIndex: 0
      m_TileColorIndex: 0
      m_ObjectToInstantiate: {fileID: 0}
      m_TileFlags: 0
      m_ColliderType: 0
  - first: {x: -3, y: -5, z: 0}
    second:
      m_TileIndex: 103
      m_TileSpriteIndex: 103
      m_TileMatrixIndex: 0
      m_TileColorIndex: 0
      m_ObjectToInstantiate: {fileID: 0}
      m_TileFlags: 0
      m_ColliderType: 0
  - first: {x: -2, y: -5, z: 0}
    second:
      m_TileIndex: 104
      m_TileSpriteIndex: 104
      m_TileMatrixIndex: 0
      m_TileColorIndex: 0
      m_ObjectToInstantiate: {fileID: 0}
      m_TileFlags: 0
      m_ColliderType: 0
  - first: {x: 2, y: -5, z: 0}
    second:
      m_TileIndex: 73
      m_TileSpriteIndex: 73
      m_TileMatrixIndex: 0
      m_TileColorIndex: 0
      m_ObjectToInstantiate: {fileID: 0}
      m_TileFlags: 0
      m_ColliderType: 0
  - first: {x: 3, y: -5, z: 0}
    second:
      m_TileIndex: 74
      m_TileSpriteIndex: 74
      m_TileMatrixIndex: 0
      m_TileColorIndex: 0
      m_ObjectToInstantiate: {fileID: 0}
      m_TileFlags: 0
      m_ColliderType: 0
  - first: {x: 5, y: -5, z: 0}
    second:
      m_TileIndex: 76
      m_TileSpriteIndex: 76
      m_TileMatrixIndex: 0
      m_TileColorIndex: 0
      m_ObjectToInstantiate: {fileID: 0}
      m_TileFlags: 0
      m_ColliderType: 0
  - first: {x: 6, y: -5, z: 0}
    second:
      m_TileIndex: 75
      m_TileSpriteIndex: 75
      m_TileMatrixIndex: 0
      m_TileColorIndex: 0
      m_ObjectToInstantiate: {fileID: 0}
      m_TileFlags: 0
      m_ColliderType: 0
  - first: {x: -7, y: -4, z: 0}
    second:
      m_TileIndex: 93
      m_TileSpriteIndex: 93
      m_TileMatrixIndex: 0
      m_TileColorIndex: 0
      m_ObjectToInstantiate: {fileID: 0}
      m_TileFlags: 0
      m_ColliderType: 0
  - first: {x: -6, y: -4, z: 0}
    second:
      m_TileIndex: 94
      m_TileSpriteIndex: 94
      m_TileMatrixIndex: 0
      m_TileColorIndex: 0
      m_ObjectToInstantiate: {fileID: 0}
      m_TileFlags: 0
      m_ColliderType: 0
  - first: {x: -5, y: -4, z: 0}
    second:
      m_TileIndex: 95
      m_TileSpriteIndex: 95
      m_TileMatrixIndex: 0
      m_TileColorIndex: 0
      m_ObjectToInstantiate: {fileID: 0}
      m_TileFlags: 0
      m_ColliderType: 0
  - first: {x: -4, y: -4, z: 0}
    second:
      m_TileIndex: 96
      m_TileSpriteIndex: 96
      m_TileMatrixIndex: 0
      m_TileColorIndex: 0
      m_ObjectToInstantiate: {fileID: 0}
      m_TileFlags: 0
      m_ColliderType: 0
  - first: {x: -3, y: -4, z: 0}
    second:
      m_TileIndex: 97
      m_TileSpriteIndex: 97
      m_TileMatrixIndex: 0
      m_TileColorIndex: 0
      m_ObjectToInstantiate: {fileID: 0}
      m_TileFlags: 0
      m_ColliderType: 0
  - first: {x: -2, y: -4, z: 0}
    second:
      m_TileIndex: 98
      m_TileSpriteIndex: 98
      m_TileMatrixIndex: 0
      m_TileColorIndex: 0
      m_ObjectToInstantiate: {fileID: 0}
      m_TileFlags: 0
      m_ColliderType: 0
  - first: {x: -1, y: -4, z: 0}
    second:
      m_TileIndex: 77
      m_TileSpriteIndex: 77
      m_TileMatrixIndex: 0
      m_TileColorIndex: 0
      m_ObjectToInstantiate: {fileID: 0}
      m_TileFlags: 0
      m_ColliderType: 0
  - first: {x: 0, y: -4, z: 0}
    second:
      m_TileIndex: 78
      m_TileSpriteIndex: 78
      m_TileMatrixIndex: 0
      m_TileColorIndex: 0
      m_ObjectToInstantiate: {fileID: 0}
      m_TileFlags: 0
      m_ColliderType: 0
  - first: {x: 2, y: -4, z: 0}
    second:
      m_TileIndex: 79
      m_TileSpriteIndex: 79
      m_TileMatrixIndex: 0
      m_TileColorIndex: 0
      m_ObjectToInstantiate: {fileID: 0}
      m_TileFlags: 0
      m_ColliderType: 0
  - first: {x: 3, y: -4, z: 0}
    second:
      m_TileIndex: 80
      m_TileSpriteIndex: 80
      m_TileMatrixIndex: 0
      m_TileColorIndex: 0
      m_ObjectToInstantiate: {fileID: 0}
      m_TileFlags: 0
      m_ColliderType: 0
  - first: {x: 5, y: -4, z: 0}
    second:
      m_TileIndex: 81
      m_TileSpriteIndex: 81
      m_TileMatrixIndex: 0
      m_TileColorIndex: 0
      m_ObjectToInstantiate: {fileID: 0}
      m_TileFlags: 0
      m_ColliderType: 0
  - first: {x: 6, y: -4, z: 0}
    second:
      m_TileIndex: 82
      m_TileSpriteIndex: 82
      m_TileMatrixIndex: 0
      m_TileColorIndex: 0
      m_ObjectToInstantiate: {fileID: 0}
      m_TileFlags: 0
      m_ColliderType: 0
  - first: {x: -7, y: -3, z: 0}
    second:
      m_TileIndex: 87
      m_TileSpriteIndex: 87
      m_TileMatrixIndex: 0
      m_TileColorIndex: 0
      m_ObjectToInstantiate: {fileID: 0}
      m_TileFlags: 0
      m_ColliderType: 0
  - first: {x: -6, y: -3, z: 0}
    second:
      m_TileIndex: 88
      m_TileSpriteIndex: 88
      m_TileMatrixIndex: 0
      m_TileColorIndex: 0
      m_ObjectToInstantiate: {fileID: 0}
      m_TileFlags: 0
      m_ColliderType: 0
  - first: {x: -5, y: -3, z: 0}
    second:
      m_TileIndex: 89
      m_TileSpriteIndex: 89
      m_TileMatrixIndex: 0
      m_TileColorIndex: 0
      m_ObjectToInstantiate: {fileID: 0}
      m_TileFlags: 0
      m_ColliderType: 0
  - first: {x: -4, y: -3, z: 0}
    second:
      m_TileIndex: 90
      m_TileSpriteIndex: 90
      m_TileMatrixIndex: 0
      m_TileColorIndex: 0
      m_ObjectToInstantiate: {fileID: 0}
      m_TileFlags: 0
      m_ColliderType: 0
  - first: {x: -3, y: -3, z: 0}
    second:
      m_TileIndex: 91
      m_TileSpriteIndex: 91
      m_TileMatrixIndex: 0
      m_TileColorIndex: 0
      m_ObjectToInstantiate: {fileID: 0}
      m_TileFlags: 0
      m_ColliderType: 0
  - first: {x: -2, y: -3, z: 0}
    second:
      m_TileIndex: 92
      m_TileSpriteIndex: 92
      m_TileMatrixIndex: 0
      m_TileColorIndex: 0
      m_ObjectToInstantiate: {fileID: 0}
      m_TileFlags: 0
      m_ColliderType: 0
  - first: {x: -1, y: -3, z: 0}
    second:
      m_TileIndex: 45
      m_TileSpriteIndex: 45
      m_TileMatrixIndex: 0
      m_TileColorIndex: 0
      m_ObjectToInstantiate: {fileID: 0}
      m_TileFlags: 0
      m_ColliderType: 0
  - first: {x: 0, y: -3, z: 0}
    second:
      m_TileIndex: 46
      m_TileSpriteIndex: 46
      m_TileMatrixIndex: 0
      m_TileColorIndex: 0
      m_ObjectToInstantiate: {fileID: 0}
      m_TileFlags: 0
      m_ColliderType: 0
  - first: {x: 2, y: -3, z: 0}
    second:
      m_TileIndex: 47
      m_TileSpriteIndex: 47
      m_TileMatrixIndex: 0
      m_TileColorIndex: 0
      m_ObjectToInstantiate: {fileID: 0}
      m_TileFlags: 0
      m_ColliderType: 0
  - first: {x: 3, y: -3, z: 0}
    second:
      m_TileIndex: 48
      m_TileSpriteIndex: 48
      m_TileMatrixIndex: 0
      m_TileColorIndex: 0
      m_ObjectToInstantiate: {fileID: 0}
      m_TileFlags: 0
      m_ColliderType: 0
  - first: {x: 5, y: -3, z: 0}
    second:
      m_TileIndex: 50
      m_TileSpriteIndex: 50
      m_TileMatrixIndex: 0
      m_TileColorIndex: 0
      m_ObjectToInstantiate: {fileID: 0}
      m_TileFlags: 0
      m_ColliderType: 0
  - first: {x: 6, y: -3, z: 0}
    second:
      m_TileIndex: 49
      m_TileSpriteIndex: 49
      m_TileMatrixIndex: 0
      m_TileColorIndex: 0
      m_ObjectToInstantiate: {fileID: 0}
      m_TileFlags: 0
      m_ColliderType: 0
  - first: {x: 8, y: -3, z: 0}
    second:
      m_TileIndex: 121
      m_TileSpriteIndex: 121
      m_TileMatrixIndex: 0
      m_TileColorIndex: 0
      m_ObjectToInstantiate: {fileID: 0}
      m_TileFlags: 1
      m_ColliderType: 1
  - first: {x: -12, y: -2, z: 0}
    second:
      m_TileIndex: 127
      m_TileSpriteIndex: 127
      m_TileMatrixIndex: 0
      m_TileColorIndex: 0
      m_ObjectToInstantiate: {fileID: 0}
      m_TileFlags: 1
      m_ColliderType: 1
  - first: {x: -11, y: -2, z: 0}
    second:
      m_TileIndex: 128
      m_TileSpriteIndex: 128
      m_TileMatrixIndex: 0
      m_TileColorIndex: 0
      m_ObjectToInstantiate: {fileID: 0}
      m_TileFlags: 1
      m_ColliderType: 1
  - first: {x: -10, y: -2, z: 0}
    second:
      m_TileIndex: 129
      m_TileSpriteIndex: 129
      m_TileMatrixIndex: 0
      m_TileColorIndex: 0
      m_ObjectToInstantiate: {fileID: 0}
      m_TileFlags: 1
      m_ColliderType: 1
  - first: {x: -7, y: -2, z: 0}
    second:
      m_TileIndex: 42
      m_TileSpriteIndex: 42
      m_TileMatrixIndex: 0
      m_TileColorIndex: 0
      m_ObjectToInstantiate: {fileID: 0}
      m_TileFlags: 0
      m_ColliderType: 0
  - first: {x: -6, y: -2, z: 0}
    second:
      m_TileIndex: 43
      m_TileSpriteIndex: 43
      m_TileMatrixIndex: 0
      m_TileColorIndex: 0
      m_ObjectToInstantiate: {fileID: 0}
      m_TileFlags: 0
      m_ColliderType: 0
  - first: {x: -5, y: -2, z: 0}
    second:
      m_TileIndex: 44
      m_TileSpriteIndex: 44
      m_TileMatrixIndex: 0
      m_TileColorIndex: 0
      m_ObjectToInstantiate: {fileID: 0}
      m_TileFlags: 0
      m_ColliderType: 0
  - first: {x: -4, y: -2, z: 0}
    second:
      m_TileIndex: 41
      m_TileSpriteIndex: 41
      m_TileMatrixIndex: 0
      m_TileColorIndex: 0
      m_ObjectToInstantiate: {fileID: 0}
      m_TileFlags: 0
      m_ColliderType: 0
  - first: {x: -3, y: -2, z: 0}
    second:
      m_TileIndex: 40
      m_TileSpriteIndex: 40
      m_TileMatrixIndex: 0
      m_TileColorIndex: 0
      m_ObjectToInstantiate: {fileID: 0}
      m_TileFlags: 0
      m_ColliderType: 0
  - first: {x: -2, y: -2, z: 0}
    second:
      m_TileIndex: 39
      m_TileSpriteIndex: 39
      m_TileMatrixIndex: 0
      m_TileColorIndex: 0
      m_ObjectToInstantiate: {fileID: 0}
      m_TileFlags: 0
      m_ColliderType: 0
  - first: {x: -1, y: -2, z: 0}
    second:
      m_TileIndex: 30
      m_TileSpriteIndex: 30
      m_TileMatrixIndex: 0
      m_TileColorIndex: 0
      m_ObjectToInstantiate: {fileID: 0}
      m_TileFlags: 0
      m_ColliderType: 0
  - first: {x: 0, y: -2, z: 0}
    second:
      m_TileIndex: 31
      m_TileSpriteIndex: 31
      m_TileMatrixIndex: 0
      m_TileColorIndex: 0
      m_ObjectToInstantiate: {fileID: 0}
      m_TileFlags: 0
      m_ColliderType: 0
  - first: {x: 1, y: -2, z: 0}
    second:
      m_TileIndex: 32
      m_TileSpriteIndex: 32
      m_TileMatrixIndex: 0
      m_TileColorIndex: 0
      m_ObjectToInstantiate: {fileID: 0}
      m_TileFlags: 0
      m_ColliderType: 0
  - first: {x: 2, y: -2, z: 0}
    second:
      m_TileIndex: 35
      m_TileSpriteIndex: 35
      m_TileMatrixIndex: 0
      m_TileColorIndex: 0
      m_ObjectToInstantiate: {fileID: 0}
      m_TileFlags: 0
      m_ColliderType: 0
  - first: {x: 3, y: -2, z: 0}
    second:
      m_TileIndex: 34
      m_TileSpriteIndex: 34
      m_TileMatrixIndex: 0
      m_TileColorIndex: 0
      m_ObjectToInstantiate: {fileID: 0}
      m_TileFlags: 0
      m_ColliderType: 0
  - first: {x: 4, y: -2, z: 0}
    second:
      m_TileIndex: 33
      m_TileSpriteIndex: 33
      m_TileMatrixIndex: 0
      m_TileColorIndex: 0
      m_ObjectToInstantiate: {fileID: 0}
      m_TileFlags: 0
      m_ColliderType: 0
  - first: {x: 5, y: -2, z: 0}
    second:
      m_TileIndex: 36
      m_TileSpriteIndex: 36
      m_TileMatrixIndex: 0
      m_TileColorIndex: 0
      m_ObjectToInstantiate: {fileID: 0}
      m_TileFlags: 0
      m_ColliderType: 0
  - first: {x: 6, y: -2, z: 0}
    second:
      m_TileIndex: 37
      m_TileSpriteIndex: 37
      m_TileMatrixIndex: 0
      m_TileColorIndex: 0
      m_ObjectToInstantiate: {fileID: 0}
      m_TileFlags: 0
      m_ColliderType: 0
  - first: {x: 7, y: -2, z: 0}
    second:
      m_TileIndex: 38
      m_TileSpriteIndex: 38
      m_TileMatrixIndex: 0
      m_TileColorIndex: 0
      m_ObjectToInstantiate: {fileID: 0}
      m_TileFlags: 0
      m_ColliderType: 0
  - first: {x: -12, y: -1, z: 0}
    second:
      m_TileIndex: 124
      m_TileSpriteIndex: 124
      m_TileMatrixIndex: 0
      m_TileColorIndex: 0
      m_ObjectToInstantiate: {fileID: 0}
      m_TileFlags: 1
      m_ColliderType: 1
  - first: {x: -11, y: -1, z: 0}
    second:
      m_TileIndex: 125
      m_TileSpriteIndex: 125
      m_TileMatrixIndex: 0
      m_TileColorIndex: 0
      m_ObjectToInstantiate: {fileID: 0}
      m_TileFlags: 1
      m_ColliderType: 1
  - first: {x: -10, y: -1, z: 0}
    second:
      m_TileIndex: 126
      m_TileSpriteIndex: 126
      m_TileMatrixIndex: 0
      m_TileColorIndex: 0
      m_ObjectToInstantiate: {fileID: 0}
      m_TileFlags: 1
      m_ColliderType: 1
  - first: {x: -7, y: -1, z: 0}
    second:
      m_TileIndex: 29
      m_TileSpriteIndex: 29
      m_TileMatrixIndex: 0
      m_TileColorIndex: 0
      m_ObjectToInstantiate: {fileID: 0}
      m_TileFlags: 0
      m_ColliderType: 0
  - first: {x: -6, y: -1, z: 0}
    second:
      m_TileIndex: 28
      m_TileSpriteIndex: 28
      m_TileMatrixIndex: 0
      m_TileColorIndex: 0
      m_ObjectToInstantiate: {fileID: 0}
      m_TileFlags: 0
      m_ColliderType: 0
  - first: {x: -5, y: -1, z: 0}
    second:
      m_TileIndex: 27
      m_TileSpriteIndex: 27
      m_TileMatrixIndex: 0
      m_TileColorIndex: 0
      m_ObjectToInstantiate: {fileID: 0}
      m_TileFlags: 0
      m_ColliderType: 0
  - first: {x: -4, y: -1, z: 0}
    second:
      m_TileIndex: 26
      m_TileSpriteIndex: 26
      m_TileMatrixIndex: 0
      m_TileColorIndex: 0
      m_ObjectToInstantiate: {fileID: 0}
      m_TileFlags: 0
      m_ColliderType: 0
  - first: {x: -3, y: -1, z: 0}
    second:
      m_TileIndex: 25
      m_TileSpriteIndex: 25
      m_TileMatrixIndex: 0
      m_TileColorIndex: 0
      m_ObjectToInstantiate: {fileID: 0}
      m_TileFlags: 0
      m_ColliderType: 0
  - first: {x: -2, y: -1, z: 0}
    second:
      m_TileIndex: 24
      m_TileSpriteIndex: 24
      m_TileMatrixIndex: 0
      m_TileColorIndex: 0
      m_ObjectToInstantiate: {fileID: 0}
      m_TileFlags: 0
      m_ColliderType: 0
  - first: {x: -1, y: -1, z: 0}
    second:
      m_TileIndex: 15
      m_TileSpriteIndex: 15
      m_TileMatrixIndex: 0
      m_TileColorIndex: 0
      m_ObjectToInstantiate: {fileID: 0}
      m_TileFlags: 0
      m_ColliderType: 0
  - first: {x: 0, y: -1, z: 0}
    second:
      m_TileIndex: 16
      m_TileSpriteIndex: 16
      m_TileMatrixIndex: 0
      m_TileColorIndex: 0
      m_ObjectToInstantiate: {fileID: 0}
      m_TileFlags: 0
      m_ColliderType: 0
  - first: {x: 1, y: -1, z: 0}
    second:
      m_TileIndex: 17
      m_TileSpriteIndex: 17
      m_TileMatrixIndex: 0
      m_TileColorIndex: 0
      m_ObjectToInstantiate: {fileID: 0}
      m_TileFlags: 0
      m_ColliderType: 0
  - first: {x: 2, y: -1, z: 0}
    second:
      m_TileIndex: 20
      m_TileSpriteIndex: 20
      m_TileMatrixIndex: 0
      m_TileColorIndex: 0
      m_ObjectToInstantiate: {fileID: 0}
      m_TileFlags: 0
      m_ColliderType: 0
  - first: {x: 3, y: -1, z: 0}
    second:
      m_TileIndex: 19
      m_TileSpriteIndex: 19
      m_TileMatrixIndex: 0
      m_TileColorIndex: 0
      m_ObjectToInstantiate: {fileID: 0}
      m_TileFlags: 0
      m_ColliderType: 0
  - first: {x: 4, y: -1, z: 0}
    second:
      m_TileIndex: 18
      m_TileSpriteIndex: 18
      m_TileMatrixIndex: 0
      m_TileColorIndex: 0
      m_ObjectToInstantiate: {fileID: 0}
      m_TileFlags: 0
      m_ColliderType: 0
  - first: {x: 5, y: -1, z: 0}
    second:
      m_TileIndex: 23
      m_TileSpriteIndex: 23
      m_TileMatrixIndex: 0
      m_TileColorIndex: 0
      m_ObjectToInstantiate: {fileID: 0}
      m_TileFlags: 0
      m_ColliderType: 0
  - first: {x: 6, y: -1, z: 0}
    second:
      m_TileIndex: 22
      m_TileSpriteIndex: 22
      m_TileMatrixIndex: 0
      m_TileColorIndex: 0
      m_ObjectToInstantiate: {fileID: 0}
      m_TileFlags: 0
      m_ColliderType: 0
  - first: {x: 7, y: -1, z: 0}
    second:
      m_TileIndex: 21
      m_TileSpriteIndex: 21
      m_TileMatrixIndex: 0
      m_TileColorIndex: 0
      m_ObjectToInstantiate: {fileID: 0}
      m_TileFlags: 0
      m_ColliderType: 0
  - first: {x: -11, y: 0, z: 0}
    second:
      m_TileIndex: 122
      m_TileSpriteIndex: 122
      m_TileMatrixIndex: 0
      m_TileColorIndex: 0
      m_ObjectToInstantiate: {fileID: 0}
      m_TileFlags: 1
      m_ColliderType: 1
  - first: {x: -10, y: 0, z: 0}
    second:
      m_TileIndex: 123
      m_TileSpriteIndex: 123
      m_TileMatrixIndex: 0
      m_TileColorIndex: 0
      m_ObjectToInstantiate: {fileID: 0}
      m_TileFlags: 1
      m_ColliderType: 1
  - first: {x: -7, y: 0, z: 0}
    second:
      m_TileIndex: 12
      m_TileSpriteIndex: 12
      m_TileMatrixIndex: 0
      m_TileColorIndex: 0
      m_ObjectToInstantiate: {fileID: 0}
      m_TileFlags: 0
      m_ColliderType: 0
  - first: {x: -6, y: 0, z: 0}
    second:
      m_TileIndex: 13
      m_TileSpriteIndex: 13
      m_TileMatrixIndex: 0
      m_TileColorIndex: 0
      m_ObjectToInstantiate: {fileID: 0}
      m_TileFlags: 0
      m_ColliderType: 0
  - first: {x: -5, y: 0, z: 0}
    second:
      m_TileIndex: 14
      m_TileSpriteIndex: 14
      m_TileMatrixIndex: 0
      m_TileColorIndex: 0
      m_ObjectToInstantiate: {fileID: 0}
      m_TileFlags: 0
      m_ColliderType: 0
  - first: {x: -4, y: 0, z: 0}
    second:
      m_TileIndex: 9
      m_TileSpriteIndex: 9
      m_TileMatrixIndex: 0
      m_TileColorIndex: 0
      m_ObjectToInstantiate: {fileID: 0}
      m_TileFlags: 0
      m_ColliderType: 0
  - first: {x: -3, y: 0, z: 0}
    second:
      m_TileIndex: 10
      m_TileSpriteIndex: 10
      m_TileMatrixIndex: 0
      m_TileColorIndex: 0
      m_ObjectToInstantiate: {fileID: 0}
      m_TileFlags: 0
      m_ColliderType: 0
  - first: {x: -2, y: 0, z: 0}
    second:
      m_TileIndex: 11
      m_TileSpriteIndex: 11
      m_TileMatrixIndex: 0
      m_TileColorIndex: 0
      m_ObjectToInstantiate: {fileID: 0}
      m_TileFlags: 0
      m_ColliderType: 0
  - first: {x: -1, y: 0, z: 0}
    second:
      m_TileIndex: 0
      m_TileSpriteIndex: 0
      m_TileMatrixIndex: 0
      m_TileColorIndex: 0
      m_ObjectToInstantiate: {fileID: 0}
      m_TileFlags: 0
      m_ColliderType: 0
  - first: {x: 0, y: 0, z: 0}
    second:
      m_TileIndex: 1
      m_TileSpriteIndex: 1
      m_TileMatrixIndex: 0
      m_TileColorIndex: 0
      m_ObjectToInstantiate: {fileID: 0}
      m_TileFlags: 0
      m_ColliderType: 0
  - first: {x: 1, y: 0, z: 0}
    second:
      m_TileIndex: 2
      m_TileSpriteIndex: 2
      m_TileMatrixIndex: 0
      m_TileColorIndex: 0
      m_ObjectToInstantiate: {fileID: 0}
      m_TileFlags: 0
      m_ColliderType: 0
  - first: {x: 2, y: 0, z: 0}
    second:
      m_TileIndex: 3
      m_TileSpriteIndex: 3
      m_TileMatrixIndex: 0
      m_TileColorIndex: 0
      m_ObjectToInstantiate: {fileID: 0}
      m_TileFlags: 0
      m_ColliderType: 0
  - first: {x: 3, y: 0, z: 0}
    second:
      m_TileIndex: 4
      m_TileSpriteIndex: 4
      m_TileMatrixIndex: 0
      m_TileColorIndex: 0
      m_ObjectToInstantiate: {fileID: 0}
      m_TileFlags: 0
      m_ColliderType: 0
  - first: {x: 4, y: 0, z: 0}
    second:
      m_TileIndex: 5
      m_TileSpriteIndex: 5
      m_TileMatrixIndex: 0
      m_TileColorIndex: 0
      m_ObjectToInstantiate: {fileID: 0}
      m_TileFlags: 0
      m_ColliderType: 0
  - first: {x: 5, y: 0, z: 0}
    second:
      m_TileIndex: 6
      m_TileSpriteIndex: 6
      m_TileMatrixIndex: 0
      m_TileColorIndex: 0
      m_ObjectToInstantiate: {fileID: 0}
      m_TileFlags: 0
      m_ColliderType: 0
  - first: {x: 6, y: 0, z: 0}
    second:
      m_TileIndex: 7
      m_TileSpriteIndex: 7
      m_TileMatrixIndex: 0
      m_TileColorIndex: 0
      m_ObjectToInstantiate: {fileID: 0}
      m_TileFlags: 0
      m_ColliderType: 0
  - first: {x: 7, y: 0, z: 0}
    second:
      m_TileIndex: 8
      m_TileSpriteIndex: 8
      m_TileMatrixIndex: 0
      m_TileColorIndex: 0
      m_ObjectToInstantiate: {fileID: 0}
      m_TileFlags: 0
      m_ColliderType: 0
  - first: {x: -1, y: 1, z: 0}
    second:
      m_TileIndex: 132
      m_TileSpriteIndex: 132
      m_TileMatrixIndex: 0
      m_TileColorIndex: 0
      m_ObjectToInstantiate: {fileID: 0}
      m_TileFlags: 1
      m_ColliderType: 1
  - first: {x: 1, y: 1, z: 0}
    second:
      m_TileIndex: 66
      m_TileSpriteIndex: 66
      m_TileMatrixIndex: 0
      m_TileColorIndex: 0
      m_ObjectToInstantiate: {fileID: 0}
      m_TileFlags: 1
      m_ColliderType: 1
  - first: {x: 2, y: 1, z: 0}
    second:
      m_TileIndex: 52
      m_TileSpriteIndex: 52
      m_TileMatrixIndex: 0
      m_TileColorIndex: 0
      m_ObjectToInstantiate: {fileID: 0}
      m_TileFlags: 1
      m_ColliderType: 1
  - first: {x: 3, y: 1, z: 0}
    second:
      m_TileIndex: 51
      m_TileSpriteIndex: 51
      m_TileMatrixIndex: 0
      m_TileColorIndex: 0
      m_ObjectToInstantiate: {fileID: 0}
      m_TileFlags: 1
      m_ColliderType: 1
  - first: {x: 4, y: 1, z: 0}
    second:
      m_TileIndex: 53
      m_TileSpriteIndex: 53
      m_TileMatrixIndex: 0
      m_TileColorIndex: 0
      m_ObjectToInstantiate: {fileID: 0}
      m_TileFlags: 1
      m_ColliderType: 1
  - first: {x: 5, y: 1, z: 0}
    second:
      m_TileIndex: 54
      m_TileSpriteIndex: 54
      m_TileMatrixIndex: 0
      m_TileColorIndex: 0
      m_ObjectToInstantiate: {fileID: 0}
      m_TileFlags: 1
      m_ColliderType: 1
  - first: {x: 6, y: 1, z: 0}
    second:
      m_TileIndex: 57
      m_TileSpriteIndex: 57
      m_TileMatrixIndex: 0
      m_TileColorIndex: 0
      m_ObjectToInstantiate: {fileID: 0}
      m_TileFlags: 1
      m_ColliderType: 1
  - first: {x: 7, y: 1, z: 0}
    second:
      m_TileIndex: 58
      m_TileSpriteIndex: 58
      m_TileMatrixIndex: 0
      m_TileColorIndex: 0
      m_ObjectToInstantiate: {fileID: 0}
      m_TileFlags: 1
      m_ColliderType: 1
  - first: {x: 8, y: 1, z: 0}
    second:
      m_TileIndex: 59
      m_TileSpriteIndex: 59
      m_TileMatrixIndex: 0
      m_TileColorIndex: 0
      m_ObjectToInstantiate: {fileID: 0}
      m_TileFlags: 1
      m_ColliderType: 1
  - first: {x: 9, y: 1, z: 0}
    second:
      m_TileIndex: 62
      m_TileSpriteIndex: 62
      m_TileMatrixIndex: 0
      m_TileColorIndex: 0
      m_ObjectToInstantiate: {fileID: 0}
      m_TileFlags: 1
      m_ColliderType: 1
  - first: {x: -6, y: 2, z: 0}
    second:
      m_TileIndex: 113
      m_TileSpriteIndex: 113
      m_TileMatrixIndex: 0
      m_TileColorIndex: 0
      m_ObjectToInstantiate: {fileID: 0}
      m_TileFlags: 0
      m_ColliderType: 0
  - first: {x: -1, y: 2, z: 0}
    second:
      m_TileIndex: 131
      m_TileSpriteIndex: 131
      m_TileMatrixIndex: 0
      m_TileColorIndex: 0
      m_ObjectToInstantiate: {fileID: 0}
      m_TileFlags: 1
      m_ColliderType: 1
  - first: {x: 2, y: 2, z: 0}
    second:
      m_TileIndex: 65
      m_TileSpriteIndex: 65
      m_TileMatrixIndex: 0
      m_TileColorIndex: 0
      m_ObjectToInstantiate: {fileID: 0}
      m_TileFlags: 1
      m_ColliderType: 1
  - first: {x: 3, y: 2, z: 0}
    second:
      m_TileIndex: 63
      m_TileSpriteIndex: 63
      m_TileMatrixIndex: 0
      m_TileColorIndex: 0
      m_ObjectToInstantiate: {fileID: 0}
      m_TileFlags: 1
      m_ColliderType: 1
  - first: {x: 4, y: 2, z: 0}
    second:
      m_TileIndex: 64
      m_TileSpriteIndex: 64
      m_TileMatrixIndex: 0
      m_TileColorIndex: 0
      m_ObjectToInstantiate: {fileID: 0}
      m_TileFlags: 1
      m_ColliderType: 1
  - first: {x: 5, y: 2, z: 0}
    second:
      m_TileIndex: 56
      m_TileSpriteIndex: 56
      m_TileMatrixIndex: 0
      m_TileColorIndex: 0
      m_ObjectToInstantiate: {fileID: 0}
      m_TileFlags: 1
      m_ColliderType: 1
  - first: {x: 6, y: 2, z: 0}
    second:
      m_TileIndex: 55
      m_TileSpriteIndex: 55
      m_TileMatrixIndex: 0
      m_TileColorIndex: 0
      m_ObjectToInstantiate: {fileID: 0}
      m_TileFlags: 1
      m_ColliderType: 1
  - first: {x: 7, y: 2, z: 0}
    second:
      m_TileIndex: 60
      m_TileSpriteIndex: 60
      m_TileMatrixIndex: 0
      m_TileColorIndex: 0
      m_ObjectToInstantiate: {fileID: 0}
      m_TileFlags: 1
      m_ColliderType: 1
  - first: {x: 8, y: 2, z: 0}
    second:
      m_TileIndex: 61
      m_TileSpriteIndex: 61
      m_TileMatrixIndex: 0
      m_TileColorIndex: 0
      m_ObjectToInstantiate: {fileID: 0}
      m_TileFlags: 1
      m_ColliderType: 1
  - first: {x: -1, y: 3, z: 0}
    second:
      m_TileIndex: 130
      m_TileSpriteIndex: 130
      m_TileMatrixIndex: 0
      m_TileColorIndex: 0
      m_ObjectToInstantiate: {fileID: 0}
      m_TileFlags: 1
      m_ColliderType: 1
  - first: {x: 2, y: 3, z: 0}
    second:
      m_TileIndex: 67
      m_TileSpriteIndex: 67
      m_TileMatrixIndex: 0
      m_TileColorIndex: 0
      m_ObjectToInstantiate: {fileID: 0}
      m_TileFlags: 1
      m_ColliderType: 1
  - first: {x: 3, y: 3, z: 0}
    second:
      m_TileIndex: 68
      m_TileSpriteIndex: 68
      m_TileMatrixIndex: 0
      m_TileColorIndex: 0
      m_ObjectToInstantiate: {fileID: 0}
      m_TileFlags: 1
      m_ColliderType: 1
  - first: {x: 4, y: 3, z: 0}
    second:
      m_TileIndex: 69
      m_TileSpriteIndex: 69
      m_TileMatrixIndex: 0
      m_TileColorIndex: 0
      m_ObjectToInstantiate: {fileID: 0}
      m_TileFlags: 1
      m_ColliderType: 1
  - first: {x: 2, y: 4, z: 0}
    second:
      m_TileIndex: 70
      m_TileSpriteIndex: 70
      m_TileMatrixIndex: 0
      m_TileColorIndex: 0
      m_ObjectToInstantiate: {fileID: 0}
      m_TileFlags: 1
      m_ColliderType: 1
  - first: {x: 3, y: 4, z: 0}
    second:
      m_TileIndex: 71
      m_TileSpriteIndex: 71
      m_TileMatrixIndex: 0
      m_TileColorIndex: 0
      m_ObjectToInstantiate: {fileID: 0}
      m_TileFlags: 1
      m_ColliderType: 1
  - first: {x: 4, y: 4, z: 0}
    second:
      m_TileIndex: 72
      m_TileSpriteIndex: 72
      m_TileMatrixIndex: 0
      m_TileColorIndex: 0
      m_ObjectToInstantiate: {fileID: 0}
      m_TileFlags: 1
      m_ColliderType: 1
  - first: {x: -2, y: 5, z: 0}
    second:
      m_TileIndex: 117
      m_TileSpriteIndex: 117
      m_TileMatrixIndex: 0
      m_TileColorIndex: 0
      m_ObjectToInstantiate: {fileID: 0}
      m_TileFlags: 1
      m_ColliderType: 1
  - first: {x: -1, y: 5, z: 0}
    second:
      m_TileIndex: 118
      m_TileSpriteIndex: 118
      m_TileMatrixIndex: 0
      m_TileColorIndex: 0
      m_ObjectToInstantiate: {fileID: 0}
      m_TileFlags: 1
      m_ColliderType: 1
  - first: {x: 2, y: 5, z: 0}
    second:
      m_TileIndex: 114
      m_TileSpriteIndex: 114
      m_TileMatrixIndex: 0
      m_TileColorIndex: 0
      m_ObjectToInstantiate: {fileID: 0}
      m_TileFlags: 1
      m_ColliderType: 1
  - first: {x: 3, y: 5, z: 0}
    second:
      m_TileIndex: 115
      m_TileSpriteIndex: 115
      m_TileMatrixIndex: 0
      m_TileColorIndex: 0
      m_ObjectToInstantiate: {fileID: 0}
      m_TileFlags: 1
      m_ColliderType: 1
  - first: {x: 4, y: 5, z: 0}
    second:
      m_TileIndex: 116
      m_TileSpriteIndex: 116
      m_TileMatrixIndex: 0
      m_TileColorIndex: 0
      m_ObjectToInstantiate: {fileID: 0}
      m_TileFlags: 1
      m_ColliderType: 1
  - first: {x: -2, y: 6, z: 0}
    second:
      m_TileIndex: 119
      m_TileSpriteIndex: 119
      m_TileMatrixIndex: 0
      m_TileColorIndex: 0
      m_ObjectToInstantiate: {fileID: 0}
      m_TileFlags: 1
      m_ColliderType: 1
  - first: {x: -1, y: 6, z: 0}
    second:
      m_TileIndex: 120
      m_TileSpriteIndex: 120
      m_TileMatrixIndex: 0
      m_TileColorIndex: 0
      m_ObjectToInstantiate: {fileID: 0}
      m_TileFlags: 1
      m_ColliderType: 1
  m_AnimatedTiles:
  - first: {x: -7, y: -7, z: 0}
    second:
      m_AnimatedSprites:
      - {fileID: 8014634831630014236, guid: b0f8c9b913f463b4da106af14a69652c, type: 3}
      m_AnimationSpeed: 1
      m_AnimationTimeOffset: 0
      m_IsLooping: 1
  - first: {x: -6, y: -7, z: 0}
    second:
      m_AnimatedSprites:
      - {fileID: -133241991744989185, guid: b0f8c9b913f463b4da106af14a69652c, type: 3}
      m_AnimationSpeed: 1
      m_AnimationTimeOffset: 0
      m_IsLooping: 1
  - first: {x: -4, y: -7, z: 0}
    second:
      m_AnimatedSprites:
      - {fileID: 33629018954648619, guid: b0f8c9b913f463b4da106af14a69652c, type: 3}
      m_AnimationSpeed: 1
      m_AnimationTimeOffset: 0
      m_IsLooping: 1
  - first: {x: -3, y: -7, z: 0}
    second:
      m_AnimatedSprites:
      - {fileID: -7370524801023404021, guid: b0f8c9b913f463b4da106af14a69652c, type: 3}
      m_AnimationSpeed: 1
      m_AnimationTimeOffset: 0
      m_IsLooping: 1
  - first: {x: -7, y: -6, z: 0}
    second:
      m_AnimatedSprites:
      - {fileID: -2268359696866008901, guid: b0f8c9b913f463b4da106af14a69652c, type: 3}
      m_AnimationSpeed: 1
      m_AnimationTimeOffset: 0
      m_IsLooping: 1
  - first: {x: -6, y: -6, z: 0}
    second:
      m_AnimatedSprites:
      - {fileID: 1314932482275609339, guid: b0f8c9b913f463b4da106af14a69652c, type: 3}
      m_AnimationSpeed: 1
      m_AnimationTimeOffset: 0
      m_IsLooping: 1
  - first: {x: -4, y: -6, z: 0}
    second:
      m_AnimatedSprites:
      - {fileID: 6364135779226221492, guid: b0f8c9b913f463b4da106af14a69652c, type: 3}
      m_AnimationSpeed: 1
      m_AnimationTimeOffset: 0
      m_IsLooping: 1
  - first: {x: -3, y: -6, z: 0}
    second:
      m_AnimatedSprites:
      - {fileID: -8207026470820909262, guid: b0f8c9b913f463b4da106af14a69652c, type: 3}
      m_AnimationSpeed: 1
      m_AnimationTimeOffset: 0
      m_IsLooping: 1
  - first: {x: 2, y: -6, z: 0}
    second:
      m_AnimatedSprites:
      - {fileID: -3364473400799862827, guid: b0f8c9b913f463b4da106af14a69652c, type: 3}
      m_AnimationSpeed: 1
      m_AnimationTimeOffset: 0
      m_IsLooping: 1
  - first: {x: 3, y: -6, z: 0}
    second:
      m_AnimatedSprites:
      - {fileID: -1312328541275428352, guid: b0f8c9b913f463b4da106af14a69652c, type: 3}
      m_AnimationSpeed: 1
      m_AnimationTimeOffset: 0
      m_IsLooping: 1
  - first: {x: 5, y: -6, z: 0}
    second:
      m_AnimatedSprites:
      - {fileID: -5869188358536411172, guid: b0f8c9b913f463b4da106af14a69652c, type: 3}
      m_AnimationSpeed: 1
      m_AnimationTimeOffset: 0
      m_IsLooping: 1
  - first: {x: 6, y: -6, z: 0}
    second:
      m_AnimatedSprites:
      - {fileID: 2200968464693235318, guid: b0f8c9b913f463b4da106af14a69652c, type: 3}
      m_AnimationSpeed: 1
      m_AnimationTimeOffset: 0
      m_IsLooping: 1
  - first: {x: -7, y: -5, z: 0}
    second:
      m_AnimatedSprites:
      - {fileID: -190362170379321746, guid: b0f8c9b913f463b4da106af14a69652c, type: 3}
      m_AnimationSpeed: 1
      m_AnimationTimeOffset: 0
      m_IsLooping: 1
  - first: {x: -6, y: -5, z: 0}
    second:
      m_AnimatedSprites:
      - {fileID: 495490470837509961, guid: b0f8c9b913f463b4da106af14a69652c, type: 3}
      m_AnimationSpeed: 1
      m_AnimationTimeOffset: 0
      m_IsLooping: 1
  - first: {x: -5, y: -5, z: 0}
    second:
      m_AnimatedSprites:
      - {fileID: -1935178873984971582, guid: b0f8c9b913f463b4da106af14a69652c, type: 3}
      m_AnimationSpeed: 1
      m_AnimationTimeOffset: 0
      m_IsLooping: 1
  - first: {x: -4, y: -5, z: 0}
    second:
      m_AnimatedSprites:
      - {fileID: -4962795063079316370, guid: b0f8c9b913f463b4da106af14a69652c, type: 3}
      m_AnimationSpeed: 1
      m_AnimationTimeOffset: 0
      m_IsLooping: 1
  - first: {x: -3, y: -5, z: 0}
    second:
      m_AnimatedSprites:
      - {fileID: 7893882042023251840, guid: b0f8c9b913f463b4da106af14a69652c, type: 3}
      m_AnimationSpeed: 1
      m_AnimationTimeOffset: 0
      m_IsLooping: 1
  - first: {x: -2, y: -5, z: 0}
    second:
      m_AnimatedSprites:
      - {fileID: -1892027926738211615, guid: b0f8c9b913f463b4da106af14a69652c, type: 3}
      m_AnimationSpeed: 1
      m_AnimationTimeOffset: 0
      m_IsLooping: 1
  - first: {x: 2, y: -5, z: 0}
    second:
      m_AnimatedSprites:
      - {fileID: -1365468436494857877, guid: b0f8c9b913f463b4da106af14a69652c, type: 3}
      m_AnimationSpeed: 1
      m_AnimationTimeOffset: 0
      m_IsLooping: 1
  - first: {x: 3, y: -5, z: 0}
    second:
      m_AnimatedSprites:
      - {fileID: -7340081238704186408, guid: b0f8c9b913f463b4da106af14a69652c, type: 3}
      m_AnimationSpeed: 1
      m_AnimationTimeOffset: 0
      m_IsLooping: 1
  - first: {x: 5, y: -5, z: 0}
    second:
      m_AnimatedSprites:
      - {fileID: -1229542572905992193, guid: b0f8c9b913f463b4da106af14a69652c, type: 3}
      m_AnimationSpeed: 1
      m_AnimationTimeOffset: 0
      m_IsLooping: 1
  - first: {x: 6, y: -5, z: 0}
    second:
      m_AnimatedSprites:
      - {fileID: 1151510917299277446, guid: b0f8c9b913f463b4da106af14a69652c, type: 3}
      m_AnimationSpeed: 1
      m_AnimationTimeOffset: 0
      m_IsLooping: 1
  - first: {x: -7, y: -4, z: 0}
    second:
      m_AnimatedSprites:
      - {fileID: 3278843515097977233, guid: b0f8c9b913f463b4da106af14a69652c, type: 3}
      m_AnimationSpeed: 1
      m_AnimationTimeOffset: 0
      m_IsLooping: 1
  - first: {x: -6, y: -4, z: 0}
    second:
      m_AnimatedSprites:
      - {fileID: 7789634775275829405, guid: b0f8c9b913f463b4da106af14a69652c, type: 3}
      m_AnimationSpeed: 1
      m_AnimationTimeOffset: 0
      m_IsLooping: 1
  - first: {x: -5, y: -4, z: 0}
    second:
      m_AnimatedSprites:
      - {fileID: 5266131668347882103, guid: b0f8c9b913f463b4da106af14a69652c, type: 3}
      m_AnimationSpeed: 1
      m_AnimationTimeOffset: 0
      m_IsLooping: 1
  - first: {x: -4, y: -4, z: 0}
    second:
      m_AnimatedSprites:
      - {fileID: 6852325225857975290, guid: b0f8c9b913f463b4da106af14a69652c, type: 3}
      m_AnimationSpeed: 1
      m_AnimationTimeOffset: 0
      m_IsLooping: 1
  - first: {x: -3, y: -4, z: 0}
    second:
      m_AnimatedSprites:
      - {fileID: 7076645027456182789, guid: b0f8c9b913f463b4da106af14a69652c, type: 3}
      m_AnimationSpeed: 1
      m_AnimationTimeOffset: 0
      m_IsLooping: 1
  - first: {x: -2, y: -4, z: 0}
    second:
      m_AnimatedSprites:
      - {fileID: 2857859520390408074, guid: b0f8c9b913f463b4da106af14a69652c, type: 3}
      m_AnimationSpeed: 1
      m_AnimationTimeOffset: 0
      m_IsLooping: 1
  - first: {x: -1, y: -4, z: 0}
    second:
      m_AnimatedSprites:
      - {fileID: 7307944777312067507, guid: b0f8c9b913f463b4da106af14a69652c, type: 3}
      m_AnimationSpeed: 1
      m_AnimationTimeOffset: 0
      m_IsLooping: 1
  - first: {x: 0, y: -4, z: 0}
    second:
      m_AnimatedSprites:
      - {fileID: -9219728416757245899, guid: b0f8c9b913f463b4da106af14a69652c, type: 3}
      m_AnimationSpeed: 1
      m_AnimationTimeOffset: 0
      m_IsLooping: 1
  - first: {x: 2, y: -4, z: 0}
    second:
      m_AnimatedSprites:
      - {fileID: 4047270303015891726, guid: b0f8c9b913f463b4da106af14a69652c, type: 3}
      m_AnimationSpeed: 1
      m_AnimationTimeOffset: 0
      m_IsLooping: 1
  - first: {x: 3, y: -4, z: 0}
    second:
      m_AnimatedSprites:
      - {fileID: 5395894521475988647, guid: b0f8c9b913f463b4da106af14a69652c, type: 3}
      m_AnimationSpeed: 1
      m_AnimationTimeOffset: 0
      m_IsLooping: 1
  - first: {x: 5, y: -4, z: 0}
    second:
      m_AnimatedSprites:
      - {fileID: 8818156477468625563, guid: b0f8c9b913f463b4da106af14a69652c, type: 3}
      m_AnimationSpeed: 1
      m_AnimationTimeOffset: 0
      m_IsLooping: 1
  - first: {x: 6, y: -4, z: 0}
    second:
      m_AnimatedSprites:
      - {fileID: 3047104011033689673, guid: b0f8c9b913f463b4da106af14a69652c, type: 3}
      m_AnimationSpeed: 1
      m_AnimationTimeOffset: 0
      m_IsLooping: 1
  - first: {x: -7, y: -3, z: 0}
    second:
      m_AnimatedSprites:
      - {fileID: -5962571697871057579, guid: b0f8c9b913f463b4da106af14a69652c, type: 3}
      m_AnimationSpeed: 1
      m_AnimationTimeOffset: 0
      m_IsLooping: 1
  - first: {x: -6, y: -3, z: 0}
    second:
      m_AnimatedSprites:
      - {fileID: -7422347017994938696, guid: b0f8c9b913f463b4da106af14a69652c, type: 3}
      m_AnimationSpeed: 1
      m_AnimationTimeOffset: 0
      m_IsLooping: 1
  - first: {x: -5, y: -3, z: 0}
    second:
      m_AnimatedSprites:
      - {fileID: 4750412008860388029, guid: b0f8c9b913f463b4da106af14a69652c, type: 3}
      m_AnimationSpeed: 1
      m_AnimationTimeOffset: 0
      m_IsLooping: 1
  - first: {x: -4, y: -3, z: 0}
    second:
      m_AnimatedSprites:
      - {fileID: -6148784838142372312, guid: b0f8c9b913f463b4da106af14a69652c, type: 3}
      m_AnimationSpeed: 1
      m_AnimationTimeOffset: 0
      m_IsLooping: 1
  - first: {x: -3, y: -3, z: 0}
    second:
      m_AnimatedSprites:
      - {fileID: -4830705276666638408, guid: b0f8c9b913f463b4da106af14a69652c, type: 3}
      m_AnimationSpeed: 1
      m_AnimationTimeOffset: 0
      m_IsLooping: 1
  - first: {x: -2, y: -3, z: 0}
    second:
      m_AnimatedSprites:
      - {fileID: -5594637971602304958, guid: b0f8c9b913f463b4da106af14a69652c, type: 3}
      m_AnimationSpeed: 1
      m_AnimationTimeOffset: 0
      m_IsLooping: 1
  - first: {x: -1, y: -3, z: 0}
    second:
      m_AnimatedSprites:
      - {fileID: -7326823335983811137, guid: b0f8c9b913f463b4da106af14a69652c, type: 3}
      m_AnimationSpeed: 1
      m_AnimationTimeOffset: 0
      m_IsLooping: 1
  - first: {x: 0, y: -3, z: 0}
    second:
      m_AnimatedSprites:
      - {fileID: -3248495164668984525, guid: b0f8c9b913f463b4da106af14a69652c, type: 3}
      m_AnimationSpeed: 1
      m_AnimationTimeOffset: 0
      m_IsLooping: 1
  - first: {x: 2, y: -3, z: 0}
    second:
      m_AnimatedSprites:
      - {fileID: -6816965412253392694, guid: b0f8c9b913f463b4da106af14a69652c, type: 3}
      m_AnimationSpeed: 1
      m_AnimationTimeOffset: 0
      m_IsLooping: 1
  - first: {x: 3, y: -3, z: 0}
    second:
      m_AnimatedSprites:
      - {fileID: 119130832271340673, guid: b0f8c9b913f463b4da106af14a69652c, type: 3}
      m_AnimationSpeed: 1
      m_AnimationTimeOffset: 0
      m_IsLooping: 1
  - first: {x: 5, y: -3, z: 0}
    second:
      m_AnimatedSprites:
      - {fileID: 6058715455030830177, guid: b0f8c9b913f463b4da106af14a69652c, type: 3}
      m_AnimationSpeed: 1
      m_AnimationTimeOffset: 0
      m_IsLooping: 1
  - first: {x: 6, y: -3, z: 0}
    second:
      m_AnimatedSprites:
      - {fileID: 2821793437986542722, guid: b0f8c9b913f463b4da106af14a69652c, type: 3}
      m_AnimationSpeed: 1
      m_AnimationTimeOffset: 0
      m_IsLooping: 1
  - first: {x: -7, y: -2, z: 0}
    second:
      m_AnimatedSprites:
      - {fileID: -8487465155132669354, guid: b0f8c9b913f463b4da106af14a69652c, type: 3}
      m_AnimationSpeed: 1
      m_AnimationTimeOffset: 0
      m_IsLooping: 1
  - first: {x: -6, y: -2, z: 0}
    second:
      m_AnimatedSprites:
      - {fileID: 524446783430186674, guid: b0f8c9b913f463b4da106af14a69652c, type: 3}
      m_AnimationSpeed: 1
      m_AnimationTimeOffset: 0
      m_IsLooping: 1
  - first: {x: -5, y: -2, z: 0}
    second:
      m_AnimatedSprites:
      - {fileID: 7197025264048851862, guid: b0f8c9b913f463b4da106af14a69652c, type: 3}
      m_AnimationSpeed: 1
      m_AnimationTimeOffset: 0
      m_IsLooping: 1
  - first: {x: -4, y: -2, z: 0}
    second:
      m_AnimatedSprites:
      - {fileID: 8351334804918689851, guid: b0f8c9b913f463b4da106af14a69652c, type: 3}
      m_AnimationSpeed: 1
      m_AnimationTimeOffset: 0
      m_IsLooping: 1
  - first: {x: -3, y: -2, z: 0}
    second:
      m_AnimatedSprites:
      - {fileID: 6151316285910375129, guid: b0f8c9b913f463b4da106af14a69652c, type: 3}
      m_AnimationSpeed: 1
      m_AnimationTimeOffset: 0
      m_IsLooping: 1
  - first: {x: -2, y: -2, z: 0}
    second:
      m_AnimatedSprites:
      - {fileID: 5152811277611137395, guid: b0f8c9b913f463b4da106af14a69652c, type: 3}
      m_AnimationSpeed: 1
      m_AnimationTimeOffset: 0
      m_IsLooping: 1
  - first: {x: -1, y: -2, z: 0}
    second:
      m_AnimatedSprites:
      - {fileID: 8987079184950600580, guid: b0f8c9b913f463b4da106af14a69652c, type: 3}
      m_AnimationSpeed: 1
      m_AnimationTimeOffset: 0
      m_IsLooping: 1
  - first: {x: 0, y: -2, z: 0}
    second:
      m_AnimatedSprites:
      - {fileID: -671571627500242852, guid: b0f8c9b913f463b4da106af14a69652c, type: 3}
      m_AnimationSpeed: 1
      m_AnimationTimeOffset: 0
      m_IsLooping: 1
  - first: {x: 1, y: -2, z: 0}
    second:
      m_AnimatedSprites:
      - {fileID: 7163839083979684706, guid: b0f8c9b913f463b4da106af14a69652c, type: 3}
      m_AnimationSpeed: 1
      m_AnimationTimeOffset: 0
      m_IsLooping: 1
  - first: {x: 2, y: -2, z: 0}
    second:
      m_AnimatedSprites:
      - {fileID: 6882698869890267389, guid: b0f8c9b913f463b4da106af14a69652c, type: 3}
      m_AnimationSpeed: 1
      m_AnimationTimeOffset: 0
      m_IsLooping: 1
  - first: {x: 3, y: -2, z: 0}
    second:
      m_AnimatedSprites:
      - {fileID: -5177798955315574667, guid: b0f8c9b913f463b4da106af14a69652c, type: 3}
      m_AnimationSpeed: 1
      m_AnimationTimeOffset: 0
      m_IsLooping: 1
  - first: {x: 4, y: -2, z: 0}
    second:
      m_AnimatedSprites:
      - {fileID: 1317992308395454088, guid: b0f8c9b913f463b4da106af14a69652c, type: 3}
      m_AnimationSpeed: 1
      m_AnimationTimeOffset: 0
      m_IsLooping: 1
  - first: {x: 5, y: -2, z: 0}
    second:
      m_AnimatedSprites:
      - {fileID: 7358287667048555173, guid: b0f8c9b913f463b4da106af14a69652c, type: 3}
      m_AnimationSpeed: 1
      m_AnimationTimeOffset: 0
      m_IsLooping: 1
  - first: {x: 6, y: -2, z: 0}
    second:
      m_AnimatedSprites:
      - {fileID: 7846565019493036850, guid: b0f8c9b913f463b4da106af14a69652c, type: 3}
      m_AnimationSpeed: 1
      m_AnimationTimeOffset: 0
      m_IsLooping: 1
  - first: {x: 7, y: -2, z: 0}
    second:
      m_AnimatedSprites:
      - {fileID: 4651532585296168391, guid: b0f8c9b913f463b4da106af14a69652c, type: 3}
      m_AnimationSpeed: 1
      m_AnimationTimeOffset: 0
      m_IsLooping: 1
  - first: {x: -7, y: -1, z: 0}
    second:
      m_AnimatedSprites:
      - {fileID: -7697825362444869005, guid: b0f8c9b913f463b4da106af14a69652c, type: 3}
      m_AnimationSpeed: 1
      m_AnimationTimeOffset: 0
      m_IsLooping: 1
  - first: {x: -6, y: -1, z: 0}
    second:
      m_AnimatedSprites:
      - {fileID: -1277154019690626102, guid: b0f8c9b913f463b4da106af14a69652c, type: 3}
      m_AnimationSpeed: 1
      m_AnimationTimeOffset: 0
      m_IsLooping: 1
  - first: {x: -5, y: -1, z: 0}
    second:
      m_AnimatedSprites:
      - {fileID: -4165771165024837951, guid: b0f8c9b913f463b4da106af14a69652c, type: 3}
      m_AnimationSpeed: 1
      m_AnimationTimeOffset: 0
      m_IsLooping: 1
  - first: {x: -4, y: -1, z: 0}
    second:
      m_AnimatedSprites:
      - {fileID: 4359180672091840868, guid: b0f8c9b913f463b4da106af14a69652c, type: 3}
      m_AnimationSpeed: 1
      m_AnimationTimeOffset: 0
      m_IsLooping: 1
  - first: {x: -3, y: -1, z: 0}
    second:
      m_AnimatedSprites:
      - {fileID: -1079805935345276701, guid: b0f8c9b913f463b4da106af14a69652c, type: 3}
      m_AnimationSpeed: 1
      m_AnimationTimeOffset: 0
      m_IsLooping: 1
  - first: {x: -2, y: -1, z: 0}
    second:
      m_AnimatedSprites:
      - {fileID: 6525108011484738266, guid: b0f8c9b913f463b4da106af14a69652c, type: 3}
      m_AnimationSpeed: 1
      m_AnimationTimeOffset: 0
      m_IsLooping: 1
  - first: {x: -1, y: -1, z: 0}
    second:
      m_AnimatedSprites:
      - {fileID: -4259258084441977660, guid: b0f8c9b913f463b4da106af14a69652c, type: 3}
      m_AnimationSpeed: 1
      m_AnimationTimeOffset: 0
      m_IsLooping: 1
  - first: {x: 0, y: -1, z: 0}
    second:
      m_AnimatedSprites:
      - {fileID: -8762970124323176969, guid: b0f8c9b913f463b4da106af14a69652c, type: 3}
      m_AnimationSpeed: 1
      m_AnimationTimeOffset: 0
      m_IsLooping: 1
  - first: {x: 1, y: -1, z: 0}
    second:
      m_AnimatedSprites:
      - {fileID: -2032439868504115167, guid: b0f8c9b913f463b4da106af14a69652c, type: 3}
      m_AnimationSpeed: 1
      m_AnimationTimeOffset: 0
      m_IsLooping: 1
  - first: {x: 2, y: -1, z: 0}
    second:
      m_AnimatedSprites:
      - {fileID: -2536427118246013913, guid: b0f8c9b913f463b4da106af14a69652c, type: 3}
      m_AnimationSpeed: 1
      m_AnimationTimeOffset: 0
      m_IsLooping: 1
  - first: {x: 3, y: -1, z: 0}
    second:
      m_AnimatedSprites:
      - {fileID: -537059961986226194, guid: b0f8c9b913f463b4da106af14a69652c, type: 3}
      m_AnimationSpeed: 1
      m_AnimationTimeOffset: 0
      m_IsLooping: 1
  - first: {x: 4, y: -1, z: 0}
    second:
      m_AnimatedSprites:
      - {fileID: 6419644546375880783, guid: b0f8c9b913f463b4da106af14a69652c, type: 3}
      m_AnimationSpeed: 1
      m_AnimationTimeOffset: 0
      m_IsLooping: 1
  - first: {x: 5, y: -1, z: 0}
    second:
      m_AnimatedSprites:
      - {fileID: -8304496431281071105, guid: b0f8c9b913f463b4da106af14a69652c, type: 3}
      m_AnimationSpeed: 1
      m_AnimationTimeOffset: 0
      m_IsLooping: 1
  - first: {x: 6, y: -1, z: 0}
    second:
      m_AnimatedSprites:
      - {fileID: 8629743217009451639, guid: b0f8c9b913f463b4da106af14a69652c, type: 3}
      m_AnimationSpeed: 1
      m_AnimationTimeOffset: 0
      m_IsLooping: 1
  - first: {x: 7, y: -1, z: 0}
    second:
      m_AnimatedSprites:
      - {fileID: -6860767653316076018, guid: b0f8c9b913f463b4da106af14a69652c, type: 3}
      m_AnimationSpeed: 1
      m_AnimationTimeOffset: 0
      m_IsLooping: 1
  - first: {x: -7, y: 0, z: 0}
    second:
      m_AnimatedSprites:
      - {fileID: -395208710768999079, guid: b0f8c9b913f463b4da106af14a69652c, type: 3}
      m_AnimationSpeed: 1
      m_AnimationTimeOffset: 0
      m_IsLooping: 1
  - first: {x: -6, y: 0, z: 0}
    second:
      m_AnimatedSprites:
      - {fileID: -3698386716590890822, guid: b0f8c9b913f463b4da106af14a69652c, type: 3}
      m_AnimationSpeed: 1
      m_AnimationTimeOffset: 0
      m_IsLooping: 1
  - first: {x: -5, y: 0, z: 0}
    second:
      m_AnimatedSprites:
      - {fileID: 4949598965448035797, guid: b0f8c9b913f463b4da106af14a69652c, type: 3}
      m_AnimationSpeed: 1
      m_AnimationTimeOffset: 0
      m_IsLooping: 1
  - first: {x: -4, y: 0, z: 0}
    second:
      m_AnimatedSprites:
      - {fileID: -7373721646533390876, guid: b0f8c9b913f463b4da106af14a69652c, type: 3}
      m_AnimationSpeed: 1
      m_AnimationTimeOffset: 0
      m_IsLooping: 1
  - first: {x: -3, y: 0, z: 0}
    second:
      m_AnimatedSprites:
      - {fileID: -4880418678541933806, guid: b0f8c9b913f463b4da106af14a69652c, type: 3}
      m_AnimationSpeed: 1
      m_AnimationTimeOffset: 0
      m_IsLooping: 1
  - first: {x: -2, y: 0, z: 0}
    second:
      m_AnimatedSprites:
      - {fileID: -8682863188105234041, guid: b0f8c9b913f463b4da106af14a69652c, type: 3}
      m_AnimationSpeed: 1
      m_AnimationTimeOffset: 0
      m_IsLooping: 1
  - first: {x: -1, y: 0, z: 0}
    second:
      m_AnimatedSprites:
      - {fileID: -7017893586633651831, guid: b0f8c9b913f463b4da106af14a69652c, type: 3}
      m_AnimationSpeed: 1
      m_AnimationTimeOffset: 0
      m_IsLooping: 1
  - first: {x: 0, y: 0, z: 0}
    second:
      m_AnimatedSprites:
      - {fileID: 7160324072218445052, guid: b0f8c9b913f463b4da106af14a69652c, type: 3}
      m_AnimationSpeed: 1
      m_AnimationTimeOffset: 0
      m_IsLooping: 1
  - first: {x: 1, y: 0, z: 0}
    second:
      m_AnimatedSprites:
      - {fileID: -2274450710788036098, guid: b0f8c9b913f463b4da106af14a69652c, type: 3}
      m_AnimationSpeed: 1
      m_AnimationTimeOffset: 0
      m_IsLooping: 1
  - first: {x: 2, y: 0, z: 0}
    second:
      m_AnimatedSprites:
      - {fileID: -4060488736426651641, guid: b0f8c9b913f463b4da106af14a69652c, type: 3}
      m_AnimationSpeed: 1
      m_AnimationTimeOffset: 0
      m_IsLooping: 1
  - first: {x: 3, y: 0, z: 0}
    second:
      m_AnimatedSprites:
      - {fileID: -9059863411244568198, guid: b0f8c9b913f463b4da106af14a69652c, type: 3}
      m_AnimationSpeed: 1
      m_AnimationTimeOffset: 0
      m_IsLooping: 1
  - first: {x: 4, y: 0, z: 0}
    second:
      m_AnimatedSprites:
      - {fileID: -8814124567937064357, guid: b0f8c9b913f463b4da106af14a69652c, type: 3}
      m_AnimationSpeed: 1
      m_AnimationTimeOffset: 0
      m_IsLooping: 1
  - first: {x: 5, y: 0, z: 0}
    second:
      m_AnimatedSprites:
      - {fileID: -7218029251630198061, guid: b0f8c9b913f463b4da106af14a69652c, type: 3}
      m_AnimationSpeed: 1
      m_AnimationTimeOffset: 0
      m_IsLooping: 1
  - first: {x: 6, y: 0, z: 0}
    second:
      m_AnimatedSprites:
      - {fileID: 8427266733500402624, guid: b0f8c9b913f463b4da106af14a69652c, type: 3}
      m_AnimationSpeed: 1
      m_AnimationTimeOffset: 0
      m_IsLooping: 1
  - first: {x: 7, y: 0, z: 0}
    second:
      m_AnimatedSprites:
      - {fileID: -2722480866298146518, guid: b0f8c9b913f463b4da106af14a69652c, type: 3}
      m_AnimationSpeed: 1
      m_AnimationTimeOffset: 0
      m_IsLooping: 1
  - first: {x: -6, y: 2, z: 0}
    second:
      m_AnimatedSprites:
      - {fileID: 8509550459451208454, guid: be340a9d2bbd35c4aacae5bf6857fdf7, type: 3}
      - {fileID: 3559705528278350927, guid: be340a9d2bbd35c4aacae5bf6857fdf7, type: 3}
      - {fileID: -4124057691748712743, guid: be340a9d2bbd35c4aacae5bf6857fdf7, type: 3}
      - {fileID: -7064220622572970029, guid: be340a9d2bbd35c4aacae5bf6857fdf7, type: 3}
      - {fileID: -2740290441555968558, guid: be340a9d2bbd35c4aacae5bf6857fdf7, type: 3}
      - {fileID: 7149751655148466542, guid: be340a9d2bbd35c4aacae5bf6857fdf7, type: 3}
      - {fileID: -2740290441555968558, guid: be340a9d2bbd35c4aacae5bf6857fdf7, type: 3}
      - {fileID: -7064220622572970029, guid: be340a9d2bbd35c4aacae5bf6857fdf7, type: 3}
      - {fileID: -4124057691748712743, guid: be340a9d2bbd35c4aacae5bf6857fdf7, type: 3}
      - {fileID: 3559705528278350927, guid: be340a9d2bbd35c4aacae5bf6857fdf7, type: 3}
      m_AnimationSpeed: 0.5
      m_AnimationTimeOffset: 0
      m_IsLooping: 1
  m_TileAssetArray:
  - m_RefCount: 1
    m_Data: {fileID: 11400000, guid: 62dc9bc54ad6c33469a42ef742355023, type: 2}
  - m_RefCount: 1
    m_Data: {fileID: 11400000, guid: 082906b342a6b824d8e068d314571c2f, type: 2}
  - m_RefCount: 1
    m_Data: {fileID: 11400000, guid: de52246ce6f456a47999e59609ec02c4, type: 2}
  - m_RefCount: 1
    m_Data: {fileID: 11400000, guid: 10c370c4ac187b345910df59ac2d78e6, type: 2}
  - m_RefCount: 1
    m_Data: {fileID: 11400000, guid: b9ef90390de66ec4883e0d52fcc61aa0, type: 2}
  - m_RefCount: 1
    m_Data: {fileID: 11400000, guid: 6952365d6677a794cac57a9c923ab233, type: 2}
  - m_RefCount: 1
    m_Data: {fileID: 11400000, guid: fe4b9cf0e28934c46868653f83f756a0, type: 2}
  - m_RefCount: 1
    m_Data: {fileID: 11400000, guid: acc472f6e152b534e82092d0dd3e4db0, type: 2}
  - m_RefCount: 1
    m_Data: {fileID: 11400000, guid: 3dcf36e641d7e2d478de90b9e2e35d55, type: 2}
  - m_RefCount: 1
    m_Data: {fileID: 11400000, guid: b0bdf762216e0f74f9d24de51e25e360, type: 2}
  - m_RefCount: 1
    m_Data: {fileID: 11400000, guid: 2dda8f5d6e829974fbf92741b01079cf, type: 2}
  - m_RefCount: 1
    m_Data: {fileID: 11400000, guid: 05b3221464bdc9944bdf8f2f0af21a09, type: 2}
  - m_RefCount: 1
    m_Data: {fileID: 11400000, guid: 59e681e84ba240e4cba9eb1e429d9ee7, type: 2}
  - m_RefCount: 1
    m_Data: {fileID: 11400000, guid: 432672940ffa0714eb4afaa9addee327, type: 2}
  - m_RefCount: 1
    m_Data: {fileID: 11400000, guid: c5dcb04c5d6cfb945b2aad5f044fd6e6, type: 2}
  - m_RefCount: 1
    m_Data: {fileID: 11400000, guid: d6055b457936e3c42a66a3a02c58d343, type: 2}
  - m_RefCount: 1
    m_Data: {fileID: 11400000, guid: 5b392754e4f0be945a01c1002dfae56a, type: 2}
  - m_RefCount: 1
    m_Data: {fileID: 11400000, guid: 2b02dd14104963c48bce9ec929e3f594, type: 2}
  - m_RefCount: 1
    m_Data: {fileID: 11400000, guid: 36a37a405ea2c5d43a3de73daafe2b0c, type: 2}
  - m_RefCount: 1
    m_Data: {fileID: 11400000, guid: c71333b0e25f7e645aea8fd79658f9f2, type: 2}
  - m_RefCount: 1
    m_Data: {fileID: 11400000, guid: ebc102157d90c694bae26970ca92071c, type: 2}
  - m_RefCount: 1
    m_Data: {fileID: 11400000, guid: fa650ea9253677a4fa29b30f86a7401d, type: 2}
  - m_RefCount: 1
    m_Data: {fileID: 11400000, guid: 23788961a75be7f42adfe923f9d689e1, type: 2}
  - m_RefCount: 1
    m_Data: {fileID: 11400000, guid: 616857aa1fdf2f14c8b535f8afa00786, type: 2}
  - m_RefCount: 1
    m_Data: {fileID: 11400000, guid: 876f9047ae011d74a842993a8193111e, type: 2}
  - m_RefCount: 1
    m_Data: {fileID: 11400000, guid: 19f0315f57d2e6c4e847672ee1fc20f0, type: 2}
  - m_RefCount: 1
    m_Data: {fileID: 11400000, guid: 4ee2636f3fff9764f81f6cd579e584de, type: 2}
  - m_RefCount: 1
    m_Data: {fileID: 11400000, guid: 48042a44133a4f340886adef27818749, type: 2}
  - m_RefCount: 1
    m_Data: {fileID: 11400000, guid: 574e5dbe5abb0ef41a6f4a6a7caf4567, type: 2}
  - m_RefCount: 1
    m_Data: {fileID: 11400000, guid: 21ccdd2dcdfafa44687ec85d94d035a6, type: 2}
  - m_RefCount: 1
    m_Data: {fileID: 11400000, guid: a86203994c3697a4cb58d4f5bcdb04c7, type: 2}
  - m_RefCount: 1
    m_Data: {fileID: 11400000, guid: 18b156b9e15f4f04985b1898414c3409, type: 2}
  - m_RefCount: 1
    m_Data: {fileID: 11400000, guid: dd2a0a203abf0cb4a84a1b86c26d55b9, type: 2}
  - m_RefCount: 1
    m_Data: {fileID: 11400000, guid: af37a4ba8c76cd84488c5eeef2bb4e49, type: 2}
  - m_RefCount: 1
    m_Data: {fileID: 11400000, guid: 80d7afc54a9edcd45a3c5f4b611f3886, type: 2}
  - m_RefCount: 1
    m_Data: {fileID: 11400000, guid: 3bc03468126bb1c4e9f96398bcd01d97, type: 2}
  - m_RefCount: 1
    m_Data: {fileID: 11400000, guid: 9f64d97abda7b244898af599ab71dd95, type: 2}
  - m_RefCount: 1
    m_Data: {fileID: 11400000, guid: fab2867024de719498a838d8dea1c358, type: 2}
  - m_RefCount: 1
    m_Data: {fileID: 11400000, guid: 33a54c8a4fe16b94a8c36e612f3fd025, type: 2}
  - m_RefCount: 1
    m_Data: {fileID: 11400000, guid: 00f085e80ba71f448a6f3e5fcacd6864, type: 2}
  - m_RefCount: 1
    m_Data: {fileID: 11400000, guid: b679db93c4ff96b40a68ed32588a6652, type: 2}
  - m_RefCount: 1
    m_Data: {fileID: 11400000, guid: fbd7a96c096834f47b401f73e5bb0eb6, type: 2}
  - m_RefCount: 1
    m_Data: {fileID: 11400000, guid: d0983eae2a7c296489f822218523d954, type: 2}
  - m_RefCount: 1
    m_Data: {fileID: 11400000, guid: 248fc874c46a09247a1c839d8726ad91, type: 2}
  - m_RefCount: 1
    m_Data: {fileID: 11400000, guid: dc2a5a3f26edcdc41bc9f78cfb392b3c, type: 2}
  - m_RefCount: 1
    m_Data: {fileID: 11400000, guid: 11dd88b89aa00214db4d98866049180d, type: 2}
  - m_RefCount: 1
    m_Data: {fileID: 11400000, guid: 8ce2cd60f2b7a2c43ab3bd5c7cd4b6ae, type: 2}
  - m_RefCount: 1
    m_Data: {fileID: 11400000, guid: 8b921e3e509400d499428a0566c6fb9f, type: 2}
  - m_RefCount: 1
    m_Data: {fileID: 11400000, guid: cbf510fb8b5968f4bb0305e54fe0ee3a, type: 2}
  - m_RefCount: 1
    m_Data: {fileID: 11400000, guid: 8b0faeb66aae21f47ab51f7138898d32, type: 2}
  - m_RefCount: 1
    m_Data: {fileID: 11400000, guid: bff64acc9bac362409e7faaa7cbaf4f1, type: 2}
  - m_RefCount: 1
    m_Data: {fileID: 11400000, guid: 54c2288de280f7a4c97238430fa41cd5, type: 2}
  - m_RefCount: 1
    m_Data: {fileID: 11400000, guid: 46aad8792e98f924b8a4f66ddfa7df62, type: 2}
  - m_RefCount: 1
    m_Data: {fileID: 11400000, guid: ecee1255df41ab04eac4287e23dacb70, type: 2}
  - m_RefCount: 1
    m_Data: {fileID: 11400000, guid: 6af054cb4014d644eb0f0d6d01f04bda, type: 2}
  - m_RefCount: 1
    m_Data: {fileID: 11400000, guid: 8cb5c0dd7eaee834fa3d054c56677c14, type: 2}
  - m_RefCount: 1
    m_Data: {fileID: 11400000, guid: 55509173bf499e449a6496f4e72c089f, type: 2}
  - m_RefCount: 1
    m_Data: {fileID: 11400000, guid: 7e352d4f8c3017344914474a43101692, type: 2}
  - m_RefCount: 1
    m_Data: {fileID: 11400000, guid: 85351ecfc6ce0974bab9fd7473ee0b12, type: 2}
  - m_RefCount: 1
    m_Data: {fileID: 11400000, guid: 23afcca27578b7f43bdb29ae80f9d91a, type: 2}
  - m_RefCount: 1
    m_Data: {fileID: 11400000, guid: 7ad1fd80b2ba6a7449de64d772260bf2, type: 2}
  - m_RefCount: 1
    m_Data: {fileID: 11400000, guid: fcefc3ac941bb9b48bcc166ba35ede3c, type: 2}
  - m_RefCount: 1
    m_Data: {fileID: 11400000, guid: df01b6ffed2ba04479b9e356d0c06055, type: 2}
  - m_RefCount: 1
    m_Data: {fileID: 11400000, guid: 976f656956cc6d54a907e23d4a587bdf, type: 2}
  - m_RefCount: 1
    m_Data: {fileID: 11400000, guid: 4100530c9b16f784884ef38cf9080148, type: 2}
  - m_RefCount: 1
    m_Data: {fileID: 11400000, guid: 4abc4b329f935864fa65e61171d58e49, type: 2}
  - m_RefCount: 1
    m_Data: {fileID: 11400000, guid: 6f9d38afc35cbb146bb2a8339b9c3623, type: 2}
  - m_RefCount: 1
    m_Data: {fileID: 11400000, guid: 172cd37c122610641ac5772f0f8b7641, type: 2}
  - m_RefCount: 1
    m_Data: {fileID: 11400000, guid: 622dd21269862ee408aab17ed3c4bcf2, type: 2}
  - m_RefCount: 1
    m_Data: {fileID: 11400000, guid: fb378be23d47a5e4e949026ea30f9236, type: 2}
  - m_RefCount: 1
    m_Data: {fileID: 11400000, guid: 3e717f049a27660449680a158b93fcd4, type: 2}
  - m_RefCount: 1
    m_Data: {fileID: 11400000, guid: 5b8a8930bdccd594dae9547fb9216398, type: 2}
  - m_RefCount: 1
    m_Data: {fileID: 11400000, guid: 1fcb6b6b609e02941af047182ab93c30, type: 2}
  - m_RefCount: 1
    m_Data: {fileID: 11400000, guid: 1396bcefa838dab479dc8b79681191c8, type: 2}
  - m_RefCount: 1
    m_Data: {fileID: 11400000, guid: e99cc69ee9e0cad488c8b963405e500d, type: 2}
  - m_RefCount: 1
    m_Data: {fileID: 11400000, guid: fefdb5934bf62184cb5c1e9721d7df97, type: 2}
  - m_RefCount: 1
    m_Data: {fileID: 11400000, guid: 5cc38f5c09189d643a75420dc874f643, type: 2}
  - m_RefCount: 1
    m_Data: {fileID: 11400000, guid: 2014f97b6a7fae34e81734ecc2a072fb, type: 2}
  - m_RefCount: 1
    m_Data: {fileID: 11400000, guid: 04ac006df818d5d458c3d3ad930146fa, type: 2}
  - m_RefCount: 1
    m_Data: {fileID: 11400000, guid: 8b2f2941e96b7c1438b0f9c0a42624b7, type: 2}
  - m_RefCount: 1
    m_Data: {fileID: 11400000, guid: 58c6a4f0f6f58894a9f07a14263c8be3, type: 2}
  - m_RefCount: 1
    m_Data: {fileID: 11400000, guid: 0a8dcf0a252101847bf52659981f0355, type: 2}
  - m_RefCount: 1
    m_Data: {fileID: 11400000, guid: 96192a5ab37353f42aaf4a96485ef9f7, type: 2}
  - m_RefCount: 1
    m_Data: {fileID: 11400000, guid: 3bbb9f905e19ab342afc67c517f019ef, type: 2}
  - m_RefCount: 1
    m_Data: {fileID: 11400000, guid: 618173908ce3f504887efdcb6a820b9f, type: 2}
  - m_RefCount: 1
    m_Data: {fileID: 11400000, guid: b2fe3f8be9c931e49a9c37ff70706286, type: 2}
  - m_RefCount: 1
    m_Data: {fileID: 11400000, guid: 835cd206d4357b24daa06b598914ad4f, type: 2}
  - m_RefCount: 1
    m_Data: {fileID: 11400000, guid: 83be4480882222048bc687358f71b683, type: 2}
  - m_RefCount: 1
    m_Data: {fileID: 11400000, guid: 48aec38a2eaac494e8beaf02aa585a3d, type: 2}
  - m_RefCount: 1
    m_Data: {fileID: 11400000, guid: 367037194492b4342a73ff00860fe62d, type: 2}
  - m_RefCount: 1
    m_Data: {fileID: 11400000, guid: 3394e0a4c0de04f4e86ab4ee14191c02, type: 2}
  - m_RefCount: 1
    m_Data: {fileID: 11400000, guid: 70e1d42be597b73448bb401662bf675b, type: 2}
  - m_RefCount: 1
    m_Data: {fileID: 11400000, guid: 5158daaddd718d547a6f6ba6856a0ef1, type: 2}
  - m_RefCount: 1
    m_Data: {fileID: 11400000, guid: 0a052e017e7765346a9381ba43607ea5, type: 2}
  - m_RefCount: 1
    m_Data: {fileID: 11400000, guid: 6a69bb022b92c4848bdc314683abe679, type: 2}
  - m_RefCount: 1
    m_Data: {fileID: 11400000, guid: f62266f84e45f2c49914d1a045bf4a37, type: 2}
  - m_RefCount: 1
    m_Data: {fileID: 11400000, guid: afab79462cc59594e8f477099b41652b, type: 2}
  - m_RefCount: 1
    m_Data: {fileID: 11400000, guid: 5bee64e50a7d15644b98215fb7629f33, type: 2}
  - m_RefCount: 1
    m_Data: {fileID: 11400000, guid: dea2d3ac410aca9418c6e1cbe8937e80, type: 2}
  - m_RefCount: 1
    m_Data: {fileID: 11400000, guid: 9f6c0cf2c3b244b4389d0facc2bca85b, type: 2}
  - m_RefCount: 1
    m_Data: {fileID: 11400000, guid: 54a48e4d7c1c0d847b1724a54d340624, type: 2}
  - m_RefCount: 1
    m_Data: {fileID: 11400000, guid: 4036a4ecfd45f0a42ac6c7c9ed771cd4, type: 2}
  - m_RefCount: 1
    m_Data: {fileID: 11400000, guid: 099c1a53841a3664283648a25e52c986, type: 2}
  - m_RefCount: 1
    m_Data: {fileID: 11400000, guid: 3bfd85671f2903f4da810c73e6244b91, type: 2}
  - m_RefCount: 1
    m_Data: {fileID: 11400000, guid: 48a9b0611b9c48f429073aa53173b76b, type: 2}
  - m_RefCount: 1
    m_Data: {fileID: 11400000, guid: 3cf399d091271b14f889fa0548af3f7c, type: 2}
  - m_RefCount: 1
    m_Data: {fileID: 11400000, guid: 3d343894cdf6b444aac251b47c541a94, type: 2}
  - m_RefCount: 1
    m_Data: {fileID: 11400000, guid: 44eb3c1ae75aa664b8a3af222379f2b6, type: 2}
  - m_RefCount: 1
    m_Data: {fileID: 11400000, guid: 88ac31304b7369145b6c51657c20f4bc, type: 2}
  - m_RefCount: 1
    m_Data: {fileID: 11400000, guid: 271d190e282205a48a791eeada1547f8, type: 2}
  - m_RefCount: 1
    m_Data: {fileID: 11400000, guid: 71b7fec1b290d774b82e1ed3232f3f5c, type: 2}
  - m_RefCount: 1
    m_Data: {fileID: 11400000, guid: c16deec11136c3e44af775e47f40f57c, type: 2}
  - m_RefCount: 1
    m_Data: {fileID: 11400000, guid: 631a801c0d1ad494495c15ae2dbdaf87, type: 2}
  - m_RefCount: 1
    m_Data: {fileID: 11400000, guid: 2700c110b65a0114eb814fb706ba62a3, type: 2}
  - m_RefCount: 1
    m_Data: {fileID: 11400000, guid: c9c398a899e9443469b6898b6e98279e, type: 2}
  - m_RefCount: 1
    m_Data: {fileID: 11400000, guid: 5bd7872426aef034face7e1bb820866b, type: 2}
  - m_RefCount: 1
    m_Data: {fileID: 11400000, guid: 31de437d0796fcc4b97c17177306156a, type: 2}
  - m_RefCount: 1
    m_Data: {fileID: 11400000, guid: bb895ffc7aee0a0498b88891e6ac590e, type: 2}
  - m_RefCount: 1
    m_Data: {fileID: 11400000, guid: 92c4acdc9daf09045ab330931a8bcc81, type: 2}
  - m_RefCount: 1
    m_Data: {fileID: 11400000, guid: e295c70e7b4c3dd4d94ba2433bc5e956, type: 2}
  - m_RefCount: 1
    m_Data: {fileID: 11400000, guid: 0e84476664161d64a8a063e25365fbd5, type: 2}
  - m_RefCount: 1
    m_Data: {fileID: 11400000, guid: a155975f26a824e478586684b9ff5aa1, type: 2}
  - m_RefCount: 1
    m_Data: {fileID: 11400000, guid: 5ca5411a050b4d646a705becc0293d59, type: 2}
  - m_RefCount: 1
    m_Data: {fileID: 11400000, guid: 1881375da0cf87d42833b7ef34d24266, type: 2}
  - m_RefCount: 1
    m_Data: {fileID: 11400000, guid: 64fd608f0a18dcc448fbf4a8b7cd707f, type: 2}
  - m_RefCount: 1
    m_Data: {fileID: 11400000, guid: 3b8600c46744ef94b80af150083989fd, type: 2}
  - m_RefCount: 1
    m_Data: {fileID: 11400000, guid: 6e9bc0b619f295b48ad9da05901a5bce, type: 2}
  - m_RefCount: 1
    m_Data: {fileID: 11400000, guid: 08dc85363b5926d4ca02b4e925e78812, type: 2}
  - m_RefCount: 1
    m_Data: {fileID: 11400000, guid: bfa50effb5428224f8c448977de86cb2, type: 2}
  - m_RefCount: 1
    m_Data: {fileID: 11400000, guid: 193cb24274c67c74fb61847b90fa7c1d, type: 2}
  - m_RefCount: 1
    m_Data: {fileID: 11400000, guid: a6ab1124fad17824c8554bda1f71ff16, type: 2}
  - m_RefCount: 1
    m_Data: {fileID: 11400000, guid: ff567cbaccb894f40819f61300efb65e, type: 2}
  - m_RefCount: 1
    m_Data: {fileID: 11400000, guid: ee290dcc867b1f841ad6bd42d2c68507, type: 2}
  m_TileSpriteArray:
  - m_RefCount: 1
    m_Data: {fileID: -7017893586633651831, guid: b0f8c9b913f463b4da106af14a69652c,
      type: 3}
  - m_RefCount: 1
    m_Data: {fileID: 7160324072218445052, guid: b0f8c9b913f463b4da106af14a69652c,
      type: 3}
  - m_RefCount: 1
    m_Data: {fileID: -2274450710788036098, guid: b0f8c9b913f463b4da106af14a69652c,
      type: 3}
  - m_RefCount: 1
    m_Data: {fileID: -4060488736426651641, guid: b0f8c9b913f463b4da106af14a69652c,
      type: 3}
  - m_RefCount: 1
    m_Data: {fileID: -9059863411244568198, guid: b0f8c9b913f463b4da106af14a69652c,
      type: 3}
  - m_RefCount: 1
    m_Data: {fileID: -8814124567937064357, guid: b0f8c9b913f463b4da106af14a69652c,
      type: 3}
  - m_RefCount: 1
    m_Data: {fileID: -7218029251630198061, guid: b0f8c9b913f463b4da106af14a69652c,
      type: 3}
  - m_RefCount: 1
    m_Data: {fileID: 8427266733500402624, guid: b0f8c9b913f463b4da106af14a69652c,
      type: 3}
  - m_RefCount: 1
    m_Data: {fileID: -2722480866298146518, guid: b0f8c9b913f463b4da106af14a69652c,
      type: 3}
  - m_RefCount: 1
    m_Data: {fileID: -7373721646533390876, guid: b0f8c9b913f463b4da106af14a69652c,
      type: 3}
  - m_RefCount: 1
    m_Data: {fileID: -4880418678541933806, guid: b0f8c9b913f463b4da106af14a69652c,
      type: 3}
  - m_RefCount: 1
    m_Data: {fileID: -8682863188105234041, guid: b0f8c9b913f463b4da106af14a69652c,
      type: 3}
  - m_RefCount: 1
    m_Data: {fileID: -395208710768999079, guid: b0f8c9b913f463b4da106af14a69652c,
      type: 3}
  - m_RefCount: 1
    m_Data: {fileID: -3698386716590890822, guid: b0f8c9b913f463b4da106af14a69652c,
      type: 3}
  - m_RefCount: 1
    m_Data: {fileID: 4949598965448035797, guid: b0f8c9b913f463b4da106af14a69652c,
      type: 3}
  - m_RefCount: 1
    m_Data: {fileID: -4259258084441977660, guid: b0f8c9b913f463b4da106af14a69652c,
      type: 3}
  - m_RefCount: 1
    m_Data: {fileID: -8762970124323176969, guid: b0f8c9b913f463b4da106af14a69652c,
      type: 3}
  - m_RefCount: 1
    m_Data: {fileID: -2032439868504115167, guid: b0f8c9b913f463b4da106af14a69652c,
      type: 3}
  - m_RefCount: 1
    m_Data: {fileID: 6419644546375880783, guid: b0f8c9b913f463b4da106af14a69652c,
      type: 3}
  - m_RefCount: 1
    m_Data: {fileID: -537059961986226194, guid: b0f8c9b913f463b4da106af14a69652c,
      type: 3}
  - m_RefCount: 1
    m_Data: {fileID: -2536427118246013913, guid: b0f8c9b913f463b4da106af14a69652c,
      type: 3}
  - m_RefCount: 1
    m_Data: {fileID: -6860767653316076018, guid: b0f8c9b913f463b4da106af14a69652c,
      type: 3}
  - m_RefCount: 1
    m_Data: {fileID: 8629743217009451639, guid: b0f8c9b913f463b4da106af14a69652c,
      type: 3}
  - m_RefCount: 1
    m_Data: {fileID: -8304496431281071105, guid: b0f8c9b913f463b4da106af14a69652c,
      type: 3}
  - m_RefCount: 1
    m_Data: {fileID: 6525108011484738266, guid: b0f8c9b913f463b4da106af14a69652c,
      type: 3}
  - m_RefCount: 1
    m_Data: {fileID: -1079805935345276701, guid: b0f8c9b913f463b4da106af14a69652c,
      type: 3}
  - m_RefCount: 1
    m_Data: {fileID: 4359180672091840868, guid: b0f8c9b913f463b4da106af14a69652c,
      type: 3}
  - m_RefCount: 1
    m_Data: {fileID: -4165771165024837951, guid: b0f8c9b913f463b4da106af14a69652c,
      type: 3}
  - m_RefCount: 1
    m_Data: {fileID: -1277154019690626102, guid: b0f8c9b913f463b4da106af14a69652c,
      type: 3}
  - m_RefCount: 1
    m_Data: {fileID: -7697825362444869005, guid: b0f8c9b913f463b4da106af14a69652c,
      type: 3}
  - m_RefCount: 1
    m_Data: {fileID: 8987079184950600580, guid: b0f8c9b913f463b4da106af14a69652c,
      type: 3}
  - m_RefCount: 1
    m_Data: {fileID: -671571627500242852, guid: b0f8c9b913f463b4da106af14a69652c,
      type: 3}
  - m_RefCount: 1
    m_Data: {fileID: 7163839083979684706, guid: b0f8c9b913f463b4da106af14a69652c,
      type: 3}
  - m_RefCount: 1
    m_Data: {fileID: 1317992308395454088, guid: b0f8c9b913f463b4da106af14a69652c,
      type: 3}
  - m_RefCount: 1
    m_Data: {fileID: -5177798955315574667, guid: b0f8c9b913f463b4da106af14a69652c,
      type: 3}
  - m_RefCount: 1
    m_Data: {fileID: 6882698869890267389, guid: b0f8c9b913f463b4da106af14a69652c,
      type: 3}
  - m_RefCount: 1
    m_Data: {fileID: 7358287667048555173, guid: b0f8c9b913f463b4da106af14a69652c,
      type: 3}
  - m_RefCount: 1
    m_Data: {fileID: 7846565019493036850, guid: b0f8c9b913f463b4da106af14a69652c,
      type: 3}
  - m_RefCount: 1
    m_Data: {fileID: 4651532585296168391, guid: b0f8c9b913f463b4da106af14a69652c,
      type: 3}
  - m_RefCount: 1
    m_Data: {fileID: 5152811277611137395, guid: b0f8c9b913f463b4da106af14a69652c,
      type: 3}
  - m_RefCount: 1
    m_Data: {fileID: 6151316285910375129, guid: b0f8c9b913f463b4da106af14a69652c,
      type: 3}
  - m_RefCount: 1
    m_Data: {fileID: 8351334804918689851, guid: b0f8c9b913f463b4da106af14a69652c,
      type: 3}
  - m_RefCount: 1
    m_Data: {fileID: -8487465155132669354, guid: b0f8c9b913f463b4da106af14a69652c,
      type: 3}
  - m_RefCount: 1
    m_Data: {fileID: 524446783430186674, guid: b0f8c9b913f463b4da106af14a69652c, type: 3}
  - m_RefCount: 1
    m_Data: {fileID: 7197025264048851862, guid: b0f8c9b913f463b4da106af14a69652c,
      type: 3}
  - m_RefCount: 1
    m_Data: {fileID: -7326823335983811137, guid: b0f8c9b913f463b4da106af14a69652c,
      type: 3}
  - m_RefCount: 1
    m_Data: {fileID: -3248495164668984525, guid: b0f8c9b913f463b4da106af14a69652c,
      type: 3}
  - m_RefCount: 1
    m_Data: {fileID: -6816965412253392694, guid: b0f8c9b913f463b4da106af14a69652c,
      type: 3}
  - m_RefCount: 1
    m_Data: {fileID: 119130832271340673, guid: b0f8c9b913f463b4da106af14a69652c, type: 3}
  - m_RefCount: 1
    m_Data: {fileID: 2821793437986542722, guid: b0f8c9b913f463b4da106af14a69652c,
      type: 3}
  - m_RefCount: 1
    m_Data: {fileID: 6058715455030830177, guid: b0f8c9b913f463b4da106af14a69652c,
      type: 3}
  - m_RefCount: 1
    m_Data: {fileID: 1754673553576118015, guid: b0f8c9b913f463b4da106af14a69652c,
      type: 3}
  - m_RefCount: 1
    m_Data: {fileID: 5141547665812207819, guid: b0f8c9b913f463b4da106af14a69652c,
      type: 3}
  - m_RefCount: 1
    m_Data: {fileID: -4944587048837088011, guid: b0f8c9b913f463b4da106af14a69652c,
      type: 3}
  - m_RefCount: 1
    m_Data: {fileID: 8114775578371713045, guid: b0f8c9b913f463b4da106af14a69652c,
      type: 3}
  - m_RefCount: 1
    m_Data: {fileID: -603922250073809791, guid: b0f8c9b913f463b4da106af14a69652c,
      type: 3}
  - m_RefCount: 1
    m_Data: {fileID: -3758751286678003589, guid: b0f8c9b913f463b4da106af14a69652c,
      type: 3}
  - m_RefCount: 1
    m_Data: {fileID: -5574223541970099499, guid: b0f8c9b913f463b4da106af14a69652c,
      type: 3}
  - m_RefCount: 1
    m_Data: {fileID: 4266093033873180272, guid: b0f8c9b913f463b4da106af14a69652c,
      type: 3}
  - m_RefCount: 1
    m_Data: {fileID: 5021251510532992558, guid: b0f8c9b913f463b4da106af14a69652c,
      type: 3}
  - m_RefCount: 1
    m_Data: {fileID: -6778174679984135479, guid: b0f8c9b913f463b4da106af14a69652c,
      type: 3}
  - m_RefCount: 1
    m_Data: {fileID: 6395112588894997466, guid: b0f8c9b913f463b4da106af14a69652c,
      type: 3}
  - m_RefCount: 1
    m_Data: {fileID: 2267568948972583429, guid: b0f8c9b913f463b4da106af14a69652c,
      type: 3}
  - m_RefCount: 1
    m_Data: {fileID: 7292013134216477749, guid: b0f8c9b913f463b4da106af14a69652c,
      type: 3}
  - m_RefCount: 1
    m_Data: {fileID: 8793880110953576995, guid: b0f8c9b913f463b4da106af14a69652c,
      type: 3}
  - m_RefCount: 1
    m_Data: {fileID: -1599796888842674051, guid: b0f8c9b913f463b4da106af14a69652c,
      type: 3}
  - m_RefCount: 1
    m_Data: {fileID: -4758534082242446802, guid: b0f8c9b913f463b4da106af14a69652c,
      type: 3}
  - m_RefCount: 1
    m_Data: {fileID: -6577752271763373162, guid: b0f8c9b913f463b4da106af14a69652c,
      type: 3}
  - m_RefCount: 1
    m_Data: {fileID: -552182197673212288, guid: b0f8c9b913f463b4da106af14a69652c,
      type: 3}
  - m_RefCount: 1
    m_Data: {fileID: 2695520697353161047, guid: b0f8c9b913f463b4da106af14a69652c,
      type: 3}
  - m_RefCount: 1
    m_Data: {fileID: 891031620713068426, guid: b0f8c9b913f463b4da106af14a69652c, type: 3}
  - m_RefCount: 1
    m_Data: {fileID: -8504294982080626388, guid: b0f8c9b913f463b4da106af14a69652c,
      type: 3}
  - m_RefCount: 1
    m_Data: {fileID: 3974471186376787695, guid: b0f8c9b913f463b4da106af14a69652c,
      type: 3}
  - m_RefCount: 1
    m_Data: {fileID: -1365468436494857877, guid: b0f8c9b913f463b4da106af14a69652c,
      type: 3}
  - m_RefCount: 1
    m_Data: {fileID: -7340081238704186408, guid: b0f8c9b913f463b4da106af14a69652c,
      type: 3}
  - m_RefCount: 1
    m_Data: {fileID: 1151510917299277446, guid: b0f8c9b913f463b4da106af14a69652c,
      type: 3}
  - m_RefCount: 1
    m_Data: {fileID: -1229542572905992193, guid: b0f8c9b913f463b4da106af14a69652c,
      type: 3}
  - m_RefCount: 1
    m_Data: {fileID: 7307944777312067507, guid: b0f8c9b913f463b4da106af14a69652c,
      type: 3}
  - m_RefCount: 1
    m_Data: {fileID: -9219728416757245899, guid: b0f8c9b913f463b4da106af14a69652c,
      type: 3}
  - m_RefCount: 1
    m_Data: {fileID: 4047270303015891726, guid: b0f8c9b913f463b4da106af14a69652c,
      type: 3}
  - m_RefCount: 1
    m_Data: {fileID: 5395894521475988647, guid: b0f8c9b913f463b4da106af14a69652c,
      type: 3}
  - m_RefCount: 1
    m_Data: {fileID: 8818156477468625563, guid: b0f8c9b913f463b4da106af14a69652c,
      type: 3}
  - m_RefCount: 1
    m_Data: {fileID: 3047104011033689673, guid: b0f8c9b913f463b4da106af14a69652c,
      type: 3}
  - m_RefCount: 1
    m_Data: {fileID: -3364473400799862827, guid: b0f8c9b913f463b4da106af14a69652c,
      type: 3}
  - m_RefCount: 1
    m_Data: {fileID: -1312328541275428352, guid: b0f8c9b913f463b4da106af14a69652c,
      type: 3}
  - m_RefCount: 1
    m_Data: {fileID: -5869188358536411172, guid: b0f8c9b913f463b4da106af14a69652c,
      type: 3}
  - m_RefCount: 1
    m_Data: {fileID: 2200968464693235318, guid: b0f8c9b913f463b4da106af14a69652c,
      type: 3}
  - m_RefCount: 1
    m_Data: {fileID: -5962571697871057579, guid: b0f8c9b913f463b4da106af14a69652c,
      type: 3}
  - m_RefCount: 1
    m_Data: {fileID: -7422347017994938696, guid: b0f8c9b913f463b4da106af14a69652c,
      type: 3}
  - m_RefCount: 1
    m_Data: {fileID: 4750412008860388029, guid: b0f8c9b913f463b4da106af14a69652c,
      type: 3}
  - m_RefCount: 1
    m_Data: {fileID: -6148784838142372312, guid: b0f8c9b913f463b4da106af14a69652c,
      type: 3}
  - m_RefCount: 1
    m_Data: {fileID: -4830705276666638408, guid: b0f8c9b913f463b4da106af14a69652c,
      type: 3}
  - m_RefCount: 1
    m_Data: {fileID: -5594637971602304958, guid: b0f8c9b913f463b4da106af14a69652c,
      type: 3}
  - m_RefCount: 1
    m_Data: {fileID: 3278843515097977233, guid: b0f8c9b913f463b4da106af14a69652c,
      type: 3}
  - m_RefCount: 1
    m_Data: {fileID: 7789634775275829405, guid: b0f8c9b913f463b4da106af14a69652c,
      type: 3}
  - m_RefCount: 1
    m_Data: {fileID: 5266131668347882103, guid: b0f8c9b913f463b4da106af14a69652c,
      type: 3}
  - m_RefCount: 1
    m_Data: {fileID: 6852325225857975290, guid: b0f8c9b913f463b4da106af14a69652c,
      type: 3}
  - m_RefCount: 1
    m_Data: {fileID: 7076645027456182789, guid: b0f8c9b913f463b4da106af14a69652c,
      type: 3}
  - m_RefCount: 1
    m_Data: {fileID: 2857859520390408074, guid: b0f8c9b913f463b4da106af14a69652c,
      type: 3}
  - m_RefCount: 1
    m_Data: {fileID: -190362170379321746, guid: b0f8c9b913f463b4da106af14a69652c,
      type: 3}
  - m_RefCount: 1
    m_Data: {fileID: 495490470837509961, guid: b0f8c9b913f463b4da106af14a69652c, type: 3}
  - m_RefCount: 1
    m_Data: {fileID: -1935178873984971582, guid: b0f8c9b913f463b4da106af14a69652c,
      type: 3}
  - m_RefCount: 1
    m_Data: {fileID: -4962795063079316370, guid: b0f8c9b913f463b4da106af14a69652c,
      type: 3}
  - m_RefCount: 1
    m_Data: {fileID: 7893882042023251840, guid: b0f8c9b913f463b4da106af14a69652c,
      type: 3}
  - m_RefCount: 1
    m_Data: {fileID: -1892027926738211615, guid: b0f8c9b913f463b4da106af14a69652c,
      type: 3}
  - m_RefCount: 1
    m_Data: {fileID: -2268359696866008901, guid: b0f8c9b913f463b4da106af14a69652c,
      type: 3}
  - m_RefCount: 1
    m_Data: {fileID: 1314932482275609339, guid: b0f8c9b913f463b4da106af14a69652c,
      type: 3}
  - m_RefCount: 1
    m_Data: {fileID: 6364135779226221492, guid: b0f8c9b913f463b4da106af14a69652c,
      type: 3}
  - m_RefCount: 1
    m_Data: {fileID: -8207026470820909262, guid: b0f8c9b913f463b4da106af14a69652c,
      type: 3}
  - m_RefCount: 1
    m_Data: {fileID: 8014634831630014236, guid: b0f8c9b913f463b4da106af14a69652c,
      type: 3}
  - m_RefCount: 1
    m_Data: {fileID: -133241991744989185, guid: b0f8c9b913f463b4da106af14a69652c,
      type: 3}
  - m_RefCount: 1
    m_Data: {fileID: 33629018954648619, guid: b0f8c9b913f463b4da106af14a69652c, type: 3}
  - m_RefCount: 1
    m_Data: {fileID: -7370524801023404021, guid: b0f8c9b913f463b4da106af14a69652c,
      type: 3}
  - m_RefCount: 1
    m_Data: {fileID: 3559705528278350927, guid: be340a9d2bbd35c4aacae5bf6857fdf7,
      type: 3}
  - m_RefCount: 1
    m_Data: {fileID: 2469837676500790975, guid: b0f8c9b913f463b4da106af14a69652c,
      type: 3}
  - m_RefCount: 1
    m_Data: {fileID: 2722142867229485072, guid: b0f8c9b913f463b4da106af14a69652c,
      type: 3}
  - m_RefCount: 1
    m_Data: {fileID: -590110711721783986, guid: b0f8c9b913f463b4da106af14a69652c,
      type: 3}
  - m_RefCount: 1
    m_Data: {fileID: -6883338143936566388, guid: b0f8c9b913f463b4da106af14a69652c,
      type: 3}
  - m_RefCount: 1
    m_Data: {fileID: 7274063338933060836, guid: b0f8c9b913f463b4da106af14a69652c,
      type: 3}
  - m_RefCount: 1
    m_Data: {fileID: -7411455348395953398, guid: b0f8c9b913f463b4da106af14a69652c,
      type: 3}
  - m_RefCount: 1
    m_Data: {fileID: -4615015156771009933, guid: b0f8c9b913f463b4da106af14a69652c,
      type: 3}
  - m_RefCount: 1
    m_Data: {fileID: 2738247398128533721, guid: b0f8c9b913f463b4da106af14a69652c,
      type: 3}
  - m_RefCount: 1
    m_Data: {fileID: 3926449625209554518, guid: b0f8c9b913f463b4da106af14a69652c,
      type: 3}
  - m_RefCount: 1
    m_Data: {fileID: 7841010690864391079, guid: b0f8c9b913f463b4da106af14a69652c,
      type: 3}
  - m_RefCount: 1
    m_Data: {fileID: -4936431716001217688, guid: b0f8c9b913f463b4da106af14a69652c,
      type: 3}
  - m_RefCount: 1
    m_Data: {fileID: -4337653645804938801, guid: b0f8c9b913f463b4da106af14a69652c,
      type: 3}
  - m_RefCount: 1
    m_Data: {fileID: 2281998022142513749, guid: b0f8c9b913f463b4da106af14a69652c,
      type: 3}
  - m_RefCount: 1
    m_Data: {fileID: 8560591149527367302, guid: b0f8c9b913f463b4da106af14a69652c,
      type: 3}
  - m_RefCount: 1
    m_Data: {fileID: 6780049580852861411, guid: b0f8c9b913f463b4da106af14a69652c,
      type: 3}
  - m_RefCount: 1
    m_Data: {fileID: -1268522910311460327, guid: b0f8c9b913f463b4da106af14a69652c,
      type: 3}
  - m_RefCount: 1
    m_Data: {fileID: 152854699947989388, guid: b0f8c9b913f463b4da106af14a69652c, type: 3}
  - m_RefCount: 1
    m_Data: {fileID: -6915454670707133893, guid: b0f8c9b913f463b4da106af14a69652c,
      type: 3}
  - m_RefCount: 1
    m_Data: {fileID: -8461064831357926565, guid: b0f8c9b913f463b4da106af14a69652c,
      type: 3}
  m_TileMatrixArray:
  - m_RefCount: 133
    m_Data:
      e00: 1
      e01: 0
      e02: 0
      e03: 0
      e10: 0
      e11: 1
      e12: 0
      e13: 0
      e20: 0
      e21: 0
      e22: 1
      e23: 0
      e30: 0
      e31: 0
      e32: 0
      e33: 1
  m_TileColorArray:
  - m_RefCount: 133
    m_Data: {r: 1, g: 1, b: 1, a: 1}
  m_AnimationFrameRate: 1
  m_Color: {r: 1, g: 1, b: 1, a: 1}
  m_Origin: {x: -12, y: -7, z: 0}
  m_Size: {x: 22, y: 14, z: 1}
  m_TileAnchor: {x: 0.5, y: 0.5, z: 0}
  m_TileOrientation: 0
  m_TileOrientationMatrix:
    e00: 1
    e01: 0
    e02: 0
    e03: 0
    e10: 0
    e11: 1
    e12: 0
    e13: 0
    e20: 0
    e21: 0
    e22: 1
    e23: 0
    e30: 0
    e31: 0
    e32: 0
    e33: 1
--- !u!483693784 &5584791237060088498
TilemapRenderer:
  m_ObjectHideFlags: 0
  m_CorrespondingSourceObject: {fileID: 0}
  m_PrefabInstance: {fileID: 0}
  m_PrefabAsset: {fileID: 0}
  m_GameObject: {fileID: 4865275550693934738}
  m_Enabled: 0
  m_CastShadows: 0
  m_ReceiveShadows: 0
  m_DynamicOccludee: 0
  m_MotionVectors: 1
  m_LightProbeUsage: 0
  m_ReflectionProbeUsage: 0
  m_RenderingLayerMask: 1
  m_RendererPriority: 0
  m_Materials:
  - {fileID: 10754, guid: 0000000000000000f000000000000000, type: 0}
  m_StaticBatchInfo:
    firstSubMesh: 0
    subMeshCount: 0
  m_StaticBatchRoot: {fileID: 0}
  m_ProbeAnchor: {fileID: 0}
  m_LightProbeVolumeOverride: {fileID: 0}
  m_ScaleInLightmap: 1
  m_ReceiveGI: 1
  m_PreserveUVs: 0
  m_IgnoreNormalsForChartDetection: 0
  m_ImportantGI: 0
  m_StitchLightmapSeams: 1
  m_SelectedEditorRenderState: 0
  m_MinimumChartSize: 4
  m_AutoUVMaxDistance: 0.5
  m_AutoUVMaxAngle: 89
  m_LightmapParameters: {fileID: 0}
  m_SortingLayerID: 0
  m_SortingLayer: 0
  m_SortingOrder: 0
  m_ChunkSize: {x: 32, y: 32, z: 32}
  m_ChunkCullingBounds: {x: 0, y: 0, z: 0}
  m_MaxChunkCount: 16
  m_MaxFrameAge: 16
  m_SortOrder: 0
  m_Mode: 0
  m_DetectChunkCullingBounds: 0
  m_MaskInteraction: 0
--- !u!1 &9176209127612425204
GameObject:
  m_ObjectHideFlags: 0
  m_CorrespondingSourceObject: {fileID: 0}
  m_PrefabInstance: {fileID: 0}
  m_PrefabAsset: {fileID: 0}
  serializedVersion: 6
  m_Component:
  - component: {fileID: 7178934168386882503}
  - component: {fileID: 1185927847866717281}
  m_Layer: 31
  m_Name: World Map
  m_TagString: Untagged
  m_Icon: {fileID: 0}
  m_NavMeshLayer: 0
  m_StaticEditorFlags: 0
  m_IsActive: 1
--- !u!4 &7178934168386882503
Transform:
  m_ObjectHideFlags: 0
  m_CorrespondingSourceObject: {fileID: 0}
  m_PrefabInstance: {fileID: 0}
  m_PrefabAsset: {fileID: 0}
  m_GameObject: {fileID: 9176209127612425204}
  m_LocalRotation: {x: 0, y: 0, z: 0, w: 1}
  m_LocalPosition: {x: 0, y: 0, z: 0}
  m_LocalScale: {x: 1, y: 1, z: 1}
  m_Children:
  - {fileID: 4564020785650374382}
  m_Father: {fileID: 0}
  m_RootOrder: 0
  m_LocalEulerAnglesHint: {x: 0, y: 0, z: 0}
--- !u!156049354 &1185927847866717281
Grid:
  m_ObjectHideFlags: 0
  m_CorrespondingSourceObject: {fileID: 0}
  m_PrefabInstance: {fileID: 0}
  m_PrefabAsset: {fileID: 0}
  m_GameObject: {fileID: 9176209127612425204}
  m_Enabled: 1
  m_CellSize: {x: 1, y: 1, z: 0}
  m_CellGap: {x: 0, y: 0, z: 0}
  m_CellLayout: 0
  m_CellSwizzle: 0
--- !u!114 &912537023249945195
MonoBehaviour:
  m_ObjectHideFlags: 0
  m_CorrespondingSourceObject: {fileID: 0}
  m_PrefabInstance: {fileID: 0}
  m_PrefabAsset: {fileID: 0}
  m_GameObject: {fileID: 0}
  m_Enabled: 1
  m_EditorHideFlags: 0
  m_Script: {fileID: 12395, guid: 0000000000000000e000000000000000, type: 0}
  m_Name: Palette Settings
  m_EditorClassIdentifier: 
  cellSizing: 0
