%YAML 1.1
%TAG !u! tag:unity3d.com,2011:
--- !u!1001 &8554364759501412284
PrefabInstance:
  m_ObjectHideFlags: 0
  serializedVersion: 2
  m_Modification:
    m_TransformParent: {fileID: 0}
    m_Modifications:
    - target: {fileID: 6569833295366273447, guid: b7043fa79f0d21644b84ed953676362a,
        type: 3}
      propertyPath: m_Name
      value: Johnny Sprite Variant
      objectReference: {fileID: 0}
    - target: {fileID: 2436771422948952758, guid: b7043fa79f0d21644b84ed953676362a,
        type: 3}
      propertyPath: m_LocalPosition.x
      value: 0
      objectReference: {fileID: 0}
    - target: {fileID: 2436771422948952758, guid: b7043fa79f0d21644b84ed953676362a,
        type: 3}
      propertyPath: m_LocalPosition.y
      value: 0
      objectReference: {fileID: 0}
    - target: {fileID: 2436771422948952758, guid: b7043fa79f0d21644b84ed953676362a,
        type: 3}
      propertyPath: m_LocalPosition.z
      value: 0
      objectReference: {fileID: 0}
    - target: {fileID: 2436771422948952758, guid: b7043fa79f0d21644b84ed953676362a,
        type: 3}
      propertyPath: m_LocalRotation.x
      value: 0
      objectReference: {fileID: 0}
    - target: {fileID: 2436771422948952758, guid: b7043fa79f0d21644b84ed953676362a,
        type: 3}
      propertyPath: m_LocalRotation.y
      value: 0
      objectReference: {fileID: 0}
    - target: {fileID: 2436771422948952758, guid: b7043fa79f0d21644b84ed953676362a,
        type: 3}
      propertyPath: m_LocalRotation.z
      value: 0
      objectReference: {fileID: 0}
    - target: {fileID: 2436771422948952758, guid: b7043fa79f0d21644b84ed953676362a,
        type: 3}
      propertyPath: m_LocalRotation.w
      value: 1
      objectReference: {fileID: 0}
    - target: {fileID: 2436771422948952758, guid: b7043fa79f0d21644b84ed953676362a,
        type: 3}
      propertyPath: m_RootOrder
      value: 0
      objectReference: {fileID: 0}
    - target: {fileID: 2436771422948952758, guid: b7043fa79f0d21644b84ed953676362a,
        type: 3}
      propertyPath: m_LocalEulerAnglesHint.x
      value: 0
      objectReference: {fileID: 0}
    - target: {fileID: 2436771422948952758, guid: b7043fa79f0d21644b84ed953676362a,
        type: 3}
      propertyPath: m_LocalEulerAnglesHint.y
      value: 0
      objectReference: {fileID: 0}
    - target: {fileID: 2436771422948952758, guid: b7043fa79f0d21644b84ed953676362a,
        type: 3}
      propertyPath: m_LocalEulerAnglesHint.z
      value: 0
      objectReference: {fileID: 0}
    - target: {fileID: 229997863187330721, guid: b7043fa79f0d21644b84ed953676362a,
        type: 3}
      propertyPath: actorName
      value: Johnny
      objectReference: {fileID: 0}
    - target: {fileID: 4344591806973562844, guid: b7043fa79f0d21644b84ed953676362a,
        type: 3}
      propertyPath: m_Material
      value: 
      objectReference: {fileID: 6200000, guid: 9fb456fa34b980b40b7048cb41ce82b6, type: 2}
    - target: {fileID: 3684478758421916075, guid: b7043fa79f0d21644b84ed953676362a,
        type: 3}
      propertyPath: pauseMenu
      value: 
      objectReference: {fileID: 0}
    - target: {fileID: 3684478758421916075, guid: b7043fa79f0d21644b84ed953676362a,
        type: 3}
      propertyPath: levelUpPanel
      value: 
      objectReference: {fileID: 0}
    m_RemovedComponents: []
  m_SourcePrefab: {fileID: 100100000, guid: b7043fa79f0d21644b84ed953676362a, type: 3}
