%YAML 1.1
%TAG !u! tag:unity3d.com,2011:
--- !u!114 &5217476034482802254
MonoBehaviour:
  m_ObjectHideFlags: 0
  m_CorrespondingSourceObject: {fileID: 0}
  m_PrefabInstance: {fileID: 0}
  m_PrefabAsset: {fileID: 0}
  m_GameObject: {fileID: 4345322545268464725}
  m_Enabled: 1
  m_EditorHideFlags: 0
  m_Script: {fileID: 11500000, guid: 0f6842545cc7d43479a4c04e2e069014, type: 3}
  m_Name: 
  m_EditorClassIdentifier: 
  swingFx: {fileID: 8300000, guid: 16b050e42a9359a4984ee69175cb2179, type: 3}
  hitFX: {fileID: 8300000, guid: 16b050e42a9359a4984ee69175cb2179, type: 3}
  weaponPower: 5
  element: 4
  weaponTimeMultiplier: 1
--- !u!1001 &3456787414636825933
PrefabInstance:
  m_ObjectHideFlags: 0
  serializedVersion: 2
  m_Modification:
    m_TransformParent: {fileID: 0}
    m_Modifications:
    - target: {fileID: 1420135831078768916, guid: b5d62bd778d4f8145a8a073039208eb0,
        type: 3}
      propertyPath: m_LocalPosition.x
      value: -7.9849815
      objectReference: {fileID: 0}
    - target: {fileID: 1420135831078768916, guid: b5d62bd778d4f8145a8a073039208eb0,
        type: 3}
      propertyPath: m_LocalPosition.y
      value: -2.1638944
      objectReference: {fileID: 0}
    - target: {fileID: 1420135831078768916, guid: b5d62bd778d4f8145a8a073039208eb0,
        type: 3}
      propertyPath: m_LocalPosition.z
      value: 0
      objectReference: {fileID: 0}
    - target: {fileID: 1420135831078768916, guid: b5d62bd778d4f8145a8a073039208eb0,
        type: 3}
      propertyPath: m_LocalRotation.x
      value: 0
      objectReference: {fileID: 0}
    - target: {fileID: 1420135831078768916, guid: b5d62bd778d4f8145a8a073039208eb0,
        type: 3}
      propertyPath: m_LocalRotation.y
      value: 0
      objectReference: {fileID: 0}
    - target: {fileID: 1420135831078768916, guid: b5d62bd778d4f8145a8a073039208eb0,
        type: 3}
      propertyPath: m_LocalRotation.z
      value: 0
      objectReference: {fileID: 0}
    - target: {fileID: 1420135831078768916, guid: b5d62bd778d4f8145a8a073039208eb0,
        type: 3}
      propertyPath: m_LocalRotation.w
      value: 1
      objectReference: {fileID: 0}
    - target: {fileID: 1420135831078768916, guid: b5d62bd778d4f8145a8a073039208eb0,
        type: 3}
      propertyPath: m_RootOrder
      value: 0
      objectReference: {fileID: 0}
    - target: {fileID: 1420135831078768916, guid: b5d62bd778d4f8145a8a073039208eb0,
        type: 3}
      propertyPath: m_LocalEulerAnglesHint.x
      value: 0
      objectReference: {fileID: 0}
    - target: {fileID: 1420135831078768916, guid: b5d62bd778d4f8145a8a073039208eb0,
        type: 3}
      propertyPath: m_LocalEulerAnglesHint.y
      value: 0
      objectReference: {fileID: 0}
    - target: {fileID: 1420135831078768916, guid: b5d62bd778d4f8145a8a073039208eb0,
        type: 3}
      propertyPath: m_LocalEulerAnglesHint.z
      value: 0
      objectReference: {fileID: 0}
    - target: {fileID: 1420135831078768920, guid: b5d62bd778d4f8145a8a073039208eb0,
        type: 3}
      propertyPath: m_Name
      value: Wind Explosion Variant
      objectReference: {fileID: 0}
    m_RemovedComponents:
    - {fileID: 1420135831078768923, guid: b5d62bd778d4f8145a8a073039208eb0, type: 3}
  m_SourcePrefab: {fileID: 100100000, guid: b5d62bd778d4f8145a8a073039208eb0, type: 3}
--- !u!1 &4345322545268464725 stripped
GameObject:
  m_CorrespondingSourceObject: {fileID: 1420135831078768920, guid: b5d62bd778d4f8145a8a073039208eb0,
    type: 3}
  m_PrefabInstance: {fileID: 3456787414636825933}
  m_PrefabAsset: {fileID: 0}
